%!PS-Adobe-2.0 EPSF-2.0
%%Title: ../result/rl/graph/eps/graph_diff_all.eps
%%Creator: gnuplot 5.0 patchlevel 1
%%CreationDate: Thu May 19 20:52:20 2016
%%DocumentFonts: (atend)
%%BoundingBox: 50 50 230 176
%%EndComments
%%BeginProlog
/gnudict 256 dict def
gnudict begin
%
% The following true/false flags may be edited by hand if desired.
% The unit line width and grayscale image gamma correction may also be changed.
%
/Color false def
/Blacktext false def
/Solid false def
/Dashlength 1 def
/Landscape false def
/Level1 false def
/Level3 false def
/Rounded false def
/ClipToBoundingBox false def
/SuppressPDFMark false def
/TransparentPatterns false def
/gnulinewidth 5.000 def
/userlinewidth gnulinewidth def
/Gamma 1.0 def
/BackgroundColor {-1.000 -1.000 -1.000} def
%
/vshift -46 def
/dl1 {
  10.0 Dashlength userlinewidth gnulinewidth div mul mul mul
  Rounded { currentlinewidth 0.75 mul sub dup 0 le { pop 0.01 } if } if
} def
/dl2 {
  10.0 Dashlength userlinewidth gnulinewidth div mul mul mul
  Rounded { currentlinewidth 0.75 mul add } if
} def
/hpt_ 31.5 def
/vpt_ 31.5 def
/hpt hpt_ def
/vpt vpt_ def
/doclip {
  ClipToBoundingBox {
    newpath 50 50 moveto 230 50 lineto 230 176 lineto 50 176 lineto closepath
    clip
  } if
} def
%
% Gnuplot Prolog Version 5.0 (Dec 2014)
%
%/SuppressPDFMark true def
%
/M {moveto} bind def
/L {lineto} bind def
/R {rmoveto} bind def
/V {rlineto} bind def
/N {newpath moveto} bind def
/Z {closepath} bind def
/C {setrgbcolor} bind def
/f {rlineto fill} bind def
/g {setgray} bind def
/Gshow {show} def   % May be redefined later in the file to support UTF-8
/vpt2 vpt 2 mul def
/hpt2 hpt 2 mul def
/Lshow {currentpoint stroke M 0 vshift R 
	Blacktext {gsave 0 setgray textshow grestore} {textshow} ifelse} def
/Rshow {currentpoint stroke M dup stringwidth pop neg vshift R
	Blacktext {gsave 0 setgray textshow grestore} {textshow} ifelse} def
/Cshow {currentpoint stroke M dup stringwidth pop -2 div vshift R 
	Blacktext {gsave 0 setgray textshow grestore} {textshow} ifelse} def
/UP {dup vpt_ mul /vpt exch def hpt_ mul /hpt exch def
  /hpt2 hpt 2 mul def /vpt2 vpt 2 mul def} def
/DL {Color {setrgbcolor Solid {pop []} if 0 setdash}
 {pop pop pop 0 setgray Solid {pop []} if 0 setdash} ifelse} def
/BL {stroke userlinewidth 2 mul setlinewidth
	Rounded {1 setlinejoin 1 setlinecap} if} def
/AL {stroke userlinewidth 2 div setlinewidth
	Rounded {1 setlinejoin 1 setlinecap} if} def
/UL {dup gnulinewidth mul /userlinewidth exch def
	dup 1 lt {pop 1} if 10 mul /udl exch def} def
/PL {stroke userlinewidth setlinewidth
	Rounded {1 setlinejoin 1 setlinecap} if} def
3.8 setmiterlimit
% Classic Line colors (version 5.0)
/LCw {1 1 1} def
/LCb {0 0 0} def
/LCa {0 0 0} def
/LC0 {1 0 0} def
/LC1 {0 1 0} def
/LC2 {0 0 1} def
/LC3 {1 0 1} def
/LC4 {0 1 1} def
/LC5 {1 1 0} def
/LC6 {0 0 0} def
/LC7 {1 0.3 0} def
/LC8 {0.5 0.5 0.5} def
% Default dash patterns (version 5.0)
/LTw {PL [] 1 setgray} def
/LTb {BL [] LCb DL} def
/LTa {AL [1 udl mul 2 udl mul] 0 setdash LCa setrgbcolor} def
/LT0 {PL [] LC0 DL} def
/LT1 {PL [2 dl1 3 dl2] LC1 DL} def
/LT2 {PL [1 dl1 1.5 dl2] LC2 DL} def
/LT3 {PL [6 dl1 2 dl2 1 dl1 2 dl2] LC3 DL} def
/LT4 {PL [1 dl1 2 dl2 6 dl1 2 dl2 1 dl1 2 dl2] LC4 DL} def
/LT5 {PL [4 dl1 2 dl2] LC5 DL} def
/LT6 {PL [1.5 dl1 1.5 dl2 1.5 dl1 1.5 dl2 1.5 dl1 6 dl2] LC6 DL} def
/LT7 {PL [3 dl1 3 dl2 1 dl1 3 dl2] LC7 DL} def
/LT8 {PL [2 dl1 2 dl2 2 dl1 6 dl2] LC8 DL} def
/SL {[] 0 setdash} def
/Pnt {stroke [] 0 setdash gsave 1 setlinecap M 0 0 V stroke grestore} def
/Dia {stroke [] 0 setdash 2 copy vpt add M
  hpt neg vpt neg V hpt vpt neg V
  hpt vpt V hpt neg vpt V closepath stroke
  Pnt} def
/Pls {stroke [] 0 setdash vpt sub M 0 vpt2 V
  currentpoint stroke M
  hpt neg vpt neg R hpt2 0 V stroke
 } def
/Box {stroke [] 0 setdash 2 copy exch hpt sub exch vpt add M
  0 vpt2 neg V hpt2 0 V 0 vpt2 V
  hpt2 neg 0 V closepath stroke
  Pnt} def
/Crs {stroke [] 0 setdash exch hpt sub exch vpt add M
  hpt2 vpt2 neg V currentpoint stroke M
  hpt2 neg 0 R hpt2 vpt2 V stroke} def
/TriU {stroke [] 0 setdash 2 copy vpt 1.12 mul add M
  hpt neg vpt -1.62 mul V
  hpt 2 mul 0 V
  hpt neg vpt 1.62 mul V closepath stroke
  Pnt} def
/Star {2 copy Pls Crs} def
/BoxF {stroke [] 0 setdash exch hpt sub exch vpt add M
  0 vpt2 neg V hpt2 0 V 0 vpt2 V
  hpt2 neg 0 V closepath fill} def
/TriUF {stroke [] 0 setdash vpt 1.12 mul add M
  hpt neg vpt -1.62 mul V
  hpt 2 mul 0 V
  hpt neg vpt 1.62 mul V closepath fill} def
/TriD {stroke [] 0 setdash 2 copy vpt 1.12 mul sub M
  hpt neg vpt 1.62 mul V
  hpt 2 mul 0 V
  hpt neg vpt -1.62 mul V closepath stroke
  Pnt} def
/TriDF {stroke [] 0 setdash vpt 1.12 mul sub M
  hpt neg vpt 1.62 mul V
  hpt 2 mul 0 V
  hpt neg vpt -1.62 mul V closepath fill} def
/DiaF {stroke [] 0 setdash vpt add M
  hpt neg vpt neg V hpt vpt neg V
  hpt vpt V hpt neg vpt V closepath fill} def
/Pent {stroke [] 0 setdash 2 copy gsave
  translate 0 hpt M 4 {72 rotate 0 hpt L} repeat
  closepath stroke grestore Pnt} def
/PentF {stroke [] 0 setdash gsave
  translate 0 hpt M 4 {72 rotate 0 hpt L} repeat
  closepath fill grestore} def
/Circle {stroke [] 0 setdash 2 copy
  hpt 0 360 arc stroke Pnt} def
/CircleF {stroke [] 0 setdash hpt 0 360 arc fill} def
/C0 {BL [] 0 setdash 2 copy moveto vpt 90 450 arc} bind def
/C1 {BL [] 0 setdash 2 copy moveto
	2 copy vpt 0 90 arc closepath fill
	vpt 0 360 arc closepath} bind def
/C2 {BL [] 0 setdash 2 copy moveto
	2 copy vpt 90 180 arc closepath fill
	vpt 0 360 arc closepath} bind def
/C3 {BL [] 0 setdash 2 copy moveto
	2 copy vpt 0 180 arc closepath fill
	vpt 0 360 arc closepath} bind def
/C4 {BL [] 0 setdash 2 copy moveto
	2 copy vpt 180 270 arc closepath fill
	vpt 0 360 arc closepath} bind def
/C5 {BL [] 0 setdash 2 copy moveto
	2 copy vpt 0 90 arc
	2 copy moveto
	2 copy vpt 180 270 arc closepath fill
	vpt 0 360 arc} bind def
/C6 {BL [] 0 setdash 2 copy moveto
	2 copy vpt 90 270 arc closepath fill
	vpt 0 360 arc closepath} bind def
/C7 {BL [] 0 setdash 2 copy moveto
	2 copy vpt 0 270 arc closepath fill
	vpt 0 360 arc closepath} bind def
/C8 {BL [] 0 setdash 2 copy moveto
	2 copy vpt 270 360 arc closepath fill
	vpt 0 360 arc closepath} bind def
/C9 {BL [] 0 setdash 2 copy moveto
	2 copy vpt 270 450 arc closepath fill
	vpt 0 360 arc closepath} bind def
/C10 {BL [] 0 setdash 2 copy 2 copy moveto vpt 270 360 arc closepath fill
	2 copy moveto
	2 copy vpt 90 180 arc closepath fill
	vpt 0 360 arc closepath} bind def
/C11 {BL [] 0 setdash 2 copy moveto
	2 copy vpt 0 180 arc closepath fill
	2 copy moveto
	2 copy vpt 270 360 arc closepath fill
	vpt 0 360 arc closepath} bind def
/C12 {BL [] 0 setdash 2 copy moveto
	2 copy vpt 180 360 arc closepath fill
	vpt 0 360 arc closepath} bind def
/C13 {BL [] 0 setdash 2 copy moveto
	2 copy vpt 0 90 arc closepath fill
	2 copy moveto
	2 copy vpt 180 360 arc closepath fill
	vpt 0 360 arc closepath} bind def
/C14 {BL [] 0 setdash 2 copy moveto
	2 copy vpt 90 360 arc closepath fill
	vpt 0 360 arc} bind def
/C15 {BL [] 0 setdash 2 copy vpt 0 360 arc closepath fill
	vpt 0 360 arc closepath} bind def
/Rec {newpath 4 2 roll moveto 1 index 0 rlineto 0 exch rlineto
	neg 0 rlineto closepath} bind def
/Square {dup Rec} bind def
/Bsquare {vpt sub exch vpt sub exch vpt2 Square} bind def
/S0 {BL [] 0 setdash 2 copy moveto 0 vpt rlineto BL Bsquare} bind def
/S1 {BL [] 0 setdash 2 copy vpt Square fill Bsquare} bind def
/S2 {BL [] 0 setdash 2 copy exch vpt sub exch vpt Square fill Bsquare} bind def
/S3 {BL [] 0 setdash 2 copy exch vpt sub exch vpt2 vpt Rec fill Bsquare} bind def
/S4 {BL [] 0 setdash 2 copy exch vpt sub exch vpt sub vpt Square fill Bsquare} bind def
/S5 {BL [] 0 setdash 2 copy 2 copy vpt Square fill
	exch vpt sub exch vpt sub vpt Square fill Bsquare} bind def
/S6 {BL [] 0 setdash 2 copy exch vpt sub exch vpt sub vpt vpt2 Rec fill Bsquare} bind def
/S7 {BL [] 0 setdash 2 copy exch vpt sub exch vpt sub vpt vpt2 Rec fill
	2 copy vpt Square fill Bsquare} bind def
/S8 {BL [] 0 setdash 2 copy vpt sub vpt Square fill Bsquare} bind def
/S9 {BL [] 0 setdash 2 copy vpt sub vpt vpt2 Rec fill Bsquare} bind def
/S10 {BL [] 0 setdash 2 copy vpt sub vpt Square fill 2 copy exch vpt sub exch vpt Square fill
	Bsquare} bind def
/S11 {BL [] 0 setdash 2 copy vpt sub vpt Square fill 2 copy exch vpt sub exch vpt2 vpt Rec fill
	Bsquare} bind def
/S12 {BL [] 0 setdash 2 copy exch vpt sub exch vpt sub vpt2 vpt Rec fill Bsquare} bind def
/S13 {BL [] 0 setdash 2 copy exch vpt sub exch vpt sub vpt2 vpt Rec fill
	2 copy vpt Square fill Bsquare} bind def
/S14 {BL [] 0 setdash 2 copy exch vpt sub exch vpt sub vpt2 vpt Rec fill
	2 copy exch vpt sub exch vpt Square fill Bsquare} bind def
/S15 {BL [] 0 setdash 2 copy Bsquare fill Bsquare} bind def
/D0 {gsave translate 45 rotate 0 0 S0 stroke grestore} bind def
/D1 {gsave translate 45 rotate 0 0 S1 stroke grestore} bind def
/D2 {gsave translate 45 rotate 0 0 S2 stroke grestore} bind def
/D3 {gsave translate 45 rotate 0 0 S3 stroke grestore} bind def
/D4 {gsave translate 45 rotate 0 0 S4 stroke grestore} bind def
/D5 {gsave translate 45 rotate 0 0 S5 stroke grestore} bind def
/D6 {gsave translate 45 rotate 0 0 S6 stroke grestore} bind def
/D7 {gsave translate 45 rotate 0 0 S7 stroke grestore} bind def
/D8 {gsave translate 45 rotate 0 0 S8 stroke grestore} bind def
/D9 {gsave translate 45 rotate 0 0 S9 stroke grestore} bind def
/D10 {gsave translate 45 rotate 0 0 S10 stroke grestore} bind def
/D11 {gsave translate 45 rotate 0 0 S11 stroke grestore} bind def
/D12 {gsave translate 45 rotate 0 0 S12 stroke grestore} bind def
/D13 {gsave translate 45 rotate 0 0 S13 stroke grestore} bind def
/D14 {gsave translate 45 rotate 0 0 S14 stroke grestore} bind def
/D15 {gsave translate 45 rotate 0 0 S15 stroke grestore} bind def
/DiaE {stroke [] 0 setdash vpt add M
  hpt neg vpt neg V hpt vpt neg V
  hpt vpt V hpt neg vpt V closepath stroke} def
/BoxE {stroke [] 0 setdash exch hpt sub exch vpt add M
  0 vpt2 neg V hpt2 0 V 0 vpt2 V
  hpt2 neg 0 V closepath stroke} def
/TriUE {stroke [] 0 setdash vpt 1.12 mul add M
  hpt neg vpt -1.62 mul V
  hpt 2 mul 0 V
  hpt neg vpt 1.62 mul V closepath stroke} def
/TriDE {stroke [] 0 setdash vpt 1.12 mul sub M
  hpt neg vpt 1.62 mul V
  hpt 2 mul 0 V
  hpt neg vpt -1.62 mul V closepath stroke} def
/PentE {stroke [] 0 setdash gsave
  translate 0 hpt M 4 {72 rotate 0 hpt L} repeat
  closepath stroke grestore} def
/CircE {stroke [] 0 setdash 
  hpt 0 360 arc stroke} def
/Opaque {gsave closepath 1 setgray fill grestore 0 setgray closepath} def
/DiaW {stroke [] 0 setdash vpt add M
  hpt neg vpt neg V hpt vpt neg V
  hpt vpt V hpt neg vpt V Opaque stroke} def
/BoxW {stroke [] 0 setdash exch hpt sub exch vpt add M
  0 vpt2 neg V hpt2 0 V 0 vpt2 V
  hpt2 neg 0 V Opaque stroke} def
/TriUW {stroke [] 0 setdash vpt 1.12 mul add M
  hpt neg vpt -1.62 mul V
  hpt 2 mul 0 V
  hpt neg vpt 1.62 mul V Opaque stroke} def
/TriDW {stroke [] 0 setdash vpt 1.12 mul sub M
  hpt neg vpt 1.62 mul V
  hpt 2 mul 0 V
  hpt neg vpt -1.62 mul V Opaque stroke} def
/PentW {stroke [] 0 setdash gsave
  translate 0 hpt M 4 {72 rotate 0 hpt L} repeat
  Opaque stroke grestore} def
/CircW {stroke [] 0 setdash 
  hpt 0 360 arc Opaque stroke} def
/BoxFill {gsave Rec 1 setgray fill grestore} def
/Density {
  /Fillden exch def
  currentrgbcolor
  /ColB exch def /ColG exch def /ColR exch def
  /ColR ColR Fillden mul Fillden sub 1 add def
  /ColG ColG Fillden mul Fillden sub 1 add def
  /ColB ColB Fillden mul Fillden sub 1 add def
  ColR ColG ColB setrgbcolor} def
/BoxColFill {gsave Rec PolyFill} def
/PolyFill {gsave Density fill grestore grestore} def
/h {rlineto rlineto rlineto gsave closepath fill grestore} bind def
%
% PostScript Level 1 Pattern Fill routine for rectangles
% Usage: x y w h s a XX PatternFill
%	x,y = lower left corner of box to be filled
%	w,h = width and height of box
%	  a = angle in degrees between lines and x-axis
%	 XX = 0/1 for no/yes cross-hatch
%
/PatternFill {gsave /PFa [ 9 2 roll ] def
  PFa 0 get PFa 2 get 2 div add PFa 1 get PFa 3 get 2 div add translate
  PFa 2 get -2 div PFa 3 get -2 div PFa 2 get PFa 3 get Rec
  TransparentPatterns {} {gsave 1 setgray fill grestore} ifelse
  clip
  currentlinewidth 0.5 mul setlinewidth
  /PFs PFa 2 get dup mul PFa 3 get dup mul add sqrt def
  0 0 M PFa 5 get rotate PFs -2 div dup translate
  0 1 PFs PFa 4 get div 1 add floor cvi
	{PFa 4 get mul 0 M 0 PFs V} for
  0 PFa 6 get ne {
	0 1 PFs PFa 4 get div 1 add floor cvi
	{PFa 4 get mul 0 2 1 roll M PFs 0 V} for
 } if
  stroke grestore} def
%
/languagelevel where
 {pop languagelevel} {1} ifelse
dup 2 lt
	{/InterpretLevel1 true def
	 /InterpretLevel3 false def}
	{/InterpretLevel1 Level1 def
	 2 gt
	    {/InterpretLevel3 Level3 def}
	    {/InterpretLevel3 false def}
	 ifelse }
 ifelse
%
% PostScript level 2 pattern fill definitions
%
/Level2PatternFill {
/Tile8x8 {/PaintType 2 /PatternType 1 /TilingType 1 /BBox [0 0 8 8] /XStep 8 /YStep 8}
	bind def
/KeepColor {currentrgbcolor [/Pattern /DeviceRGB] setcolorspace} bind def
<< Tile8x8
 /PaintProc {0.5 setlinewidth pop 0 0 M 8 8 L 0 8 M 8 0 L stroke} 
>> matrix makepattern
/Pat1 exch def
<< Tile8x8
 /PaintProc {0.5 setlinewidth pop 0 0 M 8 8 L 0 8 M 8 0 L stroke
	0 4 M 4 8 L 8 4 L 4 0 L 0 4 L stroke}
>> matrix makepattern
/Pat2 exch def
<< Tile8x8
 /PaintProc {0.5 setlinewidth pop 0 0 M 0 8 L
	8 8 L 8 0 L 0 0 L fill}
>> matrix makepattern
/Pat3 exch def
<< Tile8x8
 /PaintProc {0.5 setlinewidth pop -4 8 M 8 -4 L
	0 12 M 12 0 L stroke}
>> matrix makepattern
/Pat4 exch def
<< Tile8x8
 /PaintProc {0.5 setlinewidth pop -4 0 M 8 12 L
	0 -4 M 12 8 L stroke}
>> matrix makepattern
/Pat5 exch def
<< Tile8x8
 /PaintProc {0.5 setlinewidth pop -2 8 M 4 -4 L
	0 12 M 8 -4 L 4 12 M 10 0 L stroke}
>> matrix makepattern
/Pat6 exch def
<< Tile8x8
 /PaintProc {0.5 setlinewidth pop -2 0 M 4 12 L
	0 -4 M 8 12 L 4 -4 M 10 8 L stroke}
>> matrix makepattern
/Pat7 exch def
<< Tile8x8
 /PaintProc {0.5 setlinewidth pop 8 -2 M -4 4 L
	12 0 M -4 8 L 12 4 M 0 10 L stroke}
>> matrix makepattern
/Pat8 exch def
<< Tile8x8
 /PaintProc {0.5 setlinewidth pop 0 -2 M 12 4 L
	-4 0 M 12 8 L -4 4 M 8 10 L stroke}
>> matrix makepattern
/Pat9 exch def
/Pattern1 {PatternBgnd KeepColor Pat1 setpattern} bind def
/Pattern2 {PatternBgnd KeepColor Pat2 setpattern} bind def
/Pattern3 {PatternBgnd KeepColor Pat3 setpattern} bind def
/Pattern4 {PatternBgnd KeepColor Landscape {Pat5} {Pat4} ifelse setpattern} bind def
/Pattern5 {PatternBgnd KeepColor Landscape {Pat4} {Pat5} ifelse setpattern} bind def
/Pattern6 {PatternBgnd KeepColor Landscape {Pat9} {Pat6} ifelse setpattern} bind def
/Pattern7 {PatternBgnd KeepColor Landscape {Pat8} {Pat7} ifelse setpattern} bind def
} def
%
%
%End of PostScript Level 2 code
%
/PatternBgnd {
  TransparentPatterns {} {gsave 1 setgray fill grestore} ifelse
} def
%
% Substitute for Level 2 pattern fill codes with
% grayscale if Level 2 support is not selected.
%
/Level1PatternFill {
/Pattern1 {0.250 Density} bind def
/Pattern2 {0.500 Density} bind def
/Pattern3 {0.750 Density} bind def
/Pattern4 {0.125 Density} bind def
/Pattern5 {0.375 Density} bind def
/Pattern6 {0.625 Density} bind def
/Pattern7 {0.875 Density} bind def
} def
%
% Now test for support of Level 2 code
%
Level1 {Level1PatternFill} {Level2PatternFill} ifelse
%
/Symbol-Oblique /Symbol findfont [1 0 .167 1 0 0] makefont
dup length dict begin {1 index /FID eq {pop pop} {def} ifelse} forall
currentdict end definefont pop
%
/MFshow {
   { dup 5 get 3 ge
     { 5 get 3 eq {gsave} {grestore} ifelse }
     {dup dup 0 get findfont exch 1 get scalefont setfont
     [ currentpoint ] exch dup 2 get 0 exch R dup 5 get 2 ne {dup dup 6
     get exch 4 get {textshow} {stringwidth pop 0 R} ifelse }if dup 5 get 0 eq
     {dup 3 get {2 get neg 0 exch R pop} {pop aload pop M} ifelse} {dup 5
     get 1 eq {dup 2 get exch dup 3 get exch 6 get stringwidth pop -2 div
     dup 0 R} {dup 6 get stringwidth pop -2 div 0 R 6 get
     textshow 2 index {aload pop M neg 3 -1 roll neg R pop pop} {pop pop pop
     pop aload pop M} ifelse }ifelse }ifelse }
     ifelse }
   forall} def
/Gswidth {dup type /stringtype eq {stringwidth} {pop (n) stringwidth} ifelse} def
/MFwidth {0 exch { dup 5 get 3 ge { 5 get 3 eq { 0 } { pop } ifelse }
 {dup 3 get{dup dup 0 get findfont exch 1 get scalefont setfont
     6 get Gswidth pop add} {pop} ifelse} ifelse} forall} def
/MLshow { currentpoint stroke M
  0 exch R
  Blacktext {gsave 0 setgray MFshow grestore} {MFshow} ifelse } bind def
/MRshow { currentpoint stroke M
  exch dup MFwidth neg 3 -1 roll R
  Blacktext {gsave 0 setgray MFshow grestore} {MFshow} ifelse } bind def
/MCshow { currentpoint stroke M
  exch dup MFwidth -2 div 3 -1 roll R
  Blacktext {gsave 0 setgray MFshow grestore} {MFshow} ifelse } bind def
/XYsave    { [( ) 1 2 true false 3 ()] } bind def
/XYrestore { [( ) 1 2 true false 4 ()] } bind def
Level1 SuppressPDFMark or 
{} {
/SDict 10 dict def
systemdict /pdfmark known not {
  userdict /pdfmark systemdict /cleartomark get put
} if
SDict begin [
  /Title (../result/rl/graph/eps/graph_diff_all.eps)
  /Subject (gnuplot plot)
  /Creator (gnuplot 5.0 patchlevel 1)
  /Author (s-tomoki)
%  /Producer (gnuplot)
%  /Keywords ()
  /CreationDate (Thu May 19 20:52:20 2016)
  /DOCINFO pdfmark
end
} ifelse
end
%
% Support for boxed text - Ethan A Merritt May 2005
%
/InitTextBox { userdict /TBy2 3 -1 roll put userdict /TBx2 3 -1 roll put
           userdict /TBy1 3 -1 roll put userdict /TBx1 3 -1 roll put
	   /Boxing true def } def
/ExtendTextBox { Boxing
    { gsave dup false charpath pathbbox
      dup TBy2 gt {userdict /TBy2 3 -1 roll put} {pop} ifelse
      dup TBx2 gt {userdict /TBx2 3 -1 roll put} {pop} ifelse
      dup TBy1 lt {userdict /TBy1 3 -1 roll put} {pop} ifelse
      dup TBx1 lt {userdict /TBx1 3 -1 roll put} {pop} ifelse
      grestore } if } def
/PopTextBox { newpath TBx1 TBxmargin sub TBy1 TBymargin sub M
               TBx1 TBxmargin sub TBy2 TBymargin add L
	       TBx2 TBxmargin add TBy2 TBymargin add L
	       TBx2 TBxmargin add TBy1 TBymargin sub L closepath } def
/DrawTextBox { PopTextBox stroke /Boxing false def} def
/FillTextBox { gsave PopTextBox 1 1 1 setrgbcolor fill grestore /Boxing false def} def
0 0 0 0 InitTextBox
/TBxmargin 20 def
/TBymargin 20 def
/Boxing false def
/textshow { ExtendTextBox Gshow } def
%
%%EndProlog
%%Page: 1 1
gnudict begin
gsave
doclip
50 50 translate
0.050 0.050 scale
0 setgray
newpath
(Helvetica) findfont 140 scalefont setfont
BackgroundColor 0 lt 3 1 roll 0 lt exch 0 lt or or not {BackgroundColor C 1.000 0 0 3600.00 2520.00 BoxColFill} if
1.000 UL
LTb
LCb setrgbcolor
602 448 M
63 0 V
2682 0 R
-63 0 V
stroke
518 448 M
[ [(Helvetica) 140.0 0.0 true true 0 ( 0)]
] -46.7 MRshow
1.000 UL
LTb
LCb setrgbcolor
602 702 M
63 0 V
2682 0 R
-63 0 V
stroke
518 702 M
[ [(Helvetica) 140.0 0.0 true true 0 ( 10)]
] -46.7 MRshow
1.000 UL
LTb
LCb setrgbcolor
602 956 M
63 0 V
2682 0 R
-63 0 V
stroke
518 956 M
[ [(Helvetica) 140.0 0.0 true true 0 ( 20)]
] -46.7 MRshow
1.000 UL
LTb
LCb setrgbcolor
602 1210 M
63 0 V
2682 0 R
-63 0 V
stroke
518 1210 M
[ [(Helvetica) 140.0 0.0 true true 0 ( 30)]
] -46.7 MRshow
1.000 UL
LTb
LCb setrgbcolor
602 1463 M
63 0 V
2682 0 R
-63 0 V
stroke
518 1463 M
[ [(Helvetica) 140.0 0.0 true true 0 ( 40)]
] -46.7 MRshow
1.000 UL
LTb
LCb setrgbcolor
602 1717 M
63 0 V
2682 0 R
-63 0 V
stroke
518 1717 M
[ [(Helvetica) 140.0 0.0 true true 0 ( 50)]
] -46.7 MRshow
1.000 UL
LTb
LCb setrgbcolor
602 1971 M
63 0 V
2682 0 R
-63 0 V
stroke
518 1971 M
[ [(Helvetica) 140.0 0.0 true true 0 ( 60)]
] -46.7 MRshow
1.000 UL
LTb
LCb setrgbcolor
602 2225 M
63 0 V
2682 0 R
-63 0 V
stroke
518 2225 M
[ [(Helvetica) 140.0 0.0 true true 0 ( 70)]
] -46.7 MRshow
1.000 UL
LTb
LCb setrgbcolor
602 448 M
0 63 V
0 1841 R
0 -63 V
stroke
602 308 M
[ [(Helvetica) 140.0 0.0 true true 0 ( 1)]
] -46.7 MCshow
1.000 UL
LTb
LCb setrgbcolor
877 448 M
0 31 V
0 1873 R
0 -31 V
1151 448 M
0 63 V
0 1841 R
0 -63 V
stroke
1151 308 M
[ [(Helvetica) 140.0 0.0 true true 0 ( 4)]
] -46.7 MCshow
1.000 UL
LTb
LCb setrgbcolor
1426 448 M
0 31 V
0 1873 R
0 -31 V
1700 448 M
0 63 V
0 1841 R
0 -63 V
stroke
1700 308 M
[ [(Helvetica) 140.0 0.0 true true 0 ( 16)]
] -46.7 MCshow
1.000 UL
LTb
LCb setrgbcolor
1975 448 M
0 31 V
0 1873 R
0 -31 V
2249 448 M
0 63 V
0 1841 R
0 -63 V
stroke
2249 308 M
[ [(Helvetica) 140.0 0.0 true true 0 ( 64)]
] -46.7 MCshow
1.000 UL
LTb
LCb setrgbcolor
2524 448 M
0 31 V
0 1873 R
0 -31 V
2798 448 M
0 63 V
0 1841 R
0 -63 V
stroke
2798 308 M
[ [(Helvetica) 140.0 0.0 true true 0 ( 256)]
] -46.7 MCshow
1.000 UL
LTb
LCb setrgbcolor
3073 448 M
0 31 V
0 1873 R
0 -31 V
3347 448 M
0 63 V
0 1841 R
0 -63 V
stroke
3347 308 M
[ [(Helvetica) 140.0 0.0 true true 0 ( 1024)]
] -46.7 MCshow
1.000 UL
LTb
LCb setrgbcolor
1.000 UL
LTb
LCb setrgbcolor
602 2352 N
602 448 L
2745 0 V
0 1904 V
-2745 0 V
Z stroke
1.000 UP
1.000 UL
LTb
LCb setrgbcolor
LCb setrgbcolor
112 1400 M
currentpoint gsave translate -270 rotate 0 0 moveto
[ [(Helvetica) 140.0 0.0 true true 0 (Appearance frequency [%])]
] -46.7 MCshow
grestore
LTb
LCb setrgbcolor
1974 98 M
[ [(Helvetica) 140.0 0.0 true true 0 (Run length)]
] -46.7 MCshow
LTb
% Begin plot #1
1.000 UP
1.000 UL
LTb
LCb setrgbcolor
LCb setrgbcolor
2696 2219 M
[ [(Helvetica) 140.0 0.0 true true 0 (diff-all-max)]
] -46.7 MRshow
1.000 UP
1.000 UL
LTb
LCb setrgbcolor
2780 2219 M
399 0 V
602 1478 M
877 790 L
1037 586 L
114 -57 V
88 -31 V
73 -13 V
61 -10 V
53 -7 V
46 -3 V
42 -3 V
38 -1 V
34 0 V
32 -2 V
29 -1 V
27 2 V
26 0 V
24 1 V
23 2 V
21 -1 V
20 5 V
20 1 V
18 2 V
18 0 V
17 3 V
16 0 V
15 2 V
15 2 V
15 1 V
14 7 V
13 9 V
13 2 V
13 -25 V
12 -12 V
12 -3 V
11 -2 V
11 -1 V
11 -1 V
11 -2 V
10 0 V
10 0 V
10 0 V
9 -1 V
10 0 V
9 0 V
9 0 V
8 0 V
9 0 V
8 0 V
8 0 V
8 0 V
8 0 V
8 1 V
7 0 V
8 0 V
7 0 V
7 0 V
7 2 V
7 0 V
7 0 V
6 1 V
7 1 V
6 1 V
7 0 V
6 -1 V
6 -1 V
6 -1 V
6 -2 V
6 0 V
6 0 V
5 0 V
6 -1 V
6 0 V
5 0 V
5 0 V
6 -1 V
5 0 V
5 0 V
5 1 V
5 -1 V
5 1 V
5 0 V
5 0 V
5 0 V
5 0 V
4 0 V
5 0 V
5 0 V
4 0 V
5 1 V
4 -1 V
4 1 V
5 0 V
4 0 V
4 1 V
4 0 V
5 -1 V
4 0 V
4 -1 V
4 1 V
4 -1 V
4 0 V
4 1 V
3 0 V
4 0 V
4 0 V
4 0 V
4 0 V
stroke 2453 450 M
3 -2 V
4 0 V
3 0 V
4 0 V
4 0 V
3 0 V
4 0 V
3 0 V
4 0 V
3 0 V
3 0 V
4 0 V
3 5 V
3 -4 V
3 0 V
4 0 V
3 0 V
3 0 V
3 0 V
3 0 V
4 0 V
3 0 V
3 0 V
3 0 V
3 0 V
3 0 V
3 0 V
3 -1 V
3 2 V
2 -1 V
3 0 V
3 0 V
3 1 V
3 -1 V
3 -1 V
2 0 V
3 0 V
3 0 V
3 1 V
2 -1 V
3 4 V
3 -3 V
2 0 V
3 2 V
3 -1 V
2 0 V
3 -2 V
2 0 V
3 1 V
2 0 V
3 0 V
2 0 V
3 0 V
2 0 V
3 -1 V
2 1 V
3 -1 V
2 1 V
2 0 V
3 0 V
2 0 V
3 0 V
2 0 V
2 0 V
3 0 V
2 -1 V
2 1 V
2 0 V
3 1 V
2 -1 V
2 1 V
2 -1 V
3 0 V
2 0 V
2 0 V
2 0 V
2 0 V
2 1 V
2 -2 V
3 0 V
2 0 V
2 0 V
2 0 V
2 0 V
2 1 V
2 0 V
2 -1 V
2 1 V
2 -1 V
2 0 V
2 0 V
2 1 V
2 -1 V
2 1 V
2 -1 V
2 0 V
2 1 V
2 0 V
2 0 V
2 0 V
2 -1 V
2 1 V
2 0 V
1 0 V
stroke 2721 449 M
2 -1 V
2 1 V
2 0 V
2 0 V
2 1 V
2 -1 V
1 -1 V
2 0 V
2 0 V
2 0 V
2 0 V
1 0 V
2 0 V
2 0 V
2 0 V
1 0 V
2 0 V
2 0 V
2 1 V
1 -1 V
2 0 V
2 0 V
1 0 V
2 1 V
2 0 V
1 -1 V
2 0 V
2 0 V
1 1 V
2 0 V
2 -1 V
1 1 V
2 0 V
2 0 V
1 0 V
2 0 V
1 0 V
2 0 V
2 0 V
1 -1 V
2 0 V
1 0 V
2 0 V
1 0 V
2 0 V
2 0 V
1 0 V
2 0 V
1 1 V
2 -1 V
1 0 V
2 0 V
1 0 V
2 0 V
1 0 V
2 1 V
1 -1 V
2 0 V
1 0 V
2 0 V
1 0 V
1 0 V
2 0 V
1 0 V
2 0 V
1 1 V
2 0 V
1 -1 V
1 1 V
2 0 V
1 0 V
2 -1 V
1 0 V
1 0 V
2 0 V
1 0 V
2 0 V
1 0 V
1 0 V
2 5 V
1 -5 V
1 0 V
2 0 V
1 0 V
1 0 V
2 0 V
1 0 V
1 0 V
2 0 V
1 0 V
1 0 V
2 0 V
1 0 V
1 0 V
2 0 V
1 0 V
1 0 V
2 0 V
1 0 V
1 1 V
1 0 V
2 0 V
1 0 V
1 0 V
stroke 2880 449 M
1 -1 V
2 0 V
1 0 V
1 0 V
1 0 V
2 0 V
1 0 V
1 0 V
1 0 V
2 0 V
1 0 V
1 0 V
1 1 V
1 -1 V
2 0 V
1 0 V
1 0 V
1 0 V
1 0 V
2 0 V
1 0 V
1 0 V
1 0 V
1 0 V
1 0 V
2 0 V
1 0 V
1 0 V
1 1 V
1 -1 V
1 1 V
1 0 V
2 -1 V
1 0 V
1 0 V
1 0 V
1 0 V
1 0 V
1 0 V
1 0 V
2 1 V
1 0 V
1 -1 V
1 0 V
1 0 V
1 1 V
1 0 V
1 -1 V
1 0 V
1 0 V
2 0 V
1 0 V
1 0 V
1 0 V
1 0 V
1 0 V
1 0 V
1 0 V
1 0 V
1 0 V
1 0 V
1 0 V
1 0 V
1 0 V
1 0 V
1 0 V
2 0 V
1 0 V
1 0 V
1 0 V
1 1 V
1 -1 V
1 0 V
1 0 V
1 0 V
1 0 V
1 0 V
1 0 V
1 0 V
1 0 V
1 0 V
1 0 V
1 0 V
1 0 V
1 0 V
1 0 V
1 0 V
1 0 V
1 0 V
1 0 V
1 0 V
1 0 V
1 0 V
1 0 V
1 0 V
1 0 V
1 0 V
1 0 V
1 0 V
1 0 V
1 1 V
1 -1 V
1 0 V
1 0 V
stroke 2994 448 M
1 0 V
1 0 V
1 0 V
1 0 V
1 0 V
1 0 V
1 0 V
1 0 V
1 0 V
1 0 V
1 0 V
1 0 V
1 0 V
1 0 V
1 0 V
1 0 V
1 0 V
1 0 V
1 0 V
1 0 V
1 0 V
1 0 V
1 0 V
1 0 V
1 0 V
1 0 V
1 1 V
0 -1 V
1 0 V
1 0 V
1 0 V
1 0 V
1 0 V
1 0 V
1 0 V
1 0 V
1 0 V
1 0 V
1 0 V
1 0 V
1 0 V
1 0 V
1 0 V
1 0 V
1 0 V
1 0 V
1 0 V
1 0 V
1 0 V
1 0 V
1 0 V
1 0 V
1 0 V
1 0 V
1 0 V
1 0 V
1 0 V
1 0 V
1 0 V
1 0 V
1 0 V
1 0 V
1 0 V
1 0 V
1 0 V
1 0 V
1 0 V
1 0 V
1 0 V
1 0 V
1 0 V
1 0 V
1 0 V
1 0 V
1 0 V
1 0 V
1 0 V
1 0 V
1 0 V
1 0 V
1 0 V
1 0 V
1 0 V
1 0 V
1 0 V
1 0 V
1 0 V
1 0 V
1 0 V
1 0 V
1 0 V
1 0 V
1 0 V
1 0 V
1 0 V
1 0 V
1 0 V
1 0 V
1 0 V
1 0 V
1 0 V
1 0 V
1 0 V
1 0 V
stroke 3097 448 M
1 0 V
1 0 V
1 0 V
1 0 V
1 0 V
1 0 V
1 0 V
1 0 V
1 0 V
1 0 V
1 0 V
1 0 V
1 0 V
1 0 V
1 0 V
1 0 V
1 0 V
1 0 V
1 0 V
1 0 V
1 0 V
1 0 V
1 0 V
1 0 V
1 0 V
1 0 V
1 0 V
1 0 V
1 0 V
1 0 V
1 0 V
1 0 V
1 0 V
1 0 V
1 0 V
1 0 V
1 0 V
1 0 V
1 0 V
1 0 V
1 0 V
1 0 V
1 0 V
1 0 V
1 0 V
1 0 V
1 0 V
1 0 V
1 0 V
1 0 V
1 0 V
1 0 V
1 0 V
1 0 V
1 0 V
1 0 V
1 0 V
1 0 V
1 0 V
1 0 V
1 0 V
1 0 V
1 0 V
1 0 V
1 0 V
1 0 V
1 0 V
1 0 V
1 0 V
1 0 V
1 0 V
1 0 V
1 0 V
1 0 V
1 0 V
1 0 V
1 0 V
1 0 V
1 0 V
1 0 V
1 0 V
1 0 V
1 0 V
1 0 V
1 0 V
1 0 V
1 0 V
1 0 V
1 0 V
1 0 V
1 0 V
1 0 V
1 0 V
1 0 V
1 0 V
1 0 V
1 0 V
1 0 V
1 0 V
1 0 V
1 0 V
1 0 V
1 0 V
1 0 V
stroke 3201 448 M
1 0 V
1 0 V
1 0 V
1 0 V
1 0 V
1 0 V
1 0 V
1 0 V
1 0 V
1 0 V
1 0 V
1 0 V
1 0 V
1 0 V
1 0 V
1 0 V
1 0 V
1 0 V
1 0 V
1 0 V
1 0 V
1 0 V
1 0 V
1 0 V
1 0 V
1 0 V
1 0 V
1 0 V
1 0 V
1 0 V
1 0 V
1 0 V
1 0 V
1 0 V
1 0 V
1 0 V
1 0 V
1 0 V
1 0 V
1 0 V
1 0 V
1 0 V
1 0 V
1 0 V
1 0 V
1 0 V
1 0 V
1 0 V
1 0 V
1 0 V
1 0 V
1 0 V
1 0 V
1 0 V
1 0 V
1 0 V
1 0 V
1 0 V
1 0 V
1 0 V
1 0 V
1 0 V
1 0 V
1 0 V
1 0 V
1 0 V
1 0 V
1 0 V
1 0 V
1 0 V
1 0 V
1 0 V
1 0 V
1 0 V
1 0 V
1 0 V
1 0 V
1 0 V
1 0 V
1 0 V
1 0 V
1 0 V
1 0 V
1 0 V
1 0 V
1 0 V
1 0 V
1 0 V
1 0 V
1 0 V
1 0 V
1 0 V
1 0 V
1 0 V
1 0 V
1 0 V
1 0 V
1 0 V
1 0 V
1 0 V
1 0 V
1 0 V
1 0 V
1 0 V
stroke 3305 448 M
1 0 V
1 0 V
1 0 V
1 0 V
1 0 V
1 0 V
1 0 V
1 0 V
1 0 V
1 0 V
1 0 V
1 0 V
1 0 V
1 0 V
1 0 V
1 0 V
1 0 V
1 0 V
1 0 V
1 0 V
1 0 V
1 0 V
1 0 V
1 0 V
1 0 V
1 0 V
1 0 V
1 0 V
1 0 V
1 0 V
1 0 V
1 0 V
1 0 V
1 0 V
1 0 V
1 0 V
1 0 V
1 0 V
1 0 V
1 0 V
1 0 V
1 0 V
602 1478 Pls
877 790 Pls
1037 586 Pls
1151 529 Pls
1239 498 Pls
1312 485 Pls
1373 475 Pls
1426 468 Pls
1472 465 Pls
1514 462 Pls
1552 461 Pls
1586 461 Pls
1618 459 Pls
1647 458 Pls
1674 460 Pls
1700 460 Pls
1724 461 Pls
1747 463 Pls
1768 462 Pls
1788 467 Pls
1808 468 Pls
1826 470 Pls
1844 470 Pls
1861 473 Pls
1877 473 Pls
1892 475 Pls
1907 477 Pls
1922 478 Pls
1936 485 Pls
1949 494 Pls
1962 496 Pls
1975 471 Pls
1987 459 Pls
1999 456 Pls
2010 454 Pls
2021 453 Pls
2032 452 Pls
2043 450 Pls
2053 450 Pls
2063 450 Pls
2073 450 Pls
2082 449 Pls
2092 449 Pls
2101 449 Pls
2110 449 Pls
2118 449 Pls
2127 449 Pls
2135 449 Pls
2143 449 Pls
2151 449 Pls
2159 449 Pls
2167 450 Pls
2174 450 Pls
2182 450 Pls
2189 450 Pls
2196 450 Pls
2203 452 Pls
2210 452 Pls
2217 452 Pls
2223 453 Pls
2230 454 Pls
2236 455 Pls
2243 455 Pls
2249 454 Pls
2255 453 Pls
2261 452 Pls
2267 450 Pls
2273 450 Pls
2279 450 Pls
2284 450 Pls
2290 449 Pls
2296 449 Pls
2301 449 Pls
2306 449 Pls
2312 448 Pls
2317 448 Pls
2322 448 Pls
2327 449 Pls
2332 448 Pls
2337 449 Pls
2342 449 Pls
2347 449 Pls
2352 449 Pls
2357 449 Pls
2361 449 Pls
2366 449 Pls
2371 449 Pls
2375 449 Pls
2380 450 Pls
2384 449 Pls
2388 450 Pls
2393 450 Pls
2397 450 Pls
2401 451 Pls
2405 451 Pls
2410 450 Pls
2414 450 Pls
2418 449 Pls
2422 450 Pls
2426 449 Pls
2430 449 Pls
2434 450 Pls
2437 450 Pls
2441 450 Pls
2445 450 Pls
2449 450 Pls
2453 450 Pls
2456 448 Pls
2460 448 Pls
2463 448 Pls
2467 448 Pls
2471 448 Pls
2474 448 Pls
2478 448 Pls
2481 448 Pls
2485 448 Pls
2488 448 Pls
2491 448 Pls
2495 448 Pls
2498 453 Pls
2501 449 Pls
2504 449 Pls
2508 449 Pls
2511 449 Pls
2514 449 Pls
2517 449 Pls
2520 449 Pls
2524 449 Pls
2527 449 Pls
2530 449 Pls
2533 449 Pls
2536 449 Pls
2539 449 Pls
2542 449 Pls
2545 448 Pls
2548 450 Pls
2550 449 Pls
2553 449 Pls
2556 449 Pls
2559 450 Pls
2562 449 Pls
2565 448 Pls
2567 448 Pls
2570 448 Pls
2573 448 Pls
2576 449 Pls
2578 448 Pls
2581 452 Pls
2584 449 Pls
2586 449 Pls
2589 451 Pls
2592 450 Pls
2594 450 Pls
2597 448 Pls
2599 448 Pls
2602 449 Pls
2604 449 Pls
2607 449 Pls
2609 449 Pls
2612 449 Pls
2614 449 Pls
2617 448 Pls
2619 449 Pls
2622 448 Pls
2624 449 Pls
2626 449 Pls
2629 449 Pls
2631 449 Pls
2634 449 Pls
2636 449 Pls
2638 449 Pls
2641 449 Pls
2643 448 Pls
2645 449 Pls
2647 449 Pls
2650 450 Pls
2652 449 Pls
2654 450 Pls
2656 449 Pls
2659 449 Pls
2661 449 Pls
2663 449 Pls
2665 449 Pls
2667 449 Pls
2669 450 Pls
2671 448 Pls
2674 448 Pls
2676 448 Pls
2678 448 Pls
2680 448 Pls
2682 448 Pls
2684 449 Pls
2686 449 Pls
2688 448 Pls
2690 449 Pls
2692 448 Pls
2694 448 Pls
2696 448 Pls
2698 449 Pls
2700 448 Pls
2702 449 Pls
2704 448 Pls
2706 448 Pls
2708 449 Pls
2710 449 Pls
2712 449 Pls
2714 449 Pls
2716 448 Pls
2718 449 Pls
2720 449 Pls
2721 449 Pls
2723 448 Pls
2725 449 Pls
2727 449 Pls
2729 449 Pls
2731 450 Pls
2733 449 Pls
2734 448 Pls
2736 448 Pls
2738 448 Pls
2740 448 Pls
2742 448 Pls
2743 448 Pls
2745 448 Pls
2747 448 Pls
2749 448 Pls
2750 448 Pls
2752 448 Pls
2754 448 Pls
2756 449 Pls
2757 448 Pls
2759 448 Pls
2761 448 Pls
2762 448 Pls
2764 449 Pls
2766 449 Pls
2767 448 Pls
2769 448 Pls
2771 448 Pls
2772 449 Pls
2774 449 Pls
2776 448 Pls
2777 449 Pls
2779 449 Pls
2781 449 Pls
2782 449 Pls
2784 449 Pls
2785 449 Pls
2787 449 Pls
2789 449 Pls
2790 448 Pls
2792 448 Pls
2793 448 Pls
2795 448 Pls
2796 448 Pls
2798 448 Pls
2800 448 Pls
2801 448 Pls
2803 448 Pls
2804 449 Pls
2806 448 Pls
2807 448 Pls
2809 448 Pls
2810 448 Pls
2812 448 Pls
2813 448 Pls
2815 449 Pls
2816 448 Pls
2818 448 Pls
2819 448 Pls
2821 448 Pls
2822 448 Pls
2823 448 Pls
2825 448 Pls
2826 448 Pls
2828 448 Pls
2829 449 Pls
2831 449 Pls
2832 448 Pls
2833 449 Pls
2835 449 Pls
2836 449 Pls
2838 448 Pls
2839 448 Pls
2840 448 Pls
2842 448 Pls
2843 448 Pls
2845 448 Pls
2846 448 Pls
2847 448 Pls
2849 453 Pls
2850 448 Pls
2851 448 Pls
2853 448 Pls
2854 448 Pls
2855 448 Pls
2857 448 Pls
2858 448 Pls
2859 448 Pls
2861 448 Pls
2862 448 Pls
2863 448 Pls
2865 448 Pls
2866 448 Pls
2867 448 Pls
2869 448 Pls
2870 448 Pls
2871 448 Pls
2873 448 Pls
2874 448 Pls
2875 449 Pls
2876 449 Pls
2878 449 Pls
2879 449 Pls
2880 449 Pls
2881 448 Pls
2883 448 Pls
2884 448 Pls
2885 448 Pls
2886 448 Pls
2888 448 Pls
2889 448 Pls
2890 448 Pls
2891 448 Pls
2893 448 Pls
2894 448 Pls
2895 448 Pls
2896 449 Pls
2897 448 Pls
2899 448 Pls
2900 448 Pls
2901 448 Pls
2902 448 Pls
2903 448 Pls
2905 448 Pls
2906 448 Pls
2907 448 Pls
2908 448 Pls
2909 448 Pls
2910 448 Pls
2912 448 Pls
2913 448 Pls
2914 448 Pls
2915 449 Pls
2916 448 Pls
2917 449 Pls
2918 449 Pls
2920 448 Pls
2921 448 Pls
2922 448 Pls
2923 448 Pls
2924 448 Pls
2925 448 Pls
2926 448 Pls
2927 448 Pls
2929 449 Pls
2930 449 Pls
2931 448 Pls
2932 448 Pls
2933 448 Pls
2934 449 Pls
2935 449 Pls
2936 448 Pls
2937 448 Pls
2938 448 Pls
2940 448 Pls
2941 448 Pls
2942 448 Pls
2943 448 Pls
2944 448 Pls
2945 448 Pls
2946 448 Pls
2947 448 Pls
2948 448 Pls
2949 448 Pls
2950 448 Pls
2951 448 Pls
2952 448 Pls
2953 448 Pls
2954 448 Pls
2955 448 Pls
2957 448 Pls
2958 448 Pls
2959 448 Pls
2960 448 Pls
2961 449 Pls
2962 448 Pls
2963 448 Pls
2964 448 Pls
2965 448 Pls
2966 448 Pls
2967 448 Pls
2968 448 Pls
2969 448 Pls
2970 448 Pls
2971 448 Pls
2972 448 Pls
2973 448 Pls
2974 448 Pls
2975 448 Pls
2976 448 Pls
2977 448 Pls
2978 448 Pls
2979 448 Pls
2980 448 Pls
2981 448 Pls
2982 448 Pls
2983 448 Pls
2984 448 Pls
2985 448 Pls
2985 448 Pls
2986 448 Pls
2987 448 Pls
2988 448 Pls
2989 448 Pls
2990 448 Pls
2991 449 Pls
2992 448 Pls
2993 448 Pls
2994 448 Pls
2995 448 Pls
2996 448 Pls
2997 448 Pls
2998 448 Pls
2999 448 Pls
3000 448 Pls
3001 448 Pls
3002 448 Pls
3002 448 Pls
3003 448 Pls
3004 448 Pls
3005 448 Pls
3006 448 Pls
3007 448 Pls
3008 448 Pls
3009 448 Pls
3010 448 Pls
3011 448 Pls
3012 448 Pls
3012 448 Pls
3013 448 Pls
3014 448 Pls
3015 448 Pls
3016 448 Pls
3017 448 Pls
3018 448 Pls
3019 448 Pls
3020 448 Pls
3021 449 Pls
3021 448 Pls
3022 448 Pls
3023 448 Pls
3024 448 Pls
3025 448 Pls
3026 448 Pls
3027 448 Pls
3027 448 Pls
3028 448 Pls
3029 448 Pls
3030 448 Pls
3031 448 Pls
3032 448 Pls
3033 448 Pls
3034 448 Pls
3034 448 Pls
3035 448 Pls
3036 448 Pls
3037 448 Pls
3038 448 Pls
3039 448 Pls
3039 448 Pls
3040 448 Pls
3041 448 Pls
3042 448 Pls
3043 448 Pls
3044 448 Pls
3044 448 Pls
3045 448 Pls
3046 448 Pls
3047 448 Pls
3048 448 Pls
3049 448 Pls
3049 448 Pls
3050 448 Pls
3051 448 Pls
3052 448 Pls
3053 448 Pls
3053 448 Pls
3054 448 Pls
3055 448 Pls
3056 448 Pls
3057 448 Pls
3058 448 Pls
3058 448 Pls
3059 448 Pls
3060 448 Pls
3061 448 Pls
3062 448 Pls
3062 448 Pls
3063 448 Pls
3064 448 Pls
3065 448 Pls
3065 448 Pls
3066 448 Pls
3067 448 Pls
3068 448 Pls
3069 448 Pls
3069 448 Pls
3070 448 Pls
3071 448 Pls
3072 448 Pls
3073 448 Pls
3073 448 Pls
3074 448 Pls
3075 448 Pls
3076 448 Pls
3076 448 Pls
3077 448 Pls
3078 448 Pls
3079 448 Pls
3079 448 Pls
3080 448 Pls
3081 448 Pls
3082 448 Pls
3082 448 Pls
3083 448 Pls
3084 448 Pls
3085 448 Pls
3085 448 Pls
3086 448 Pls
3087 448 Pls
3088 448 Pls
3088 448 Pls
3089 448 Pls
3090 448 Pls
3091 448 Pls
3091 448 Pls
3092 448 Pls
3093 448 Pls
3094 448 Pls
3094 448 Pls
3095 448 Pls
3096 448 Pls
3097 448 Pls
3097 448 Pls
3098 448 Pls
3099 448 Pls
3099 448 Pls
3100 448 Pls
3101 448 Pls
3102 448 Pls
3102 448 Pls
3103 448 Pls
3104 448 Pls
3104 448 Pls
3105 448 Pls
3106 448 Pls
3107 448 Pls
3107 448 Pls
3108 448 Pls
3109 448 Pls
3109 448 Pls
3110 448 Pls
3111 448 Pls
3112 448 Pls
3112 448 Pls
3113 448 Pls
3114 448 Pls
3114 448 Pls
3115 448 Pls
3116 448 Pls
3116 448 Pls
3117 448 Pls
3118 448 Pls
3118 448 Pls
3119 448 Pls
3120 448 Pls
3121 448 Pls
3121 448 Pls
3122 448 Pls
3123 448 Pls
3123 448 Pls
3124 448 Pls
3125 448 Pls
3125 448 Pls
3126 448 Pls
3127 448 Pls
3127 448 Pls
3128 448 Pls
3129 448 Pls
3129 448 Pls
3130 448 Pls
3131 448 Pls
3131 448 Pls
3132 448 Pls
3133 448 Pls
3133 448 Pls
3134 448 Pls
3135 448 Pls
3135 448 Pls
3136 448 Pls
3137 448 Pls
3137 448 Pls
3138 448 Pls
3139 448 Pls
3139 448 Pls
3140 448 Pls
3141 448 Pls
3141 448 Pls
3142 448 Pls
3143 448 Pls
3143 448 Pls
3144 448 Pls
3144 448 Pls
3145 448 Pls
3146 448 Pls
3146 448 Pls
3147 448 Pls
3148 448 Pls
3148 448 Pls
3149 448 Pls
3150 448 Pls
3150 448 Pls
3151 448 Pls
3151 448 Pls
3152 448 Pls
3153 448 Pls
3153 448 Pls
3154 448 Pls
3155 448 Pls
3155 448 Pls
3156 448 Pls
3157 448 Pls
3157 448 Pls
3158 448 Pls
3158 448 Pls
3159 448 Pls
3160 448 Pls
3160 448 Pls
3161 448 Pls
3161 448 Pls
3162 448 Pls
3163 448 Pls
3163 448 Pls
3164 448 Pls
3165 448 Pls
3165 448 Pls
3166 448 Pls
3166 448 Pls
3167 448 Pls
3168 448 Pls
3168 448 Pls
3169 448 Pls
3169 448 Pls
3170 448 Pls
3171 448 Pls
3171 448 Pls
3172 448 Pls
3172 448 Pls
3173 448 Pls
3174 448 Pls
3174 448 Pls
3175 448 Pls
3175 448 Pls
3176 448 Pls
3177 448 Pls
3177 448 Pls
3178 448 Pls
3178 448 Pls
3179 448 Pls
3180 448 Pls
3180 448 Pls
3181 448 Pls
3181 448 Pls
3182 448 Pls
3183 448 Pls
3183 448 Pls
3184 448 Pls
3184 448 Pls
3185 448 Pls
3185 448 Pls
3186 448 Pls
3187 448 Pls
3187 448 Pls
3188 448 Pls
3188 448 Pls
3189 448 Pls
3190 448 Pls
3190 448 Pls
3191 448 Pls
3191 448 Pls
3192 448 Pls
3192 448 Pls
3193 448 Pls
3194 448 Pls
3194 448 Pls
3195 448 Pls
3195 448 Pls
3196 448 Pls
3196 448 Pls
3197 448 Pls
3197 448 Pls
3198 448 Pls
3199 448 Pls
3199 448 Pls
3200 448 Pls
3200 448 Pls
3201 448 Pls
3201 448 Pls
3202 448 Pls
3203 448 Pls
3203 448 Pls
3204 448 Pls
3204 448 Pls
3205 448 Pls
3205 448 Pls
3206 448 Pls
3206 448 Pls
3207 448 Pls
3208 448 Pls
3208 448 Pls
3209 448 Pls
3209 448 Pls
3210 448 Pls
3210 448 Pls
3211 448 Pls
3211 448 Pls
3212 448 Pls
3212 448 Pls
3213 448 Pls
3214 448 Pls
3214 448 Pls
3215 448 Pls
3215 448 Pls
3216 448 Pls
3216 448 Pls
3217 448 Pls
3217 448 Pls
3218 448 Pls
3218 448 Pls
3219 448 Pls
3219 448 Pls
3220 448 Pls
3220 448 Pls
3221 448 Pls
3222 448 Pls
3222 448 Pls
3223 448 Pls
3223 448 Pls
3224 448 Pls
3224 448 Pls
3225 448 Pls
3225 448 Pls
3226 448 Pls
3226 448 Pls
3227 448 Pls
3227 448 Pls
3228 448 Pls
3228 448 Pls
3229 448 Pls
3229 448 Pls
3230 448 Pls
3230 448 Pls
3231 448 Pls
3232 448 Pls
3232 448 Pls
3233 448 Pls
3233 448 Pls
3234 448 Pls
3234 448 Pls
3235 448 Pls
3235 448 Pls
3236 448 Pls
3236 448 Pls
3237 448 Pls
3237 448 Pls
3238 448 Pls
3238 448 Pls
3239 448 Pls
3239 448 Pls
3240 448 Pls
3240 448 Pls
3241 448 Pls
3241 448 Pls
3242 448 Pls
3242 448 Pls
3243 448 Pls
3243 448 Pls
3244 448 Pls
3244 448 Pls
3245 448 Pls
3245 448 Pls
3246 448 Pls
3246 448 Pls
3247 448 Pls
3247 448 Pls
3248 448 Pls
3248 448 Pls
3249 448 Pls
3249 448 Pls
3250 448 Pls
3250 448 Pls
3251 448 Pls
3251 448 Pls
3252 448 Pls
3252 448 Pls
3253 448 Pls
3253 448 Pls
3254 448 Pls
3254 448 Pls
3255 448 Pls
3255 448 Pls
3256 448 Pls
3256 448 Pls
3257 448 Pls
3257 448 Pls
3258 448 Pls
3258 448 Pls
3259 448 Pls
3259 448 Pls
3259 448 Pls
3260 448 Pls
3260 448 Pls
3261 448 Pls
3261 448 Pls
3262 448 Pls
3262 448 Pls
3263 448 Pls
3263 448 Pls
3264 448 Pls
3264 448 Pls
3265 448 Pls
3265 448 Pls
3266 448 Pls
3266 448 Pls
3267 448 Pls
3267 448 Pls
3268 448 Pls
3268 448 Pls
3269 448 Pls
3269 448 Pls
3270 448 Pls
3270 448 Pls
3270 448 Pls
3271 448 Pls
3271 448 Pls
3272 448 Pls
3272 448 Pls
3273 448 Pls
3273 448 Pls
3274 448 Pls
3274 448 Pls
3275 448 Pls
3275 448 Pls
3276 448 Pls
3276 448 Pls
3276 448 Pls
3277 448 Pls
3277 448 Pls
3278 448 Pls
3278 448 Pls
3279 448 Pls
3279 448 Pls
3280 448 Pls
3280 448 Pls
3281 448 Pls
3281 448 Pls
3282 448 Pls
3282 448 Pls
3282 448 Pls
3283 448 Pls
3283 448 Pls
3284 448 Pls
3284 448 Pls
3285 448 Pls
3285 448 Pls
3286 448 Pls
3286 448 Pls
3287 448 Pls
3287 448 Pls
3287 448 Pls
3288 448 Pls
3288 448 Pls
3289 448 Pls
3289 448 Pls
3290 448 Pls
3290 448 Pls
3291 448 Pls
3291 448 Pls
3291 448 Pls
3292 448 Pls
3292 448 Pls
3293 448 Pls
3293 448 Pls
3294 448 Pls
3294 448 Pls
3295 448 Pls
3295 448 Pls
3295 448 Pls
3296 448 Pls
3296 448 Pls
3297 448 Pls
3297 448 Pls
3298 448 Pls
3298 448 Pls
3299 448 Pls
3299 448 Pls
3299 448 Pls
3300 448 Pls
3300 448 Pls
3301 448 Pls
3301 448 Pls
3302 448 Pls
3302 448 Pls
3302 448 Pls
3303 448 Pls
3303 448 Pls
3304 448 Pls
3304 448 Pls
3305 448 Pls
3305 448 Pls
3305 448 Pls
3306 448 Pls
3306 448 Pls
3307 448 Pls
3307 448 Pls
3308 448 Pls
3308 448 Pls
3308 448 Pls
3309 448 Pls
3309 448 Pls
3310 448 Pls
3310 448 Pls
3311 448 Pls
3311 448 Pls
3311 448 Pls
3312 448 Pls
3312 448 Pls
3313 448 Pls
3313 448 Pls
3314 448 Pls
3314 448 Pls
3314 448 Pls
3315 448 Pls
3315 448 Pls
3316 448 Pls
3316 448 Pls
3316 448 Pls
3317 448 Pls
3317 448 Pls
3318 448 Pls
3318 448 Pls
3319 448 Pls
3319 448 Pls
3319 448 Pls
3320 448 Pls
3320 448 Pls
3321 448 Pls
3321 448 Pls
3321 448 Pls
3322 448 Pls
3322 448 Pls
3323 448 Pls
3323 448 Pls
3323 448 Pls
3324 448 Pls
3324 448 Pls
3325 448 Pls
3325 448 Pls
3326 448 Pls
3326 448 Pls
3326 448 Pls
3327 448 Pls
3327 448 Pls
3328 448 Pls
3328 448 Pls
3328 448 Pls
3329 448 Pls
3329 448 Pls
3330 448 Pls
3330 448 Pls
3330 448 Pls
3331 448 Pls
3331 448 Pls
3332 448 Pls
3332 448 Pls
3332 448 Pls
3333 448 Pls
3333 448 Pls
3334 448 Pls
3334 448 Pls
3334 448 Pls
3335 448 Pls
3335 448 Pls
3336 448 Pls
3336 448 Pls
3336 448 Pls
3337 448 Pls
3337 448 Pls
3338 448 Pls
3338 448 Pls
3338 448 Pls
3339 448 Pls
3339 448 Pls
3340 448 Pls
3340 448 Pls
3340 448 Pls
3341 448 Pls
3341 448 Pls
3342 448 Pls
3342 448 Pls
3342 448 Pls
3343 448 Pls
3343 448 Pls
3344 448 Pls
3344 448 Pls
3344 448 Pls
3345 448 Pls
3345 448 Pls
3345 448 Pls
3346 448 Pls
3346 448 Pls
3347 448 Pls
3347 448 Pls
2979 2219 Pls
% End plot #1
% Begin plot #2
1.000 UP
1.000 UL
LTb
LT1
LCb setrgbcolor
LCb setrgbcolor
2696 2079 M
[ [(Helvetica) 140.0 0.0 true true 0 (diff-all-min)]
] -46.7 MRshow
1.000 UP
1.000 UL
LTb
LT1
LCb setrgbcolor
2780 2079 M
399 0 V
602 1430 M
877 923 L
1037 684 L
1151 571 L
88 -56 V
73 -14 V
61 -11 V
53 -11 V
46 -10 V
42 -2 V
38 8 V
34 -12 V
32 3 V
29 3 V
27 0 V
26 -3 V
24 -5 V
23 2 V
21 3 V
20 2 V
20 -5 V
18 4 V
18 -7 V
17 3 V
16 8 V
15 -3 V
15 3 V
15 0 V
14 -2 V
13 -2 V
13 -4 V
13 -10 V
12 -2 V
12 -1 V
11 0 V
11 0 V
11 1 V
11 -3 V
10 0 V
10 2 V
10 -2 V
9 1 V
10 -1 V
9 1 V
9 -1 V
8 0 V
9 1 V
8 0 V
8 0 V
8 -1 V
8 2 V
8 -2 V
7 1 V
8 0 V
7 0 V
7 0 V
7 0 V
7 -1 V
7 0 V
6 2 V
7 -2 V
6 3 V
7 -2 V
6 0 V
6 -1 V
6 1 V
6 -1 V
6 0 V
6 1 V
5 0 V
6 -1 V
6 0 V
5 1 V
5 -1 V
6 0 V
5 0 V
5 0 V
5 0 V
5 0 V
5 0 V
5 0 V
5 0 V
5 0 V
5 0 V
4 0 V
5 1 V
5 -1 V
4 0 V
5 1 V
4 -1 V
4 0 V
5 0 V
4 0 V
4 1 V
4 -1 V
5 0 V
4 0 V
4 0 V
4 0 V
4 0 V
4 1 V
4 3 V
3 -1 V
4 1 V
4 -2 V
4 0 V
4 -2 V
3 1 V
stroke 2456 449 M
4 -1 V
3 0 V
4 0 V
4 0 V
3 0 V
4 0 V
3 0 V
4 0 V
3 0 V
3 0 V
4 0 V
3 3 V
3 -2 V
3 -1 V
4 1 V
3 -1 V
3 0 V
3 0 V
3 0 V
4 0 V
3 0 V
3 0 V
3 0 V
3 0 V
3 0 V
3 0 V
3 0 V
3 1 V
2 -1 V
3 1 V
3 -1 V
3 0 V
3 1 V
3 -1 V
2 0 V
3 0 V
3 0 V
3 0 V
2 0 V
3 5 V
3 -1 V
2 -3 V
3 -1 V
3 0 V
2 0 V
3 0 V
2 0 V
3 0 V
2 0 V
3 0 V
2 0 V
3 0 V
2 0 V
3 0 V
2 0 V
3 0 V
2 0 V
2 0 V
3 0 V
2 1 V
3 -1 V
2 0 V
2 0 V
3 0 V
2 0 V
2 0 V
2 0 V
3 0 V
2 1 V
2 -1 V
2 0 V
3 0 V
2 0 V
2 0 V
2 1 V
2 -1 V
2 0 V
2 0 V
3 0 V
2 0 V
2 0 V
2 0 V
2 0 V
2 0 V
2 0 V
2 0 V
2 0 V
2 0 V
2 0 V
2 0 V
2 0 V
2 0 V
2 1 V
2 -1 V
2 0 V
2 0 V
2 0 V
2 0 V
2 0 V
2 0 V
2 1 V
2 -1 V
1 0 V
2 0 V
stroke 2723 448 M
2 0 V
2 0 V
2 0 V
2 0 V
2 0 V
1 0 V
2 0 V
2 0 V
2 0 V
2 0 V
1 0 V
2 0 V
2 0 V
2 0 V
1 0 V
2 0 V
2 0 V
2 0 V
1 0 V
2 0 V
2 0 V
1 0 V
2 0 V
2 0 V
1 0 V
2 0 V
2 0 V
1 0 V
2 0 V
2 0 V
1 0 V
2 0 V
2 0 V
1 2 V
2 -2 V
1 0 V
2 0 V
2 0 V
1 0 V
2 0 V
1 0 V
2 0 V
1 0 V
2 0 V
2 0 V
1 0 V
2 0 V
1 0 V
2 0 V
1 0 V
2 0 V
1 0 V
2 0 V
1 0 V
2 0 V
1 0 V
2 0 V
1 0 V
2 0 V
1 0 V
1 0 V
2 0 V
1 0 V
2 0 V
1 0 V
2 0 V
1 0 V
1 0 V
2 0 V
1 0 V
2 0 V
1 0 V
1 0 V
2 0 V
1 0 V
2 0 V
1 0 V
1 0 V
2 0 V
1 0 V
1 0 V
2 0 V
1 0 V
1 0 V
2 0 V
1 0 V
1 0 V
2 0 V
1 0 V
1 0 V
2 0 V
1 0 V
1 0 V
2 0 V
1 0 V
1 0 V
2 0 V
1 0 V
1 0 V
1 0 V
2 0 V
1 0 V
1 0 V
1 0 V
stroke 2881 448 M
2 0 V
1 0 V
1 0 V
1 0 V
2 0 V
1 0 V
1 0 V
1 0 V
2 0 V
1 0 V
1 0 V
1 0 V
1 0 V
2 0 V
1 0 V
1 0 V
1 0 V
1 0 V
2 0 V
1 0 V
1 0 V
1 0 V
1 0 V
1 0 V
2 0 V
1 0 V
1 0 V
1 0 V
1 0 V
1 0 V
1 0 V
2 0 V
1 0 V
1 0 V
1 0 V
1 0 V
1 0 V
1 0 V
1 0 V
2 0 V
1 0 V
1 0 V
1 0 V
1 0 V
1 0 V
1 0 V
1 0 V
1 0 V
1 0 V
2 0 V
1 0 V
1 0 V
1 0 V
1 0 V
1 0 V
1 0 V
1 0 V
1 0 V
1 0 V
1 0 V
1 0 V
1 0 V
1 0 V
1 0 V
1 0 V
2 0 V
1 0 V
1 0 V
1 0 V
1 0 V
1 0 V
1 0 V
1 0 V
1 0 V
1 0 V
1 0 V
1 0 V
1 0 V
1 0 V
1 0 V
1 0 V
1 0 V
1 0 V
1 0 V
1 0 V
1 0 V
1 0 V
1 0 V
1 0 V
1 0 V
1 0 V
1 0 V
1 0 V
1 0 V
1 0 V
1 0 V
1 0 V
1 0 V
1 0 V
1 0 V
1 0 V
1 0 V
1 0 V
1 0 V
stroke 2995 448 M
1 0 V
1 0 V
1 0 V
1 0 V
1 0 V
1 0 V
1 0 V
1 0 V
1 0 V
1 0 V
1 0 V
1 0 V
1 0 V
1 0 V
1 0 V
1 0 V
1 0 V
1 0 V
1 0 V
1 0 V
1 0 V
1 0 V
1 0 V
1 0 V
1 0 V
1 0 V
1 0 V
1 0 V
1 0 V
1 0 V
1 0 V
1 0 V
1 0 V
1 0 V
1 0 V
1 0 V
1 0 V
1 0 V
1 0 V
1 0 V
1 0 V
1 0 V
1 0 V
1 0 V
1 0 V
1 0 V
1 0 V
1 0 V
1 0 V
1 0 V
1 0 V
1 0 V
1 0 V
1 0 V
1 0 V
1 0 V
1 0 V
1 0 V
1 0 V
1 0 V
1 0 V
1 0 V
1 0 V
1 0 V
1 0 V
1 0 V
1 0 V
1 0 V
1 0 V
1 0 V
1 0 V
1 0 V
1 0 V
1 0 V
1 0 V
1 0 V
1 0 V
1 0 V
1 0 V
1 0 V
1 0 V
1 0 V
1 0 V
1 0 V
1 0 V
1 0 V
1 0 V
1 0 V
1 0 V
1 0 V
1 0 V
1 0 V
1 0 V
1 0 V
1 0 V
1 0 V
1 0 V
1 0 V
1 0 V
1 0 V
1 0 V
1 0 V
1 0 V
1 0 V
stroke 3099 448 M
1 0 V
1 0 V
1 0 V
1 0 V
1 0 V
1 0 V
1 0 V
1 0 V
1 0 V
1 0 V
1 0 V
1 0 V
1 0 V
1 0 V
1 0 V
1 0 V
1 0 V
1 0 V
1 0 V
1 0 V
1 0 V
1 0 V
1 0 V
1 0 V
1 0 V
1 0 V
1 0 V
1 0 V
1 0 V
1 0 V
1 0 V
1 0 V
1 0 V
1 0 V
1 0 V
1 0 V
1 0 V
1 0 V
1 0 V
1 0 V
1 0 V
1 0 V
1 0 V
1 0 V
1 0 V
1 0 V
1 0 V
1 0 V
1 0 V
1 0 V
1 0 V
1 0 V
1 0 V
1 0 V
1 0 V
1 0 V
1 0 V
1 0 V
1 0 V
1 0 V
1 0 V
1 0 V
1 0 V
1 0 V
1 0 V
1 0 V
1 0 V
1 0 V
1 0 V
1 0 V
1 0 V
1 0 V
1 0 V
1 0 V
1 0 V
1 0 V
1 0 V
1 0 V
1 0 V
1 0 V
1 0 V
1 0 V
1 0 V
1 0 V
1 0 V
1 0 V
1 0 V
1 0 V
1 0 V
1 0 V
1 0 V
1 0 V
1 0 V
1 0 V
1 0 V
1 0 V
1 0 V
1 0 V
1 0 V
1 0 V
1 0 V
1 0 V
1 0 V
1 0 V
stroke 3203 448 M
1 0 V
1 0 V
1 0 V
1 0 V
1 0 V
1 0 V
1 0 V
1 0 V
1 0 V
1 0 V
1 0 V
1 0 V
1 0 V
1 0 V
1 0 V
1 0 V
1 0 V
1 0 V
1 0 V
1 0 V
1 0 V
1 0 V
1 0 V
1 0 V
1 0 V
1 0 V
1 0 V
1 0 V
1 0 V
1 0 V
1 0 V
1 0 V
1 0 V
1 0 V
1 0 V
1 0 V
1 0 V
1 0 V
1 0 V
1 0 V
1 0 V
1 0 V
1 0 V
1 0 V
1 0 V
1 0 V
1 0 V
1 0 V
1 0 V
1 0 V
1 0 V
1 0 V
1 0 V
1 0 V
1 0 V
1 0 V
1 0 V
1 0 V
1 0 V
1 0 V
1 0 V
1 0 V
1 0 V
1 0 V
1 0 V
1 0 V
1 0 V
1 0 V
1 0 V
1 0 V
1 0 V
1 0 V
1 0 V
1 0 V
1 0 V
1 0 V
1 0 V
1 0 V
1 0 V
1 0 V
1 0 V
1 0 V
1 0 V
1 0 V
1 0 V
1 0 V
1 0 V
1 0 V
1 0 V
1 0 V
1 0 V
1 0 V
1 0 V
1 0 V
1 0 V
1 0 V
1 0 V
1 0 V
1 0 V
1 0 V
1 0 V
1 0 V
1 0 V
1 0 V
stroke 3307 448 M
1 0 V
1 0 V
1 0 V
1 0 V
1 0 V
1 0 V
1 0 V
1 0 V
1 0 V
1 0 V
1 0 V
1 0 V
1 0 V
1 0 V
1 0 V
1 0 V
1 0 V
1 0 V
1 0 V
1 0 V
1 0 V
1 0 V
1 0 V
1 0 V
1 0 V
1 0 V
1 0 V
1 0 V
1 0 V
1 0 V
1 0 V
1 0 V
1 0 V
1 0 V
1 0 V
1 0 V
1 0 V
1 0 V
1 0 V
1 0 V
602 1430 Pls
877 923 Pls
1037 684 Pls
1151 571 Pls
1239 515 Pls
1312 501 Pls
1373 490 Pls
1426 479 Pls
1472 469 Pls
1514 467 Pls
1552 475 Pls
1586 463 Pls
1618 466 Pls
1647 469 Pls
1674 469 Pls
1700 466 Pls
1724 461 Pls
1747 463 Pls
1768 466 Pls
1788 468 Pls
1808 463 Pls
1826 467 Pls
1844 460 Pls
1861 463 Pls
1877 471 Pls
1892 468 Pls
1907 471 Pls
1922 471 Pls
1936 469 Pls
1949 467 Pls
1962 463 Pls
1975 453 Pls
1987 451 Pls
1999 450 Pls
2010 450 Pls
2021 450 Pls
2032 451 Pls
2043 448 Pls
2053 448 Pls
2063 450 Pls
2073 448 Pls
2082 449 Pls
2092 448 Pls
2101 449 Pls
2110 448 Pls
2118 448 Pls
2127 449 Pls
2135 449 Pls
2143 449 Pls
2151 448 Pls
2159 450 Pls
2167 448 Pls
2174 449 Pls
2182 449 Pls
2189 449 Pls
2196 449 Pls
2203 449 Pls
2210 448 Pls
2217 448 Pls
2223 450 Pls
2230 448 Pls
2236 451 Pls
2243 449 Pls
2249 449 Pls
2255 448 Pls
2261 449 Pls
2267 448 Pls
2273 448 Pls
2279 449 Pls
2284 449 Pls
2290 448 Pls
2296 448 Pls
2301 449 Pls
2306 448 Pls
2312 448 Pls
2317 448 Pls
2322 448 Pls
2327 448 Pls
2332 448 Pls
2337 448 Pls
2342 448 Pls
2347 448 Pls
2352 448 Pls
2357 448 Pls
2361 448 Pls
2366 449 Pls
2371 448 Pls
2375 448 Pls
2380 449 Pls
2384 448 Pls
2388 448 Pls
2393 448 Pls
2397 448 Pls
2401 449 Pls
2405 448 Pls
2410 448 Pls
2414 448 Pls
2418 448 Pls
2422 448 Pls
2426 448 Pls
2430 449 Pls
2434 452 Pls
2437 451 Pls
2441 452 Pls
2445 450 Pls
2449 450 Pls
2453 448 Pls
2456 449 Pls
2460 448 Pls
2463 448 Pls
2467 448 Pls
2471 448 Pls
2474 448 Pls
2478 448 Pls
2481 448 Pls
2485 448 Pls
2488 448 Pls
2491 448 Pls
2495 448 Pls
2498 451 Pls
2501 449 Pls
2504 448 Pls
2508 449 Pls
2511 448 Pls
2514 448 Pls
2517 448 Pls
2520 448 Pls
2524 448 Pls
2527 448 Pls
2530 448 Pls
2533 448 Pls
2536 448 Pls
2539 448 Pls
2542 448 Pls
2545 448 Pls
2548 449 Pls
2550 448 Pls
2553 449 Pls
2556 448 Pls
2559 448 Pls
2562 449 Pls
2565 448 Pls
2567 448 Pls
2570 448 Pls
2573 448 Pls
2576 448 Pls
2578 448 Pls
2581 453 Pls
2584 452 Pls
2586 449 Pls
2589 448 Pls
2592 448 Pls
2594 448 Pls
2597 448 Pls
2599 448 Pls
2602 448 Pls
2604 448 Pls
2607 448 Pls
2609 448 Pls
2612 448 Pls
2614 448 Pls
2617 448 Pls
2619 448 Pls
2622 448 Pls
2624 448 Pls
2626 448 Pls
2629 448 Pls
2631 449 Pls
2634 448 Pls
2636 448 Pls
2638 448 Pls
2641 448 Pls
2643 448 Pls
2645 448 Pls
2647 448 Pls
2650 448 Pls
2652 449 Pls
2654 448 Pls
2656 448 Pls
2659 448 Pls
2661 448 Pls
2663 448 Pls
2665 449 Pls
2667 448 Pls
2669 448 Pls
2671 448 Pls
2674 448 Pls
2676 448 Pls
2678 448 Pls
2680 448 Pls
2682 448 Pls
2684 448 Pls
2686 448 Pls
2688 448 Pls
2690 448 Pls
2692 448 Pls
2694 448 Pls
2696 448 Pls
2698 448 Pls
2700 448 Pls
2702 449 Pls
2704 448 Pls
2706 448 Pls
2708 448 Pls
2710 448 Pls
2712 448 Pls
2714 448 Pls
2716 448 Pls
2718 449 Pls
2720 448 Pls
2721 448 Pls
2723 448 Pls
2725 448 Pls
2727 448 Pls
2729 448 Pls
2731 448 Pls
2733 448 Pls
2734 448 Pls
2736 448 Pls
2738 448 Pls
2740 448 Pls
2742 448 Pls
2743 448 Pls
2745 448 Pls
2747 448 Pls
2749 448 Pls
2750 448 Pls
2752 448 Pls
2754 448 Pls
2756 448 Pls
2757 448 Pls
2759 448 Pls
2761 448 Pls
2762 448 Pls
2764 448 Pls
2766 448 Pls
2767 448 Pls
2769 448 Pls
2771 448 Pls
2772 448 Pls
2774 448 Pls
2776 448 Pls
2777 448 Pls
2779 448 Pls
2781 448 Pls
2782 450 Pls
2784 448 Pls
2785 448 Pls
2787 448 Pls
2789 448 Pls
2790 448 Pls
2792 448 Pls
2793 448 Pls
2795 448 Pls
2796 448 Pls
2798 448 Pls
2800 448 Pls
2801 448 Pls
2803 448 Pls
2804 448 Pls
2806 448 Pls
2807 448 Pls
2809 448 Pls
2810 448 Pls
2812 448 Pls
2813 448 Pls
2815 448 Pls
2816 448 Pls
2818 448 Pls
2819 448 Pls
2821 448 Pls
2822 448 Pls
2823 448 Pls
2825 448 Pls
2826 448 Pls
2828 448 Pls
2829 448 Pls
2831 448 Pls
2832 448 Pls
2833 448 Pls
2835 448 Pls
2836 448 Pls
2838 448 Pls
2839 448 Pls
2840 448 Pls
2842 448 Pls
2843 448 Pls
2845 448 Pls
2846 448 Pls
2847 448 Pls
2849 448 Pls
2850 448 Pls
2851 448 Pls
2853 448 Pls
2854 448 Pls
2855 448 Pls
2857 448 Pls
2858 448 Pls
2859 448 Pls
2861 448 Pls
2862 448 Pls
2863 448 Pls
2865 448 Pls
2866 448 Pls
2867 448 Pls
2869 448 Pls
2870 448 Pls
2871 448 Pls
2873 448 Pls
2874 448 Pls
2875 448 Pls
2876 448 Pls
2878 448 Pls
2879 448 Pls
2880 448 Pls
2881 448 Pls
2883 448 Pls
2884 448 Pls
2885 448 Pls
2886 448 Pls
2888 448 Pls
2889 448 Pls
2890 448 Pls
2891 448 Pls
2893 448 Pls
2894 448 Pls
2895 448 Pls
2896 448 Pls
2897 448 Pls
2899 448 Pls
2900 448 Pls
2901 448 Pls
2902 448 Pls
2903 448 Pls
2905 448 Pls
2906 448 Pls
2907 448 Pls
2908 448 Pls
2909 448 Pls
2910 448 Pls
2912 448 Pls
2913 448 Pls
2914 448 Pls
2915 448 Pls
2916 448 Pls
2917 448 Pls
2918 448 Pls
2920 448 Pls
2921 448 Pls
2922 448 Pls
2923 448 Pls
2924 448 Pls
2925 448 Pls
2926 448 Pls
2927 448 Pls
2929 448 Pls
2930 448 Pls
2931 448 Pls
2932 448 Pls
2933 448 Pls
2934 448 Pls
2935 448 Pls
2936 448 Pls
2937 448 Pls
2938 448 Pls
2940 448 Pls
2941 448 Pls
2942 448 Pls
2943 448 Pls
2944 448 Pls
2945 448 Pls
2946 448 Pls
2947 448 Pls
2948 448 Pls
2949 448 Pls
2950 448 Pls
2951 448 Pls
2952 448 Pls
2953 448 Pls
2954 448 Pls
2955 448 Pls
2957 448 Pls
2958 448 Pls
2959 448 Pls
2960 448 Pls
2961 448 Pls
2962 448 Pls
2963 448 Pls
2964 448 Pls
2965 448 Pls
2966 448 Pls
2967 448 Pls
2968 448 Pls
2969 448 Pls
2970 448 Pls
2971 448 Pls
2972 448 Pls
2973 448 Pls
2974 448 Pls
2975 448 Pls
2976 448 Pls
2977 448 Pls
2978 448 Pls
2979 448 Pls
2980 448 Pls
2981 448 Pls
2982 448 Pls
2983 448 Pls
2984 448 Pls
2985 448 Pls
2985 448 Pls
2986 448 Pls
2987 448 Pls
2988 448 Pls
2989 448 Pls
2990 448 Pls
2991 448 Pls
2992 448 Pls
2993 448 Pls
2994 448 Pls
2995 448 Pls
2996 448 Pls
2997 448 Pls
2998 448 Pls
2999 448 Pls
3000 448 Pls
3001 448 Pls
3002 448 Pls
3002 448 Pls
3003 448 Pls
3004 448 Pls
3005 448 Pls
3006 448 Pls
3007 448 Pls
3008 448 Pls
3009 448 Pls
3010 448 Pls
3011 448 Pls
3012 448 Pls
3012 448 Pls
3013 448 Pls
3014 448 Pls
3015 448 Pls
3016 448 Pls
3017 448 Pls
3018 448 Pls
3019 448 Pls
3020 448 Pls
3021 448 Pls
3021 448 Pls
3022 448 Pls
3023 448 Pls
3024 448 Pls
3025 448 Pls
3026 448 Pls
3027 448 Pls
3027 448 Pls
3028 448 Pls
3029 448 Pls
3030 448 Pls
3031 448 Pls
3032 448 Pls
3033 448 Pls
3034 448 Pls
3034 448 Pls
3035 448 Pls
3036 448 Pls
3037 448 Pls
3038 448 Pls
3039 448 Pls
3039 448 Pls
3040 448 Pls
3041 448 Pls
3042 448 Pls
3043 448 Pls
3044 448 Pls
3044 448 Pls
3045 448 Pls
3046 448 Pls
3047 448 Pls
3048 448 Pls
3049 448 Pls
3049 448 Pls
3050 448 Pls
3051 448 Pls
3052 448 Pls
3053 448 Pls
3053 448 Pls
3054 448 Pls
3055 448 Pls
3056 448 Pls
3057 448 Pls
3058 448 Pls
3058 448 Pls
3059 448 Pls
3060 448 Pls
3061 448 Pls
3062 448 Pls
3062 448 Pls
3063 448 Pls
3064 448 Pls
3065 448 Pls
3065 448 Pls
3066 448 Pls
3067 448 Pls
3068 448 Pls
3069 448 Pls
3069 448 Pls
3070 448 Pls
3071 448 Pls
3072 448 Pls
3073 448 Pls
3073 448 Pls
3074 448 Pls
3075 448 Pls
3076 448 Pls
3076 448 Pls
3077 448 Pls
3078 448 Pls
3079 448 Pls
3079 448 Pls
3080 448 Pls
3081 448 Pls
3082 448 Pls
3082 448 Pls
3083 448 Pls
3084 448 Pls
3085 448 Pls
3085 448 Pls
3086 448 Pls
3087 448 Pls
3088 448 Pls
3088 448 Pls
3089 448 Pls
3090 448 Pls
3091 448 Pls
3091 448 Pls
3092 448 Pls
3093 448 Pls
3094 448 Pls
3094 448 Pls
3095 448 Pls
3096 448 Pls
3097 448 Pls
3097 448 Pls
3098 448 Pls
3099 448 Pls
3099 448 Pls
3100 448 Pls
3101 448 Pls
3102 448 Pls
3102 448 Pls
3103 448 Pls
3104 448 Pls
3104 448 Pls
3105 448 Pls
3106 448 Pls
3107 448 Pls
3107 448 Pls
3108 448 Pls
3109 448 Pls
3109 448 Pls
3110 448 Pls
3111 448 Pls
3112 448 Pls
3112 448 Pls
3113 448 Pls
3114 448 Pls
3114 448 Pls
3115 448 Pls
3116 448 Pls
3116 448 Pls
3117 448 Pls
3118 448 Pls
3118 448 Pls
3119 448 Pls
3120 448 Pls
3121 448 Pls
3121 448 Pls
3122 448 Pls
3123 448 Pls
3123 448 Pls
3124 448 Pls
3125 448 Pls
3125 448 Pls
3126 448 Pls
3127 448 Pls
3127 448 Pls
3128 448 Pls
3129 448 Pls
3129 448 Pls
3130 448 Pls
3131 448 Pls
3131 448 Pls
3132 448 Pls
3133 448 Pls
3133 448 Pls
3134 448 Pls
3135 448 Pls
3135 448 Pls
3136 448 Pls
3137 448 Pls
3137 448 Pls
3138 448 Pls
3139 448 Pls
3139 448 Pls
3140 448 Pls
3141 448 Pls
3141 448 Pls
3142 448 Pls
3143 448 Pls
3143 448 Pls
3144 448 Pls
3144 448 Pls
3145 448 Pls
3146 448 Pls
3146 448 Pls
3147 448 Pls
3148 448 Pls
3148 448 Pls
3149 448 Pls
3150 448 Pls
3150 448 Pls
3151 448 Pls
3151 448 Pls
3152 448 Pls
3153 448 Pls
3153 448 Pls
3154 448 Pls
3155 448 Pls
3155 448 Pls
3156 448 Pls
3157 448 Pls
3157 448 Pls
3158 448 Pls
3158 448 Pls
3159 448 Pls
3160 448 Pls
3160 448 Pls
3161 448 Pls
3161 448 Pls
3162 448 Pls
3163 448 Pls
3163 448 Pls
3164 448 Pls
3165 448 Pls
3165 448 Pls
3166 448 Pls
3166 448 Pls
3167 448 Pls
3168 448 Pls
3168 448 Pls
3169 448 Pls
3169 448 Pls
3170 448 Pls
3171 448 Pls
3171 448 Pls
3172 448 Pls
3172 448 Pls
3173 448 Pls
3174 448 Pls
3174 448 Pls
3175 448 Pls
3175 448 Pls
3176 448 Pls
3177 448 Pls
3177 448 Pls
3178 448 Pls
3178 448 Pls
3179 448 Pls
3180 448 Pls
3180 448 Pls
3181 448 Pls
3181 448 Pls
3182 448 Pls
3183 448 Pls
3183 448 Pls
3184 448 Pls
3184 448 Pls
3185 448 Pls
3185 448 Pls
3186 448 Pls
3187 448 Pls
3187 448 Pls
3188 448 Pls
3188 448 Pls
3189 448 Pls
3190 448 Pls
3190 448 Pls
3191 448 Pls
3191 448 Pls
3192 448 Pls
3192 448 Pls
3193 448 Pls
3194 448 Pls
3194 448 Pls
3195 448 Pls
3195 448 Pls
3196 448 Pls
3196 448 Pls
3197 448 Pls
3197 448 Pls
3198 448 Pls
3199 448 Pls
3199 448 Pls
3200 448 Pls
3200 448 Pls
3201 448 Pls
3201 448 Pls
3202 448 Pls
3203 448 Pls
3203 448 Pls
3204 448 Pls
3204 448 Pls
3205 448 Pls
3205 448 Pls
3206 448 Pls
3206 448 Pls
3207 448 Pls
3208 448 Pls
3208 448 Pls
3209 448 Pls
3209 448 Pls
3210 448 Pls
3210 448 Pls
3211 448 Pls
3211 448 Pls
3212 448 Pls
3212 448 Pls
3213 448 Pls
3214 448 Pls
3214 448 Pls
3215 448 Pls
3215 448 Pls
3216 448 Pls
3216 448 Pls
3217 448 Pls
3217 448 Pls
3218 448 Pls
3218 448 Pls
3219 448 Pls
3219 448 Pls
3220 448 Pls
3220 448 Pls
3221 448 Pls
3222 448 Pls
3222 448 Pls
3223 448 Pls
3223 448 Pls
3224 448 Pls
3224 448 Pls
3225 448 Pls
3225 448 Pls
3226 448 Pls
3226 448 Pls
3227 448 Pls
3227 448 Pls
3228 448 Pls
3228 448 Pls
3229 448 Pls
3229 448 Pls
3230 448 Pls
3230 448 Pls
3231 448 Pls
3232 448 Pls
3232 448 Pls
3233 448 Pls
3233 448 Pls
3234 448 Pls
3234 448 Pls
3235 448 Pls
3235 448 Pls
3236 448 Pls
3236 448 Pls
3237 448 Pls
3237 448 Pls
3238 448 Pls
3238 448 Pls
3239 448 Pls
3239 448 Pls
3240 448 Pls
3240 448 Pls
3241 448 Pls
3241 448 Pls
3242 448 Pls
3242 448 Pls
3243 448 Pls
3243 448 Pls
3244 448 Pls
3244 448 Pls
3245 448 Pls
3245 448 Pls
3246 448 Pls
3246 448 Pls
3247 448 Pls
3247 448 Pls
3248 448 Pls
3248 448 Pls
3249 448 Pls
3249 448 Pls
3250 448 Pls
3250 448 Pls
3251 448 Pls
3251 448 Pls
3252 448 Pls
3252 448 Pls
3253 448 Pls
3253 448 Pls
3254 448 Pls
3254 448 Pls
3255 448 Pls
3255 448 Pls
3256 448 Pls
3256 448 Pls
3257 448 Pls
3257 448 Pls
3258 448 Pls
3258 448 Pls
3259 448 Pls
3259 448 Pls
3259 448 Pls
3260 448 Pls
3260 448 Pls
3261 448 Pls
3261 448 Pls
3262 448 Pls
3262 448 Pls
3263 448 Pls
3263 448 Pls
3264 448 Pls
3264 448 Pls
3265 448 Pls
3265 448 Pls
3266 448 Pls
3266 448 Pls
3267 448 Pls
3267 448 Pls
3268 448 Pls
3268 448 Pls
3269 448 Pls
3269 448 Pls
3270 448 Pls
3270 448 Pls
3270 448 Pls
3271 448 Pls
3271 448 Pls
3272 448 Pls
3272 448 Pls
3273 448 Pls
3273 448 Pls
3274 448 Pls
3274 448 Pls
3275 448 Pls
3275 448 Pls
3276 448 Pls
3276 448 Pls
3276 448 Pls
3277 448 Pls
3277 448 Pls
3278 448 Pls
3278 448 Pls
3279 448 Pls
3279 448 Pls
3280 448 Pls
3280 448 Pls
3281 448 Pls
3281 448 Pls
3282 448 Pls
3282 448 Pls
3282 448 Pls
3283 448 Pls
3283 448 Pls
3284 448 Pls
3284 448 Pls
3285 448 Pls
3285 448 Pls
3286 448 Pls
3286 448 Pls
3287 448 Pls
3287 448 Pls
3287 448 Pls
3288 448 Pls
3288 448 Pls
3289 448 Pls
3289 448 Pls
3290 448 Pls
3290 448 Pls
3291 448 Pls
3291 448 Pls
3291 448 Pls
3292 448 Pls
3292 448 Pls
3293 448 Pls
3293 448 Pls
3294 448 Pls
3294 448 Pls
3295 448 Pls
3295 448 Pls
3295 448 Pls
3296 448 Pls
3296 448 Pls
3297 448 Pls
3297 448 Pls
3298 448 Pls
3298 448 Pls
3299 448 Pls
3299 448 Pls
3299 448 Pls
3300 448 Pls
3300 448 Pls
3301 448 Pls
3301 448 Pls
3302 448 Pls
3302 448 Pls
3302 448 Pls
3303 448 Pls
3303 448 Pls
3304 448 Pls
3304 448 Pls
3305 448 Pls
3305 448 Pls
3305 448 Pls
3306 448 Pls
3306 448 Pls
3307 448 Pls
3307 448 Pls
3308 448 Pls
3308 448 Pls
3308 448 Pls
3309 448 Pls
3309 448 Pls
3310 448 Pls
3310 448 Pls
3311 448 Pls
3311 448 Pls
3311 448 Pls
3312 448 Pls
3312 448 Pls
3313 448 Pls
3313 448 Pls
3314 448 Pls
3314 448 Pls
3314 448 Pls
3315 448 Pls
3315 448 Pls
3316 448 Pls
3316 448 Pls
3316 448 Pls
3317 448 Pls
3317 448 Pls
3318 448 Pls
3318 448 Pls
3319 448 Pls
3319 448 Pls
3319 448 Pls
3320 448 Pls
3320 448 Pls
3321 448 Pls
3321 448 Pls
3321 448 Pls
3322 448 Pls
3322 448 Pls
3323 448 Pls
3323 448 Pls
3323 448 Pls
3324 448 Pls
3324 448 Pls
3325 448 Pls
3325 448 Pls
3326 448 Pls
3326 448 Pls
3326 448 Pls
3327 448 Pls
3327 448 Pls
3328 448 Pls
3328 448 Pls
3328 448 Pls
3329 448 Pls
3329 448 Pls
3330 448 Pls
3330 448 Pls
3330 448 Pls
3331 448 Pls
3331 448 Pls
3332 448 Pls
3332 448 Pls
3332 448 Pls
3333 448 Pls
3333 448 Pls
3334 448 Pls
3334 448 Pls
3334 448 Pls
3335 448 Pls
3335 448 Pls
3336 448 Pls
3336 448 Pls
3336 448 Pls
3337 448 Pls
3337 448 Pls
3338 448 Pls
3338 448 Pls
3338 448 Pls
3339 448 Pls
3339 448 Pls
3340 448 Pls
3340 448 Pls
3340 448 Pls
3341 448 Pls
3341 448 Pls
3342 448 Pls
3342 448 Pls
3342 448 Pls
3343 448 Pls
3343 448 Pls
3344 448 Pls
3344 448 Pls
3344 448 Pls
3345 448 Pls
3345 448 Pls
3345 448 Pls
3346 448 Pls
3346 448 Pls
3347 448 Pls
3347 448 Pls
2979 2079 Pls
% End plot #2
% Begin plot #3
1.000 UP
1.000 UL
LTb
LT2
LCb setrgbcolor
LCb setrgbcolor
2696 1939 M
[ [(Helvetica) 140.0 0.0 true true 0 (diff-all-ave)]
] -46.7 MRshow
1.000 UP
1.000 UL
LTb
LT2
LCb setrgbcolor
2780 1939 M
399 0 V
602 1460 M
877 839 L
1037 619 L
114 -73 V
88 -39 V
73 -19 V
61 -7 V
53 -10 V
46 -4 V
42 -3 V
38 -1 V
34 0 V
32 -2 V
29 0 V
27 2 V
26 0 V
24 0 V
23 3 V
21 -1 V
20 3 V
20 0 V
18 1 V
18 1 V
17 1 V
16 2 V
15 2 V
15 -2 V
15 1 V
14 4 V
13 6 V
13 1 V
13 -20 V
12 -9 V
12 -2 V
11 -1 V
11 -1 V
11 -1 V
11 -1 V
10 0 V
10 0 V
10 0 V
9 -1 V
10 0 V
9 0 V
9 0 V
8 0 V
9 0 V
8 0 V
8 0 V
8 0 V
8 0 V
8 0 V
7 1 V
8 0 V
7 0 V
7 0 V
7 0 V
7 1 V
7 0 V
6 0 V
7 1 V
6 0 V
7 0 V
6 0 V
6 -1 V
6 -1 V
6 0 V
6 -1 V
6 0 V
5 0 V
6 0 V
6 0 V
5 0 V
5 -1 V
6 0 V
5 0 V
5 0 V
5 0 V
5 0 V
5 0 V
5 1 V
5 -1 V
5 1 V
5 0 V
4 0 V
5 0 V
5 0 V
4 0 V
5 0 V
4 0 V
4 0 V
5 0 V
4 0 V
4 1 V
4 0 V
5 0 V
4 -1 V
4 0 V
4 0 V
4 0 V
4 0 V
4 2 V
3 -2 V
4 1 V
4 0 V
4 0 V
4 0 V
stroke 2453 450 M
3 -1 V
4 -1 V
3 0 V
4 0 V
4 0 V
3 0 V
4 0 V
3 0 V
4 0 V
3 0 V
3 0 V
4 0 V
3 3 V
3 -2 V
3 -1 V
4 1 V
3 0 V
3 0 V
3 0 V
3 0 V
4 0 V
3 0 V
3 0 V
3 0 V
3 -1 V
3 0 V
3 2 V
3 -1 V
3 0 V
2 0 V
3 0 V
3 1 V
3 0 V
3 -1 V
3 -1 V
2 0 V
3 0 V
3 0 V
3 1 V
2 -1 V
3 4 V
3 -2 V
2 -1 V
3 1 V
3 -1 V
2 0 V
3 -1 V
2 0 V
3 0 V
2 0 V
3 0 V
2 0 V
3 0 V
2 0 V
3 0 V
2 0 V
3 0 V
2 0 V
2 1 V
3 -1 V
2 1 V
3 0 V
2 0 V
2 0 V
3 -1 V
2 0 V
2 1 V
2 0 V
3 1 V
2 0 V
2 -1 V
2 0 V
3 0 V
2 0 V
2 0 V
2 0 V
2 0 V
2 0 V
2 -1 V
3 0 V
2 0 V
2 0 V
2 0 V
2 0 V
2 0 V
2 0 V
2 0 V
2 0 V
2 0 V
2 0 V
2 0 V
2 0 V
2 0 V
2 0 V
2 0 V
2 0 V
2 1 V
2 0 V
2 0 V
2 0 V
2 -1 V
2 1 V
2 0 V
1 0 V
stroke 2721 449 M
2 0 V
2 0 V
2 0 V
2 0 V
2 0 V
2 0 V
1 -1 V
2 0 V
2 0 V
2 0 V
2 0 V
1 0 V
2 0 V
2 0 V
2 0 V
1 0 V
2 0 V
2 0 V
2 1 V
1 -1 V
2 0 V
2 0 V
1 0 V
2 1 V
2 0 V
1 0 V
2 -1 V
2 0 V
1 1 V
2 0 V
2 -1 V
1 1 V
2 0 V
2 0 V
1 -1 V
2 1 V
1 -1 V
2 0 V
2 0 V
1 0 V
2 0 V
1 0 V
2 0 V
1 0 V
2 0 V
2 0 V
1 0 V
2 0 V
1 1 V
2 -1 V
1 0 V
2 0 V
1 0 V
2 0 V
1 1 V
2 -1 V
1 0 V
2 0 V
1 0 V
2 0 V
1 0 V
1 0 V
2 0 V
1 0 V
2 0 V
1 1 V
2 -1 V
1 0 V
1 0 V
2 0 V
1 0 V
2 0 V
1 0 V
1 0 V
2 0 V
1 0 V
2 0 V
1 0 V
1 0 V
2 2 V
1 -2 V
1 0 V
2 0 V
1 0 V
1 0 V
2 0 V
1 0 V
1 0 V
2 0 V
1 0 V
1 0 V
2 0 V
1 0 V
1 0 V
2 0 V
1 0 V
1 0 V
2 0 V
1 0 V
1 0 V
1 0 V
2 0 V
1 0 V
1 0 V
stroke 2880 448 M
1 0 V
2 0 V
1 0 V
1 0 V
1 0 V
2 0 V
1 0 V
1 0 V
1 0 V
2 0 V
1 0 V
1 0 V
1 0 V
1 0 V
2 0 V
1 0 V
1 0 V
1 0 V
1 0 V
2 0 V
1 0 V
1 0 V
1 0 V
1 0 V
1 0 V
2 0 V
1 0 V
1 0 V
1 0 V
1 0 V
1 0 V
1 0 V
2 0 V
1 0 V
1 0 V
1 0 V
1 0 V
1 0 V
1 0 V
1 0 V
2 0 V
1 0 V
1 0 V
1 0 V
1 0 V
1 0 V
1 0 V
1 0 V
1 0 V
1 0 V
2 0 V
1 0 V
1 0 V
1 0 V
1 0 V
1 0 V
1 0 V
1 0 V
1 0 V
1 0 V
1 0 V
1 0 V
1 0 V
1 0 V
1 0 V
1 0 V
2 0 V
1 0 V
1 0 V
1 0 V
1 1 V
1 -1 V
1 0 V
1 0 V
1 0 V
1 0 V
1 0 V
1 0 V
1 0 V
1 0 V
1 0 V
1 0 V
1 0 V
1 0 V
1 0 V
1 0 V
1 0 V
1 0 V
1 0 V
1 0 V
1 0 V
1 0 V
1 0 V
1 0 V
1 0 V
1 0 V
1 0 V
1 0 V
1 0 V
1 0 V
1 0 V
1 0 V
1 0 V
1 0 V
stroke 2994 448 M
1 0 V
1 0 V
1 0 V
1 0 V
1 0 V
1 0 V
1 0 V
1 0 V
1 0 V
1 0 V
1 0 V
1 0 V
1 0 V
1 0 V
1 0 V
1 0 V
1 0 V
1 0 V
1 0 V
1 0 V
1 0 V
1 0 V
1 0 V
1 0 V
1 0 V
1 0 V
1 0 V
1 0 V
1 0 V
1 0 V
1 0 V
1 0 V
1 0 V
1 0 V
1 0 V
1 0 V
1 0 V
1 0 V
1 0 V
1 0 V
1 0 V
1 0 V
1 0 V
1 0 V
1 0 V
1 0 V
1 0 V
1 0 V
1 0 V
1 0 V
1 0 V
1 0 V
1 0 V
1 0 V
1 0 V
1 0 V
1 0 V
1 0 V
1 0 V
1 0 V
1 0 V
1 0 V
1 0 V
1 0 V
1 0 V
1 0 V
1 0 V
1 0 V
1 0 V
1 0 V
1 0 V
1 0 V
1 0 V
1 0 V
1 0 V
1 0 V
1 0 V
1 0 V
1 0 V
1 0 V
1 0 V
1 0 V
1 0 V
1 0 V
1 0 V
1 0 V
1 0 V
1 0 V
1 0 V
1 0 V
1 0 V
1 0 V
1 0 V
1 0 V
1 0 V
1 0 V
1 0 V
1 0 V
1 0 V
1 0 V
1 0 V
1 0 V
1 0 V
1 0 V
stroke 3098 448 M
1 0 V
1 0 V
1 0 V
1 0 V
1 0 V
1 0 V
1 0 V
1 0 V
1 0 V
1 0 V
1 0 V
1 0 V
1 0 V
1 0 V
1 0 V
1 0 V
1 0 V
1 0 V
1 0 V
1 0 V
1 0 V
1 0 V
1 0 V
1 0 V
1 0 V
1 0 V
1 0 V
1 0 V
1 0 V
1 0 V
1 0 V
1 0 V
1 0 V
1 0 V
1 0 V
1 0 V
1 0 V
1 0 V
1 0 V
1 0 V
1 0 V
1 0 V
1 0 V
1 0 V
1 0 V
1 0 V
1 0 V
1 0 V
1 0 V
1 0 V
1 0 V
1 0 V
1 0 V
1 0 V
1 0 V
1 0 V
1 0 V
1 0 V
1 0 V
1 0 V
1 0 V
1 0 V
1 0 V
1 0 V
1 0 V
1 0 V
1 0 V
1 0 V
1 0 V
1 0 V
1 0 V
1 0 V
1 0 V
1 0 V
1 0 V
1 0 V
1 0 V
1 0 V
1 0 V
1 0 V
1 0 V
1 0 V
1 0 V
1 0 V
1 0 V
1 0 V
1 0 V
1 0 V
1 0 V
1 0 V
1 0 V
1 0 V
1 0 V
1 0 V
1 0 V
1 0 V
1 0 V
1 0 V
1 0 V
1 0 V
1 0 V
1 0 V
1 0 V
1 0 V
stroke 3202 448 M
1 0 V
1 0 V
1 0 V
1 0 V
1 0 V
1 0 V
1 0 V
1 0 V
1 0 V
1 0 V
1 0 V
1 0 V
1 0 V
1 0 V
1 0 V
1 0 V
1 0 V
1 0 V
1 0 V
1 0 V
1 0 V
1 0 V
1 0 V
1 0 V
1 0 V
1 0 V
1 0 V
1 0 V
1 0 V
1 0 V
1 0 V
1 0 V
1 0 V
1 0 V
1 0 V
1 0 V
1 0 V
1 0 V
1 0 V
1 0 V
1 0 V
1 0 V
1 0 V
1 0 V
1 0 V
1 0 V
1 0 V
1 0 V
1 0 V
1 0 V
1 0 V
1 0 V
1 0 V
1 0 V
1 0 V
1 0 V
1 0 V
1 0 V
1 0 V
1 0 V
1 0 V
1 0 V
1 0 V
1 0 V
1 0 V
1 0 V
1 0 V
1 0 V
1 0 V
1 0 V
1 0 V
1 0 V
1 0 V
1 0 V
1 0 V
1 0 V
1 0 V
1 0 V
1 0 V
1 0 V
1 0 V
1 0 V
1 0 V
1 0 V
1 0 V
1 0 V
1 0 V
1 0 V
1 0 V
1 0 V
1 0 V
1 0 V
1 0 V
1 0 V
1 0 V
1 0 V
1 0 V
1 0 V
1 0 V
1 0 V
1 0 V
1 0 V
1 0 V
1 0 V
stroke 3306 448 M
1 0 V
1 0 V
1 0 V
1 0 V
1 0 V
1 0 V
1 0 V
1 0 V
1 0 V
1 0 V
1 0 V
1 0 V
1 0 V
1 0 V
1 0 V
1 0 V
1 0 V
1 0 V
1 0 V
1 0 V
1 0 V
1 0 V
1 0 V
1 0 V
1 0 V
1 0 V
1 0 V
1 0 V
1 0 V
1 0 V
1 0 V
1 0 V
1 0 V
1 0 V
1 0 V
1 0 V
1 0 V
1 0 V
1 0 V
1 0 V
1 0 V
602 1460 Pls
877 839 Pls
1037 619 Pls
1151 546 Pls
1239 507 Pls
1312 488 Pls
1373 481 Pls
1426 471 Pls
1472 467 Pls
1514 464 Pls
1552 463 Pls
1586 463 Pls
1618 461 Pls
1647 461 Pls
1674 463 Pls
1700 463 Pls
1724 463 Pls
1747 466 Pls
1768 465 Pls
1788 468 Pls
1808 468 Pls
1826 469 Pls
1844 470 Pls
1861 471 Pls
1877 473 Pls
1892 475 Pls
1907 473 Pls
1922 474 Pls
1936 478 Pls
1949 484 Pls
1962 485 Pls
1975 465 Pls
1987 456 Pls
1999 454 Pls
2010 453 Pls
2021 452 Pls
2032 451 Pls
2043 450 Pls
2053 450 Pls
2063 450 Pls
2073 450 Pls
2082 449 Pls
2092 449 Pls
2101 449 Pls
2110 449 Pls
2118 449 Pls
2127 449 Pls
2135 449 Pls
2143 449 Pls
2151 449 Pls
2159 449 Pls
2167 449 Pls
2174 450 Pls
2182 450 Pls
2189 450 Pls
2196 450 Pls
2203 450 Pls
2210 451 Pls
2217 451 Pls
2223 451 Pls
2230 452 Pls
2236 452 Pls
2243 452 Pls
2249 452 Pls
2255 451 Pls
2261 450 Pls
2267 450 Pls
2273 449 Pls
2279 449 Pls
2284 449 Pls
2290 449 Pls
2296 449 Pls
2301 449 Pls
2306 448 Pls
2312 448 Pls
2317 448 Pls
2322 448 Pls
2327 448 Pls
2332 448 Pls
2337 448 Pls
2342 449 Pls
2347 448 Pls
2352 449 Pls
2357 449 Pls
2361 449 Pls
2366 449 Pls
2371 449 Pls
2375 449 Pls
2380 449 Pls
2384 449 Pls
2388 449 Pls
2393 449 Pls
2397 449 Pls
2401 450 Pls
2405 450 Pls
2410 450 Pls
2414 449 Pls
2418 449 Pls
2422 449 Pls
2426 449 Pls
2430 449 Pls
2434 451 Pls
2437 449 Pls
2441 450 Pls
2445 450 Pls
2449 450 Pls
2453 450 Pls
2456 449 Pls
2460 448 Pls
2463 448 Pls
2467 448 Pls
2471 448 Pls
2474 448 Pls
2478 448 Pls
2481 448 Pls
2485 448 Pls
2488 448 Pls
2491 448 Pls
2495 448 Pls
2498 451 Pls
2501 449 Pls
2504 448 Pls
2508 449 Pls
2511 449 Pls
2514 449 Pls
2517 449 Pls
2520 449 Pls
2524 449 Pls
2527 449 Pls
2530 449 Pls
2533 449 Pls
2536 448 Pls
2539 448 Pls
2542 450 Pls
2545 449 Pls
2548 449 Pls
2550 449 Pls
2553 449 Pls
2556 450 Pls
2559 450 Pls
2562 449 Pls
2565 448 Pls
2567 448 Pls
2570 448 Pls
2573 448 Pls
2576 449 Pls
2578 448 Pls
2581 452 Pls
2584 450 Pls
2586 449 Pls
2589 450 Pls
2592 449 Pls
2594 449 Pls
2597 448 Pls
2599 448 Pls
2602 448 Pls
2604 448 Pls
2607 448 Pls
2609 448 Pls
2612 448 Pls
2614 448 Pls
2617 448 Pls
2619 448 Pls
2622 448 Pls
2624 448 Pls
2626 449 Pls
2629 448 Pls
2631 449 Pls
2634 449 Pls
2636 449 Pls
2638 449 Pls
2641 448 Pls
2643 448 Pls
2645 449 Pls
2647 449 Pls
2650 450 Pls
2652 450 Pls
2654 449 Pls
2656 449 Pls
2659 449 Pls
2661 449 Pls
2663 449 Pls
2665 449 Pls
2667 449 Pls
2669 449 Pls
2671 448 Pls
2674 448 Pls
2676 448 Pls
2678 448 Pls
2680 448 Pls
2682 448 Pls
2684 448 Pls
2686 448 Pls
2688 448 Pls
2690 448 Pls
2692 448 Pls
2694 448 Pls
2696 448 Pls
2698 448 Pls
2700 448 Pls
2702 448 Pls
2704 448 Pls
2706 448 Pls
2708 449 Pls
2710 449 Pls
2712 449 Pls
2714 449 Pls
2716 448 Pls
2718 449 Pls
2720 449 Pls
2721 449 Pls
2723 449 Pls
2725 449 Pls
2727 449 Pls
2729 449 Pls
2731 449 Pls
2733 449 Pls
2734 448 Pls
2736 448 Pls
2738 448 Pls
2740 448 Pls
2742 448 Pls
2743 448 Pls
2745 448 Pls
2747 448 Pls
2749 448 Pls
2750 448 Pls
2752 448 Pls
2754 448 Pls
2756 449 Pls
2757 448 Pls
2759 448 Pls
2761 448 Pls
2762 448 Pls
2764 449 Pls
2766 449 Pls
2767 449 Pls
2769 448 Pls
2771 448 Pls
2772 449 Pls
2774 449 Pls
2776 448 Pls
2777 449 Pls
2779 449 Pls
2781 449 Pls
2782 448 Pls
2784 449 Pls
2785 448 Pls
2787 448 Pls
2789 448 Pls
2790 448 Pls
2792 448 Pls
2793 448 Pls
2795 448 Pls
2796 448 Pls
2798 448 Pls
2800 448 Pls
2801 448 Pls
2803 448 Pls
2804 449 Pls
2806 448 Pls
2807 448 Pls
2809 448 Pls
2810 448 Pls
2812 448 Pls
2813 449 Pls
2815 448 Pls
2816 448 Pls
2818 448 Pls
2819 448 Pls
2821 448 Pls
2822 448 Pls
2823 448 Pls
2825 448 Pls
2826 448 Pls
2828 448 Pls
2829 449 Pls
2831 448 Pls
2832 448 Pls
2833 448 Pls
2835 448 Pls
2836 448 Pls
2838 448 Pls
2839 448 Pls
2840 448 Pls
2842 448 Pls
2843 448 Pls
2845 448 Pls
2846 448 Pls
2847 448 Pls
2849 450 Pls
2850 448 Pls
2851 448 Pls
2853 448 Pls
2854 448 Pls
2855 448 Pls
2857 448 Pls
2858 448 Pls
2859 448 Pls
2861 448 Pls
2862 448 Pls
2863 448 Pls
2865 448 Pls
2866 448 Pls
2867 448 Pls
2869 448 Pls
2870 448 Pls
2871 448 Pls
2873 448 Pls
2874 448 Pls
2875 448 Pls
2876 448 Pls
2878 448 Pls
2879 448 Pls
2880 448 Pls
2881 448 Pls
2883 448 Pls
2884 448 Pls
2885 448 Pls
2886 448 Pls
2888 448 Pls
2889 448 Pls
2890 448 Pls
2891 448 Pls
2893 448 Pls
2894 448 Pls
2895 448 Pls
2896 448 Pls
2897 448 Pls
2899 448 Pls
2900 448 Pls
2901 448 Pls
2902 448 Pls
2903 448 Pls
2905 448 Pls
2906 448 Pls
2907 448 Pls
2908 448 Pls
2909 448 Pls
2910 448 Pls
2912 448 Pls
2913 448 Pls
2914 448 Pls
2915 448 Pls
2916 448 Pls
2917 448 Pls
2918 448 Pls
2920 448 Pls
2921 448 Pls
2922 448 Pls
2923 448 Pls
2924 448 Pls
2925 448 Pls
2926 448 Pls
2927 448 Pls
2929 448 Pls
2930 448 Pls
2931 448 Pls
2932 448 Pls
2933 448 Pls
2934 448 Pls
2935 448 Pls
2936 448 Pls
2937 448 Pls
2938 448 Pls
2940 448 Pls
2941 448 Pls
2942 448 Pls
2943 448 Pls
2944 448 Pls
2945 448 Pls
2946 448 Pls
2947 448 Pls
2948 448 Pls
2949 448 Pls
2950 448 Pls
2951 448 Pls
2952 448 Pls
2953 448 Pls
2954 448 Pls
2955 448 Pls
2957 448 Pls
2958 448 Pls
2959 448 Pls
2960 448 Pls
2961 449 Pls
2962 448 Pls
2963 448 Pls
2964 448 Pls
2965 448 Pls
2966 448 Pls
2967 448 Pls
2968 448 Pls
2969 448 Pls
2970 448 Pls
2971 448 Pls
2972 448 Pls
2973 448 Pls
2974 448 Pls
2975 448 Pls
2976 448 Pls
2977 448 Pls
2978 448 Pls
2979 448 Pls
2980 448 Pls
2981 448 Pls
2982 448 Pls
2983 448 Pls
2984 448 Pls
2985 448 Pls
2985 448 Pls
2986 448 Pls
2987 448 Pls
2988 448 Pls
2989 448 Pls
2990 448 Pls
2991 448 Pls
2992 448 Pls
2993 448 Pls
2994 448 Pls
2995 448 Pls
2996 448 Pls
2997 448 Pls
2998 448 Pls
2999 448 Pls
3000 448 Pls
3001 448 Pls
3002 448 Pls
3002 448 Pls
3003 448 Pls
3004 448 Pls
3005 448 Pls
3006 448 Pls
3007 448 Pls
3008 448 Pls
3009 448 Pls
3010 448 Pls
3011 448 Pls
3012 448 Pls
3012 448 Pls
3013 448 Pls
3014 448 Pls
3015 448 Pls
3016 448 Pls
3017 448 Pls
3018 448 Pls
3019 448 Pls
3020 448 Pls
3021 448 Pls
3021 448 Pls
3022 448 Pls
3023 448 Pls
3024 448 Pls
3025 448 Pls
3026 448 Pls
3027 448 Pls
3027 448 Pls
3028 448 Pls
3029 448 Pls
3030 448 Pls
3031 448 Pls
3032 448 Pls
3033 448 Pls
3034 448 Pls
3034 448 Pls
3035 448 Pls
3036 448 Pls
3037 448 Pls
3038 448 Pls
3039 448 Pls
3039 448 Pls
3040 448 Pls
3041 448 Pls
3042 448 Pls
3043 448 Pls
3044 448 Pls
3044 448 Pls
3045 448 Pls
3046 448 Pls
3047 448 Pls
3048 448 Pls
3049 448 Pls
3049 448 Pls
3050 448 Pls
3051 448 Pls
3052 448 Pls
3053 448 Pls
3053 448 Pls
3054 448 Pls
3055 448 Pls
3056 448 Pls
3057 448 Pls
3058 448 Pls
3058 448 Pls
3059 448 Pls
3060 448 Pls
3061 448 Pls
3062 448 Pls
3062 448 Pls
3063 448 Pls
3064 448 Pls
3065 448 Pls
3065 448 Pls
3066 448 Pls
3067 448 Pls
3068 448 Pls
3069 448 Pls
3069 448 Pls
3070 448 Pls
3071 448 Pls
3072 448 Pls
3073 448 Pls
3073 448 Pls
3074 448 Pls
3075 448 Pls
3076 448 Pls
3076 448 Pls
3077 448 Pls
3078 448 Pls
3079 448 Pls
3079 448 Pls
3080 448 Pls
3081 448 Pls
3082 448 Pls
3082 448 Pls
3083 448 Pls
3084 448 Pls
3085 448 Pls
3085 448 Pls
3086 448 Pls
3087 448 Pls
3088 448 Pls
3088 448 Pls
3089 448 Pls
3090 448 Pls
3091 448 Pls
3091 448 Pls
3092 448 Pls
3093 448 Pls
3094 448 Pls
3094 448 Pls
3095 448 Pls
3096 448 Pls
3097 448 Pls
3097 448 Pls
3098 448 Pls
3099 448 Pls
3099 448 Pls
3100 448 Pls
3101 448 Pls
3102 448 Pls
3102 448 Pls
3103 448 Pls
3104 448 Pls
3104 448 Pls
3105 448 Pls
3106 448 Pls
3107 448 Pls
3107 448 Pls
3108 448 Pls
3109 448 Pls
3109 448 Pls
3110 448 Pls
3111 448 Pls
3112 448 Pls
3112 448 Pls
3113 448 Pls
3114 448 Pls
3114 448 Pls
3115 448 Pls
3116 448 Pls
3116 448 Pls
3117 448 Pls
3118 448 Pls
3118 448 Pls
3119 448 Pls
3120 448 Pls
3121 448 Pls
3121 448 Pls
3122 448 Pls
3123 448 Pls
3123 448 Pls
3124 448 Pls
3125 448 Pls
3125 448 Pls
3126 448 Pls
3127 448 Pls
3127 448 Pls
3128 448 Pls
3129 448 Pls
3129 448 Pls
3130 448 Pls
3131 448 Pls
3131 448 Pls
3132 448 Pls
3133 448 Pls
3133 448 Pls
3134 448 Pls
3135 448 Pls
3135 448 Pls
3136 448 Pls
3137 448 Pls
3137 448 Pls
3138 448 Pls
3139 448 Pls
3139 448 Pls
3140 448 Pls
3141 448 Pls
3141 448 Pls
3142 448 Pls
3143 448 Pls
3143 448 Pls
3144 448 Pls
3144 448 Pls
3145 448 Pls
3146 448 Pls
3146 448 Pls
3147 448 Pls
3148 448 Pls
3148 448 Pls
3149 448 Pls
3150 448 Pls
3150 448 Pls
3151 448 Pls
3151 448 Pls
3152 448 Pls
3153 448 Pls
3153 448 Pls
3154 448 Pls
3155 448 Pls
3155 448 Pls
3156 448 Pls
3157 448 Pls
3157 448 Pls
3158 448 Pls
3158 448 Pls
3159 448 Pls
3160 448 Pls
3160 448 Pls
3161 448 Pls
3161 448 Pls
3162 448 Pls
3163 448 Pls
3163 448 Pls
3164 448 Pls
3165 448 Pls
3165 448 Pls
3166 448 Pls
3166 448 Pls
3167 448 Pls
3168 448 Pls
3168 448 Pls
3169 448 Pls
3169 448 Pls
3170 448 Pls
3171 448 Pls
3171 448 Pls
3172 448 Pls
3172 448 Pls
3173 448 Pls
3174 448 Pls
3174 448 Pls
3175 448 Pls
3175 448 Pls
3176 448 Pls
3177 448 Pls
3177 448 Pls
3178 448 Pls
3178 448 Pls
3179 448 Pls
3180 448 Pls
3180 448 Pls
3181 448 Pls
3181 448 Pls
3182 448 Pls
3183 448 Pls
3183 448 Pls
3184 448 Pls
3184 448 Pls
3185 448 Pls
3185 448 Pls
3186 448 Pls
3187 448 Pls
3187 448 Pls
3188 448 Pls
3188 448 Pls
3189 448 Pls
3190 448 Pls
3190 448 Pls
3191 448 Pls
3191 448 Pls
3192 448 Pls
3192 448 Pls
3193 448 Pls
3194 448 Pls
3194 448 Pls
3195 448 Pls
3195 448 Pls
3196 448 Pls
3196 448 Pls
3197 448 Pls
3197 448 Pls
3198 448 Pls
3199 448 Pls
3199 448 Pls
3200 448 Pls
3200 448 Pls
3201 448 Pls
3201 448 Pls
3202 448 Pls
3203 448 Pls
3203 448 Pls
3204 448 Pls
3204 448 Pls
3205 448 Pls
3205 448 Pls
3206 448 Pls
3206 448 Pls
3207 448 Pls
3208 448 Pls
3208 448 Pls
3209 448 Pls
3209 448 Pls
3210 448 Pls
3210 448 Pls
3211 448 Pls
3211 448 Pls
3212 448 Pls
3212 448 Pls
3213 448 Pls
3214 448 Pls
3214 448 Pls
3215 448 Pls
3215 448 Pls
3216 448 Pls
3216 448 Pls
3217 448 Pls
3217 448 Pls
3218 448 Pls
3218 448 Pls
3219 448 Pls
3219 448 Pls
3220 448 Pls
3220 448 Pls
3221 448 Pls
3222 448 Pls
3222 448 Pls
3223 448 Pls
3223 448 Pls
3224 448 Pls
3224 448 Pls
3225 448 Pls
3225 448 Pls
3226 448 Pls
3226 448 Pls
3227 448 Pls
3227 448 Pls
3228 448 Pls
3228 448 Pls
3229 448 Pls
3229 448 Pls
3230 448 Pls
3230 448 Pls
3231 448 Pls
3232 448 Pls
3232 448 Pls
3233 448 Pls
3233 448 Pls
3234 448 Pls
3234 448 Pls
3235 448 Pls
3235 448 Pls
3236 448 Pls
3236 448 Pls
3237 448 Pls
3237 448 Pls
3238 448 Pls
3238 448 Pls
3239 448 Pls
3239 448 Pls
3240 448 Pls
3240 448 Pls
3241 448 Pls
3241 448 Pls
3242 448 Pls
3242 448 Pls
3243 448 Pls
3243 448 Pls
3244 448 Pls
3244 448 Pls
3245 448 Pls
3245 448 Pls
3246 448 Pls
3246 448 Pls
3247 448 Pls
3247 448 Pls
3248 448 Pls
3248 448 Pls
3249 448 Pls
3249 448 Pls
3250 448 Pls
3250 448 Pls
3251 448 Pls
3251 448 Pls
3252 448 Pls
3252 448 Pls
3253 448 Pls
3253 448 Pls
3254 448 Pls
3254 448 Pls
3255 448 Pls
3255 448 Pls
3256 448 Pls
3256 448 Pls
3257 448 Pls
3257 448 Pls
3258 448 Pls
3258 448 Pls
3259 448 Pls
3259 448 Pls
3259 448 Pls
3260 448 Pls
3260 448 Pls
3261 448 Pls
3261 448 Pls
3262 448 Pls
3262 448 Pls
3263 448 Pls
3263 448 Pls
3264 448 Pls
3264 448 Pls
3265 448 Pls
3265 448 Pls
3266 448 Pls
3266 448 Pls
3267 448 Pls
3267 448 Pls
3268 448 Pls
3268 448 Pls
3269 448 Pls
3269 448 Pls
3270 448 Pls
3270 448 Pls
3270 448 Pls
3271 448 Pls
3271 448 Pls
3272 448 Pls
3272 448 Pls
3273 448 Pls
3273 448 Pls
3274 448 Pls
3274 448 Pls
3275 448 Pls
3275 448 Pls
3276 448 Pls
3276 448 Pls
3276 448 Pls
3277 448 Pls
3277 448 Pls
3278 448 Pls
3278 448 Pls
3279 448 Pls
3279 448 Pls
3280 448 Pls
3280 448 Pls
3281 448 Pls
3281 448 Pls
3282 448 Pls
3282 448 Pls
3282 448 Pls
3283 448 Pls
3283 448 Pls
3284 448 Pls
3284 448 Pls
3285 448 Pls
3285 448 Pls
3286 448 Pls
3286 448 Pls
3287 448 Pls
3287 448 Pls
3287 448 Pls
3288 448 Pls
3288 448 Pls
3289 448 Pls
3289 448 Pls
3290 448 Pls
3290 448 Pls
3291 448 Pls
3291 448 Pls
3291 448 Pls
3292 448 Pls
3292 448 Pls
3293 448 Pls
3293 448 Pls
3294 448 Pls
3294 448 Pls
3295 448 Pls
3295 448 Pls
3295 448 Pls
3296 448 Pls
3296 448 Pls
3297 448 Pls
3297 448 Pls
3298 448 Pls
3298 448 Pls
3299 448 Pls
3299 448 Pls
3299 448 Pls
3300 448 Pls
3300 448 Pls
3301 448 Pls
3301 448 Pls
3302 448 Pls
3302 448 Pls
3302 448 Pls
3303 448 Pls
3303 448 Pls
3304 448 Pls
3304 448 Pls
3305 448 Pls
3305 448 Pls
3305 448 Pls
3306 448 Pls
3306 448 Pls
3307 448 Pls
3307 448 Pls
3308 448 Pls
3308 448 Pls
3308 448 Pls
3309 448 Pls
3309 448 Pls
3310 448 Pls
3310 448 Pls
3311 448 Pls
3311 448 Pls
3311 448 Pls
3312 448 Pls
3312 448 Pls
3313 448 Pls
3313 448 Pls
3314 448 Pls
3314 448 Pls
3314 448 Pls
3315 448 Pls
3315 448 Pls
3316 448 Pls
3316 448 Pls
3316 448 Pls
3317 448 Pls
3317 448 Pls
3318 448 Pls
3318 448 Pls
3319 448 Pls
3319 448 Pls
3319 448 Pls
3320 448 Pls
3320 448 Pls
3321 448 Pls
3321 448 Pls
3321 448 Pls
3322 448 Pls
3322 448 Pls
3323 448 Pls
3323 448 Pls
3323 448 Pls
3324 448 Pls
3324 448 Pls
3325 448 Pls
3325 448 Pls
3326 448 Pls
3326 448 Pls
3326 448 Pls
3327 448 Pls
3327 448 Pls
3328 448 Pls
3328 448 Pls
3328 448 Pls
3329 448 Pls
3329 448 Pls
3330 448 Pls
3330 448 Pls
3330 448 Pls
3331 448 Pls
3331 448 Pls
3332 448 Pls
3332 448 Pls
3332 448 Pls
3333 448 Pls
3333 448 Pls
3334 448 Pls
3334 448 Pls
3334 448 Pls
3335 448 Pls
3335 448 Pls
3336 448 Pls
3336 448 Pls
3336 448 Pls
3337 448 Pls
3337 448 Pls
3338 448 Pls
3338 448 Pls
3338 448 Pls
3339 448 Pls
3339 448 Pls
3340 448 Pls
3340 448 Pls
3340 448 Pls
3341 448 Pls
3341 448 Pls
3342 448 Pls
3342 448 Pls
3342 448 Pls
3343 448 Pls
3343 448 Pls
3344 448 Pls
3344 448 Pls
3344 448 Pls
3345 448 Pls
3345 448 Pls
3345 448 Pls
3346 448 Pls
3346 448 Pls
3347 448 Pls
3347 448 Pls
2979 1939 Pls
% End plot #3
2.000 UL
LTb
LCb setrgbcolor
1.000 UL
LTb
LCb setrgbcolor
602 2352 N
602 448 L
2745 0 V
0 1904 V
-2745 0 V
Z stroke
1.000 UP
1.000 UL
LTb
LCb setrgbcolor
stroke
grestore
end
showpage
%%Trailer
%%DocumentFonts: Helvetica
