%!PS-Adobe-2.0 EPSF-2.0
%%Title: graph_raw_01.eps
%%Creator: gnuplot 4.6 patchlevel 3
%%CreationDate: Mon Jun  2 15:01:05 2014
%%DocumentFonts: (atend)
%%BoundingBox: 50 50 230 176
%%EndComments
%%BeginProlog
/gnudict 256 dict def
gnudict begin
%
% The following true/false flags may be edited by hand if desired.
% The unit line width and grayscale image gamma correction may also be changed.
%
/Color false def
/Blacktext false def
/Solid false def
/Dashlength 1 def
/Landscape false def
/Level1 false def
/Rounded false def
/ClipToBoundingBox false def
/SuppressPDFMark false def
/TransparentPatterns false def
/gnulinewidth 5.000 def
/userlinewidth gnulinewidth def
/Gamma 1.0 def
/BackgroundColor {-1.000 -1.000 -1.000} def
%
/vshift -46 def
/dl1 {
  10.0 Dashlength mul mul
  Rounded { currentlinewidth 0.75 mul sub dup 0 le { pop 0.01 } if } if
} def
/dl2 {
  10.0 Dashlength mul mul
  Rounded { currentlinewidth 0.75 mul add } if
} def
/hpt_ 31.5 def
/vpt_ 31.5 def
/hpt hpt_ def
/vpt vpt_ def
/doclip {
  ClipToBoundingBox {
    newpath 50 50 moveto 230 50 lineto 230 176 lineto 50 176 lineto closepath
    clip
  } if
} def
%
% Gnuplot Prolog Version 4.6 (September 2012)
%
%/SuppressPDFMark true def
%
/M {moveto} bind def
/L {lineto} bind def
/R {rmoveto} bind def
/V {rlineto} bind def
/N {newpath moveto} bind def
/Z {closepath} bind def
/C {setrgbcolor} bind def
/f {rlineto fill} bind def
/g {setgray} bind def
/Gshow {show} def   % May be redefined later in the file to support UTF-8
/vpt2 vpt 2 mul def
/hpt2 hpt 2 mul def
/Lshow {currentpoint stroke M 0 vshift R 
	Blacktext {gsave 0 setgray show grestore} {show} ifelse} def
/Rshow {currentpoint stroke M dup stringwidth pop neg vshift R
	Blacktext {gsave 0 setgray show grestore} {show} ifelse} def
/Cshow {currentpoint stroke M dup stringwidth pop -2 div vshift R 
	Blacktext {gsave 0 setgray show grestore} {show} ifelse} def
/UP {dup vpt_ mul /vpt exch def hpt_ mul /hpt exch def
  /hpt2 hpt 2 mul def /vpt2 vpt 2 mul def} def
/DL {Color {setrgbcolor Solid {pop []} if 0 setdash}
 {pop pop pop 0 setgray Solid {pop []} if 0 setdash} ifelse} def
/BL {stroke userlinewidth 2 mul setlinewidth
	Rounded {1 setlinejoin 1 setlinecap} if} def
/AL {stroke userlinewidth 2 div setlinewidth
	Rounded {1 setlinejoin 1 setlinecap} if} def
/UL {dup gnulinewidth mul /userlinewidth exch def
	dup 1 lt {pop 1} if 10 mul /udl exch def} def
/PL {stroke userlinewidth setlinewidth
	Rounded {1 setlinejoin 1 setlinecap} if} def
3.8 setmiterlimit
% Default Line colors
/LCw {1 1 1} def
/LCb {0 0 0} def
/LCa {0 0 0} def
/LC0 {1 0 0} def
/LC1 {0 1 0} def
/LC2 {0 0 1} def
/LC3 {1 0 1} def
/LC4 {0 1 1} def
/LC5 {1 1 0} def
/LC6 {0 0 0} def
/LC7 {1 0.3 0} def
/LC8 {0.5 0.5 0.5} def
% Default Line Types
/LTw {PL [] 1 setgray} def
/LTb {BL [] LCb DL} def
/LTa {AL [1 udl mul 2 udl mul] 0 setdash LCa setrgbcolor} def
/LT0 {PL [] LC0 DL} def
/LT1 {PL [4 dl1 2 dl2] LC1 DL} def
/LT2 {PL [2 dl1 3 dl2] LC2 DL} def
/LT3 {PL [1 dl1 1.5 dl2] LC3 DL} def
/LT4 {PL [6 dl1 2 dl2 1 dl1 2 dl2] LC4 DL} def
/LT5 {PL [3 dl1 3 dl2 1 dl1 3 dl2] LC5 DL} def
/LT6 {PL [2 dl1 2 dl2 2 dl1 6 dl2] LC6 DL} def
/LT7 {PL [1 dl1 2 dl2 6 dl1 2 dl2 1 dl1 2 dl2] LC7 DL} def
/LT8 {PL [2 dl1 2 dl2 2 dl1 2 dl2 2 dl1 2 dl2 2 dl1 4 dl2] LC8 DL} def
/Pnt {stroke [] 0 setdash gsave 1 setlinecap M 0 0 V stroke grestore} def
/Dia {stroke [] 0 setdash 2 copy vpt add M
  hpt neg vpt neg V hpt vpt neg V
  hpt vpt V hpt neg vpt V closepath stroke
  Pnt} def
/Pls {stroke [] 0 setdash vpt sub M 0 vpt2 V
  currentpoint stroke M
  hpt neg vpt neg R hpt2 0 V stroke
 } def
/Box {stroke [] 0 setdash 2 copy exch hpt sub exch vpt add M
  0 vpt2 neg V hpt2 0 V 0 vpt2 V
  hpt2 neg 0 V closepath stroke
  Pnt} def
/Crs {stroke [] 0 setdash exch hpt sub exch vpt add M
  hpt2 vpt2 neg V currentpoint stroke M
  hpt2 neg 0 R hpt2 vpt2 V stroke} def
/TriU {stroke [] 0 setdash 2 copy vpt 1.12 mul add M
  hpt neg vpt -1.62 mul V
  hpt 2 mul 0 V
  hpt neg vpt 1.62 mul V closepath stroke
  Pnt} def
/Star {2 copy Pls Crs} def
/BoxF {stroke [] 0 setdash exch hpt sub exch vpt add M
  0 vpt2 neg V hpt2 0 V 0 vpt2 V
  hpt2 neg 0 V closepath fill} def
/TriUF {stroke [] 0 setdash vpt 1.12 mul add M
  hpt neg vpt -1.62 mul V
  hpt 2 mul 0 V
  hpt neg vpt 1.62 mul V closepath fill} def
/TriD {stroke [] 0 setdash 2 copy vpt 1.12 mul sub M
  hpt neg vpt 1.62 mul V
  hpt 2 mul 0 V
  hpt neg vpt -1.62 mul V closepath stroke
  Pnt} def
/TriDF {stroke [] 0 setdash vpt 1.12 mul sub M
  hpt neg vpt 1.62 mul V
  hpt 2 mul 0 V
  hpt neg vpt -1.62 mul V closepath fill} def
/DiaF {stroke [] 0 setdash vpt add M
  hpt neg vpt neg V hpt vpt neg V
  hpt vpt V hpt neg vpt V closepath fill} def
/Pent {stroke [] 0 setdash 2 copy gsave
  translate 0 hpt M 4 {72 rotate 0 hpt L} repeat
  closepath stroke grestore Pnt} def
/PentF {stroke [] 0 setdash gsave
  translate 0 hpt M 4 {72 rotate 0 hpt L} repeat
  closepath fill grestore} def
/Circle {stroke [] 0 setdash 2 copy
  hpt 0 360 arc stroke Pnt} def
/CircleF {stroke [] 0 setdash hpt 0 360 arc fill} def
/C0 {BL [] 0 setdash 2 copy moveto vpt 90 450 arc} bind def
/C1 {BL [] 0 setdash 2 copy moveto
	2 copy vpt 0 90 arc closepath fill
	vpt 0 360 arc closepath} bind def
/C2 {BL [] 0 setdash 2 copy moveto
	2 copy vpt 90 180 arc closepath fill
	vpt 0 360 arc closepath} bind def
/C3 {BL [] 0 setdash 2 copy moveto
	2 copy vpt 0 180 arc closepath fill
	vpt 0 360 arc closepath} bind def
/C4 {BL [] 0 setdash 2 copy moveto
	2 copy vpt 180 270 arc closepath fill
	vpt 0 360 arc closepath} bind def
/C5 {BL [] 0 setdash 2 copy moveto
	2 copy vpt 0 90 arc
	2 copy moveto
	2 copy vpt 180 270 arc closepath fill
	vpt 0 360 arc} bind def
/C6 {BL [] 0 setdash 2 copy moveto
	2 copy vpt 90 270 arc closepath fill
	vpt 0 360 arc closepath} bind def
/C7 {BL [] 0 setdash 2 copy moveto
	2 copy vpt 0 270 arc closepath fill
	vpt 0 360 arc closepath} bind def
/C8 {BL [] 0 setdash 2 copy moveto
	2 copy vpt 270 360 arc closepath fill
	vpt 0 360 arc closepath} bind def
/C9 {BL [] 0 setdash 2 copy moveto
	2 copy vpt 270 450 arc closepath fill
	vpt 0 360 arc closepath} bind def
/C10 {BL [] 0 setdash 2 copy 2 copy moveto vpt 270 360 arc closepath fill
	2 copy moveto
	2 copy vpt 90 180 arc closepath fill
	vpt 0 360 arc closepath} bind def
/C11 {BL [] 0 setdash 2 copy moveto
	2 copy vpt 0 180 arc closepath fill
	2 copy moveto
	2 copy vpt 270 360 arc closepath fill
	vpt 0 360 arc closepath} bind def
/C12 {BL [] 0 setdash 2 copy moveto
	2 copy vpt 180 360 arc closepath fill
	vpt 0 360 arc closepath} bind def
/C13 {BL [] 0 setdash 2 copy moveto
	2 copy vpt 0 90 arc closepath fill
	2 copy moveto
	2 copy vpt 180 360 arc closepath fill
	vpt 0 360 arc closepath} bind def
/C14 {BL [] 0 setdash 2 copy moveto
	2 copy vpt 90 360 arc closepath fill
	vpt 0 360 arc} bind def
/C15 {BL [] 0 setdash 2 copy vpt 0 360 arc closepath fill
	vpt 0 360 arc closepath} bind def
/Rec {newpath 4 2 roll moveto 1 index 0 rlineto 0 exch rlineto
	neg 0 rlineto closepath} bind def
/Square {dup Rec} bind def
/Bsquare {vpt sub exch vpt sub exch vpt2 Square} bind def
/S0 {BL [] 0 setdash 2 copy moveto 0 vpt rlineto BL Bsquare} bind def
/S1 {BL [] 0 setdash 2 copy vpt Square fill Bsquare} bind def
/S2 {BL [] 0 setdash 2 copy exch vpt sub exch vpt Square fill Bsquare} bind def
/S3 {BL [] 0 setdash 2 copy exch vpt sub exch vpt2 vpt Rec fill Bsquare} bind def
/S4 {BL [] 0 setdash 2 copy exch vpt sub exch vpt sub vpt Square fill Bsquare} bind def
/S5 {BL [] 0 setdash 2 copy 2 copy vpt Square fill
	exch vpt sub exch vpt sub vpt Square fill Bsquare} bind def
/S6 {BL [] 0 setdash 2 copy exch vpt sub exch vpt sub vpt vpt2 Rec fill Bsquare} bind def
/S7 {BL [] 0 setdash 2 copy exch vpt sub exch vpt sub vpt vpt2 Rec fill
	2 copy vpt Square fill Bsquare} bind def
/S8 {BL [] 0 setdash 2 copy vpt sub vpt Square fill Bsquare} bind def
/S9 {BL [] 0 setdash 2 copy vpt sub vpt vpt2 Rec fill Bsquare} bind def
/S10 {BL [] 0 setdash 2 copy vpt sub vpt Square fill 2 copy exch vpt sub exch vpt Square fill
	Bsquare} bind def
/S11 {BL [] 0 setdash 2 copy vpt sub vpt Square fill 2 copy exch vpt sub exch vpt2 vpt Rec fill
	Bsquare} bind def
/S12 {BL [] 0 setdash 2 copy exch vpt sub exch vpt sub vpt2 vpt Rec fill Bsquare} bind def
/S13 {BL [] 0 setdash 2 copy exch vpt sub exch vpt sub vpt2 vpt Rec fill
	2 copy vpt Square fill Bsquare} bind def
/S14 {BL [] 0 setdash 2 copy exch vpt sub exch vpt sub vpt2 vpt Rec fill
	2 copy exch vpt sub exch vpt Square fill Bsquare} bind def
/S15 {BL [] 0 setdash 2 copy Bsquare fill Bsquare} bind def
/D0 {gsave translate 45 rotate 0 0 S0 stroke grestore} bind def
/D1 {gsave translate 45 rotate 0 0 S1 stroke grestore} bind def
/D2 {gsave translate 45 rotate 0 0 S2 stroke grestore} bind def
/D3 {gsave translate 45 rotate 0 0 S3 stroke grestore} bind def
/D4 {gsave translate 45 rotate 0 0 S4 stroke grestore} bind def
/D5 {gsave translate 45 rotate 0 0 S5 stroke grestore} bind def
/D6 {gsave translate 45 rotate 0 0 S6 stroke grestore} bind def
/D7 {gsave translate 45 rotate 0 0 S7 stroke grestore} bind def
/D8 {gsave translate 45 rotate 0 0 S8 stroke grestore} bind def
/D9 {gsave translate 45 rotate 0 0 S9 stroke grestore} bind def
/D10 {gsave translate 45 rotate 0 0 S10 stroke grestore} bind def
/D11 {gsave translate 45 rotate 0 0 S11 stroke grestore} bind def
/D12 {gsave translate 45 rotate 0 0 S12 stroke grestore} bind def
/D13 {gsave translate 45 rotate 0 0 S13 stroke grestore} bind def
/D14 {gsave translate 45 rotate 0 0 S14 stroke grestore} bind def
/D15 {gsave translate 45 rotate 0 0 S15 stroke grestore} bind def
/DiaE {stroke [] 0 setdash vpt add M
  hpt neg vpt neg V hpt vpt neg V
  hpt vpt V hpt neg vpt V closepath stroke} def
/BoxE {stroke [] 0 setdash exch hpt sub exch vpt add M
  0 vpt2 neg V hpt2 0 V 0 vpt2 V
  hpt2 neg 0 V closepath stroke} def
/TriUE {stroke [] 0 setdash vpt 1.12 mul add M
  hpt neg vpt -1.62 mul V
  hpt 2 mul 0 V
  hpt neg vpt 1.62 mul V closepath stroke} def
/TriDE {stroke [] 0 setdash vpt 1.12 mul sub M
  hpt neg vpt 1.62 mul V
  hpt 2 mul 0 V
  hpt neg vpt -1.62 mul V closepath stroke} def
/PentE {stroke [] 0 setdash gsave
  translate 0 hpt M 4 {72 rotate 0 hpt L} repeat
  closepath stroke grestore} def
/CircE {stroke [] 0 setdash 
  hpt 0 360 arc stroke} def
/Opaque {gsave closepath 1 setgray fill grestore 0 setgray closepath} def
/DiaW {stroke [] 0 setdash vpt add M
  hpt neg vpt neg V hpt vpt neg V
  hpt vpt V hpt neg vpt V Opaque stroke} def
/BoxW {stroke [] 0 setdash exch hpt sub exch vpt add M
  0 vpt2 neg V hpt2 0 V 0 vpt2 V
  hpt2 neg 0 V Opaque stroke} def
/TriUW {stroke [] 0 setdash vpt 1.12 mul add M
  hpt neg vpt -1.62 mul V
  hpt 2 mul 0 V
  hpt neg vpt 1.62 mul V Opaque stroke} def
/TriDW {stroke [] 0 setdash vpt 1.12 mul sub M
  hpt neg vpt 1.62 mul V
  hpt 2 mul 0 V
  hpt neg vpt -1.62 mul V Opaque stroke} def
/PentW {stroke [] 0 setdash gsave
  translate 0 hpt M 4 {72 rotate 0 hpt L} repeat
  Opaque stroke grestore} def
/CircW {stroke [] 0 setdash 
  hpt 0 360 arc Opaque stroke} def
/BoxFill {gsave Rec 1 setgray fill grestore} def
/Density {
  /Fillden exch def
  currentrgbcolor
  /ColB exch def /ColG exch def /ColR exch def
  /ColR ColR Fillden mul Fillden sub 1 add def
  /ColG ColG Fillden mul Fillden sub 1 add def
  /ColB ColB Fillden mul Fillden sub 1 add def
  ColR ColG ColB setrgbcolor} def
/BoxColFill {gsave Rec PolyFill} def
/PolyFill {gsave Density fill grestore grestore} def
/h {rlineto rlineto rlineto gsave closepath fill grestore} bind def
%
% PostScript Level 1 Pattern Fill routine for rectangles
% Usage: x y w h s a XX PatternFill
%	x,y = lower left corner of box to be filled
%	w,h = width and height of box
%	  a = angle in degrees between lines and x-axis
%	 XX = 0/1 for no/yes cross-hatch
%
/PatternFill {gsave /PFa [ 9 2 roll ] def
  PFa 0 get PFa 2 get 2 div add PFa 1 get PFa 3 get 2 div add translate
  PFa 2 get -2 div PFa 3 get -2 div PFa 2 get PFa 3 get Rec
  TransparentPatterns {} {gsave 1 setgray fill grestore} ifelse
  clip
  currentlinewidth 0.5 mul setlinewidth
  /PFs PFa 2 get dup mul PFa 3 get dup mul add sqrt def
  0 0 M PFa 5 get rotate PFs -2 div dup translate
  0 1 PFs PFa 4 get div 1 add floor cvi
	{PFa 4 get mul 0 M 0 PFs V} for
  0 PFa 6 get ne {
	0 1 PFs PFa 4 get div 1 add floor cvi
	{PFa 4 get mul 0 2 1 roll M PFs 0 V} for
 } if
  stroke grestore} def
%
/languagelevel where
 {pop languagelevel} {1} ifelse
 2 lt
	{/InterpretLevel1 true def}
	{/InterpretLevel1 Level1 def}
 ifelse
%
% PostScript level 2 pattern fill definitions
%
/Level2PatternFill {
/Tile8x8 {/PaintType 2 /PatternType 1 /TilingType 1 /BBox [0 0 8 8] /XStep 8 /YStep 8}
	bind def
/KeepColor {currentrgbcolor [/Pattern /DeviceRGB] setcolorspace} bind def
<< Tile8x8
 /PaintProc {0.5 setlinewidth pop 0 0 M 8 8 L 0 8 M 8 0 L stroke} 
>> matrix makepattern
/Pat1 exch def
<< Tile8x8
 /PaintProc {0.5 setlinewidth pop 0 0 M 8 8 L 0 8 M 8 0 L stroke
	0 4 M 4 8 L 8 4 L 4 0 L 0 4 L stroke}
>> matrix makepattern
/Pat2 exch def
<< Tile8x8
 /PaintProc {0.5 setlinewidth pop 0 0 M 0 8 L
	8 8 L 8 0 L 0 0 L fill}
>> matrix makepattern
/Pat3 exch def
<< Tile8x8
 /PaintProc {0.5 setlinewidth pop -4 8 M 8 -4 L
	0 12 M 12 0 L stroke}
>> matrix makepattern
/Pat4 exch def
<< Tile8x8
 /PaintProc {0.5 setlinewidth pop -4 0 M 8 12 L
	0 -4 M 12 8 L stroke}
>> matrix makepattern
/Pat5 exch def
<< Tile8x8
 /PaintProc {0.5 setlinewidth pop -2 8 M 4 -4 L
	0 12 M 8 -4 L 4 12 M 10 0 L stroke}
>> matrix makepattern
/Pat6 exch def
<< Tile8x8
 /PaintProc {0.5 setlinewidth pop -2 0 M 4 12 L
	0 -4 M 8 12 L 4 -4 M 10 8 L stroke}
>> matrix makepattern
/Pat7 exch def
<< Tile8x8
 /PaintProc {0.5 setlinewidth pop 8 -2 M -4 4 L
	12 0 M -4 8 L 12 4 M 0 10 L stroke}
>> matrix makepattern
/Pat8 exch def
<< Tile8x8
 /PaintProc {0.5 setlinewidth pop 0 -2 M 12 4 L
	-4 0 M 12 8 L -4 4 M 8 10 L stroke}
>> matrix makepattern
/Pat9 exch def
/Pattern1 {PatternBgnd KeepColor Pat1 setpattern} bind def
/Pattern2 {PatternBgnd KeepColor Pat2 setpattern} bind def
/Pattern3 {PatternBgnd KeepColor Pat3 setpattern} bind def
/Pattern4 {PatternBgnd KeepColor Landscape {Pat5} {Pat4} ifelse setpattern} bind def
/Pattern5 {PatternBgnd KeepColor Landscape {Pat4} {Pat5} ifelse setpattern} bind def
/Pattern6 {PatternBgnd KeepColor Landscape {Pat9} {Pat6} ifelse setpattern} bind def
/Pattern7 {PatternBgnd KeepColor Landscape {Pat8} {Pat7} ifelse setpattern} bind def
} def
%
%
%End of PostScript Level 2 code
%
/PatternBgnd {
  TransparentPatterns {} {gsave 1 setgray fill grestore} ifelse
} def
%
% Substitute for Level 2 pattern fill codes with
% grayscale if Level 2 support is not selected.
%
/Level1PatternFill {
/Pattern1 {0.250 Density} bind def
/Pattern2 {0.500 Density} bind def
/Pattern3 {0.750 Density} bind def
/Pattern4 {0.125 Density} bind def
/Pattern5 {0.375 Density} bind def
/Pattern6 {0.625 Density} bind def
/Pattern7 {0.875 Density} bind def
} def
%
% Now test for support of Level 2 code
%
Level1 {Level1PatternFill} {Level2PatternFill} ifelse
%
/Symbol-Oblique /Symbol findfont [1 0 .167 1 0 0] makefont
dup length dict begin {1 index /FID eq {pop pop} {def} ifelse} forall
currentdict end definefont pop
Level1 SuppressPDFMark or 
{} {
/SDict 10 dict def
systemdict /pdfmark known not {
  userdict /pdfmark systemdict /cleartomark get put
} if
SDict begin [
  /Title (graph_raw_01.eps)
  /Subject (gnuplot plot)
  /Creator (gnuplot 4.6 patchlevel 3)
  /Author (s-tomoki)
%  /Producer (gnuplot)
%  /Keywords ()
  /CreationDate (Mon Jun  2 15:01:05 2014)
  /DOCINFO pdfmark
end
} ifelse
end
%%EndProlog
%%Page: 1 1
gnudict begin
gsave
doclip
50 50 translate
0.050 0.050 scale
0 setgray
newpath
(Helvetica) findfont 140 scalefont setfont
BackgroundColor 0 lt 3 1 roll 0 lt exch 0 lt or or not {BackgroundColor C 1.000 0 0 3600.00 2520.00 BoxColFill} if
1.000 UL
LTb
602 448 M
63 0 V
2682 0 R
-63 0 V
518 448 M
( 0) Rshow
1.000 UL
LTb
602 829 M
63 0 V
2682 0 R
-63 0 V
518 829 M
( 10) Rshow
1.000 UL
LTb
602 1210 M
63 0 V
2682 0 R
-63 0 V
-2766 0 R
( 20) Rshow
1.000 UL
LTb
602 1590 M
63 0 V
2682 0 R
-63 0 V
-2766 0 R
( 30) Rshow
1.000 UL
LTb
602 1971 M
63 0 V
2682 0 R
-63 0 V
-2766 0 R
( 40) Rshow
1.000 UL
LTb
602 2352 M
63 0 V
2682 0 R
-63 0 V
-2766 0 R
( 50) Rshow
1.000 UL
LTb
602 448 M
0 63 V
0 1841 R
0 -63 V
602 308 M
( 1) Cshow
1.000 UL
LTb
877 448 M
0 31 V
0 1873 R
0 -31 V
1151 448 M
0 63 V
0 1841 R
0 -63 V
0 -1981 R
( 4) Cshow
1.000 UL
LTb
1426 448 M
0 31 V
0 1873 R
0 -31 V
1700 448 M
0 63 V
0 1841 R
0 -63 V
0 -1981 R
( 16) Cshow
1.000 UL
LTb
1975 448 M
0 31 V
0 1873 R
0 -31 V
2249 448 M
0 63 V
0 1841 R
0 -63 V
0 -1981 R
( 64) Cshow
1.000 UL
LTb
2524 448 M
0 31 V
0 1873 R
0 -31 V
2798 448 M
0 63 V
0 1841 R
0 -63 V
0 -1981 R
( 256) Cshow
1.000 UL
LTb
3073 448 M
0 31 V
0 1873 R
0 -31 V
3347 448 M
0 63 V
0 1841 R
0 -63 V
0 -1981 R
( 1024) Cshow
1.000 UL
LTb
1.000 UL
LTb
602 2352 N
602 448 L
2745 0 V
0 1904 V
-2745 0 V
Z stroke
LCb setrgbcolor
112 1400 M
currentpoint gsave translate -270 rotate 0 0 M
(Frequecy of occurrence [%]) Cshow
grestore
LTb
LCb setrgbcolor
1974 98 M
(Run length) Cshow
LTb
1.000 UP
1.000 UL
LTb
% Begin plot #1
1.000 UP
1.000 UL
LT0
LCb setrgbcolor
2696 2219 M
(raw_0) Rshow
LT0
2780 2219 M
399 0 V
602 1084 M
877 957 L
1037 842 L
1151 717 L
88 7 V
73 -81 V
61 -8 V
53 -144 V
46 141 V
42 -53 V
38 -106 V
34 24 V
32 -24 V
29 -5 V
27 55 V
26 -59 V
24 117 V
23 22 V
21 -131 V
20 56 V
20 -35 V
18 -18 V
18 16 V
17 -32 V
16 9 V
15 36 V
15 -40 V
15 9 V
14 -17 V
13 8 V
13 -12 V
13 -3 V
12 -1 V
12 0 V
11 0 V
11 0 V
11 0 V
11 0 V
10 0 V
10 0 V
10 0 V
9 0 V
10 0 V
9 0 V
9 0 V
8 0 V
9 0 V
8 0 V
8 0 V
8 0 V
8 0 V
8 0 V
7 0 V
8 0 V
7 0 V
7 0 V
7 0 V
7 0 V
7 0 V
6 0 V
7 0 V
6 0 V
7 0 V
6 0 V
6 0 V
6 0 V
6 0 V
6 0 V
6 0 V
5 0 V
6 0 V
6 0 V
5 0 V
5 0 V
6 0 V
5 0 V
5 0 V
5 0 V
5 0 V
5 0 V
5 0 V
5 0 V
5 0 V
5 0 V
4 0 V
5 0 V
5 0 V
4 0 V
5 0 V
4 0 V
4 0 V
5 0 V
4 0 V
4 0 V
4 0 V
5 0 V
4 0 V
4 0 V
4 0 V
4 0 V
4 0 V
4 3 V
3 -2 V
4 -1 V
4 1 V
4 0 V
4 -1 V
3 0 V
stroke 2456 448 M
4 0 V
3 0 V
4 0 V
4 0 V
3 0 V
4 0 V
3 0 V
4 0 V
3 0 V
3 0 V
4 0 V
3 49 V
3 -44 V
3 -5 V
4 0 V
3 0 V
3 0 V
3 0 V
3 0 V
4 0 V
3 0 V
3 0 V
3 0 V
3 0 V
3 0 V
3 0 V
3 0 V
3 0 V
2 2 V
3 -2 V
3 2 V
3 -2 V
3 1 V
3 -1 V
2 0 V
3 0 V
3 0 V
3 0 V
2 0 V
3 0 V
3 0 V
2 0 V
3 0 V
3 0 V
2 0 V
3 0 V
2 0 V
3 0 V
2 0 V
3 0 V
2 0 V
3 0 V
2 0 V
3 0 V
2 0 V
3 0 V
2 0 V
2 0 V
3 0 V
2 0 V
3 0 V
2 0 V
2 0 V
3 0 V
2 0 V
2 0 V
2 0 V
3 0 V
2 0 V
2 0 V
2 0 V
3 0 V
2 0 V
2 0 V
2 0 V
2 0 V
2 0 V
2 0 V
3 0 V
2 0 V
2 0 V
2 0 V
2 0 V
2 0 V
2 0 V
2 0 V
2 0 V
2 0 V
2 0 V
2 0 V
2 0 V
2 0 V
2 0 V
2 0 V
2 0 V
2 33 V
2 -33 V
2 0 V
2 0 V
2 0 V
2 0 V
2 8 V
1 -7 V
2 -1 V
stroke 2723 448 M
2 0 V
2 0 V
2 0 V
2 0 V
2 0 V
1 0 V
2 0 V
2 0 V
2 0 V
2 0 V
1 0 V
2 0 V
2 0 V
2 0 V
1 0 V
2 0 V
2 0 V
2 0 V
1 0 V
2 0 V
2 0 V
1 0 V
2 0 V
2 0 V
1 0 V
2 0 V
2 0 V
1 0 V
2 0 V
2 0 V
1 0 V
2 0 V
2 0 V
1 0 V
2 0 V
1 0 V
2 0 V
2 0 V
1 0 V
2 0 V
1 0 V
2 0 V
1 0 V
2 0 V
2 0 V
1 0 V
2 0 V
1 0 V
2 0 V
1 0 V
2 0 V
1 0 V
2 0 V
1 0 V
2 0 V
1 0 V
2 0 V
1 0 V
2 0 V
1 0 V
1 0 V
2 0 V
1 0 V
2 0 V
1 0 V
2 0 V
1 0 V
1 0 V
2 0 V
1 0 V
2 0 V
1 0 V
1 0 V
2 0 V
1 0 V
2 0 V
1 0 V
1 0 V
2 0 V
1 0 V
1 0 V
2 0 V
1 0 V
1 0 V
2 0 V
1 0 V
1 0 V
2 0 V
1 0 V
1 0 V
2 0 V
1 0 V
1 0 V
2 0 V
1 0 V
1 0 V
2 0 V
1 0 V
1 0 V
1 0 V
2 0 V
1 0 V
1 0 V
1 0 V
stroke 2881 448 M
2 0 V
1 0 V
1 0 V
1 0 V
2 0 V
1 0 V
1 0 V
1 0 V
2 0 V
1 0 V
1 0 V
1 0 V
1 0 V
2 0 V
1 0 V
1 0 V
1 0 V
1 0 V
2 0 V
1 0 V
1 0 V
1 0 V
1 0 V
1 0 V
2 0 V
1 0 V
1 0 V
1 0 V
1 0 V
1 0 V
1 0 V
2 0 V
1 0 V
1 0 V
1 0 V
1 0 V
1 0 V
1 0 V
1 0 V
2 0 V
1 0 V
1 0 V
1 0 V
1 0 V
1 0 V
1 0 V
1 0 V
1 0 V
1 0 V
2 0 V
1 0 V
1 0 V
1 0 V
1 0 V
1 0 V
1 0 V
1 0 V
1 0 V
1 0 V
1 0 V
1 0 V
1 0 V
1 0 V
1 0 V
1 0 V
2 0 V
1 0 V
1 0 V
1 0 V
1 0 V
1 0 V
1 0 V
1 0 V
1 0 V
1 0 V
1 0 V
1 0 V
1 0 V
1 0 V
1 0 V
1 0 V
1 0 V
1 0 V
1 0 V
1 0 V
1 0 V
1 0 V
1 0 V
1 0 V
1 0 V
1 0 V
1 0 V
1 0 V
1 0 V
1 0 V
1 0 V
1 0 V
1 0 V
1 0 V
1 0 V
1 0 V
1 0 V
1 0 V
1 0 V
stroke 2995 448 M
1 0 V
1 0 V
1 0 V
1 0 V
1 0 V
1 0 V
1 0 V
1 0 V
1 0 V
1 0 V
1 0 V
1 0 V
1 0 V
1 0 V
1 0 V
1 0 V
1 0 V
1 0 V
1 0 V
1 0 V
1 0 V
1 0 V
1 0 V
1 0 V
1 0 V
1 0 V
1 0 V
1 0 V
1 0 V
1 0 V
1 0 V
1 0 V
1 0 V
1 0 V
1 0 V
1 0 V
1 0 V
1 0 V
1 0 V
1 0 V
1 0 V
1 0 V
1 0 V
1 0 V
1 0 V
1 0 V
1 0 V
1 0 V
1 0 V
1 0 V
1 0 V
1 0 V
1 0 V
1 0 V
1 0 V
1 0 V
1 0 V
1 0 V
1 0 V
1 0 V
1 0 V
1 0 V
1 0 V
1 0 V
1 0 V
1 0 V
1 0 V
1 0 V
1 0 V
1 0 V
1 0 V
1 0 V
1 0 V
1 0 V
1 0 V
1 0 V
1 0 V
1 0 V
1 0 V
1 0 V
1 0 V
1 0 V
1 0 V
1 0 V
1 0 V
1 0 V
1 0 V
1 0 V
1 0 V
1 0 V
1 0 V
1 0 V
1 0 V
1 0 V
1 0 V
1 0 V
1 0 V
1 0 V
1 0 V
1 0 V
1 0 V
1 0 V
1 0 V
1 0 V
stroke 3099 448 M
1 0 V
1 0 V
1 0 V
1 0 V
1 0 V
1 0 V
1 0 V
1 0 V
1 0 V
1 0 V
1 0 V
1 0 V
1 0 V
1 0 V
1 0 V
1 0 V
1 0 V
1 0 V
1 0 V
1 0 V
1 0 V
1 0 V
1 0 V
1 0 V
1 0 V
1 0 V
1 0 V
1 0 V
1 0 V
1 0 V
1 0 V
1 0 V
1 0 V
1 0 V
1 0 V
1 0 V
1 0 V
1 0 V
1 0 V
1 0 V
1 0 V
1 0 V
1 0 V
1 0 V
1 0 V
1 0 V
1 0 V
1 0 V
1 0 V
1 0 V
1 0 V
1 0 V
1 0 V
1 0 V
1 0 V
1 0 V
1 0 V
1 0 V
1 0 V
1 0 V
1 0 V
1 0 V
1 0 V
1 0 V
1 0 V
1 0 V
1 0 V
1 0 V
1 0 V
1 0 V
1 0 V
1 0 V
1 0 V
1 0 V
1 0 V
1 0 V
1 0 V
1 0 V
1 0 V
1 0 V
1 0 V
1 0 V
1 0 V
1 0 V
1 0 V
1 0 V
1 0 V
1 0 V
1 0 V
1 0 V
1 0 V
1 0 V
1 0 V
1 0 V
1 0 V
1 0 V
1 0 V
1 0 V
1 0 V
1 0 V
1 0 V
1 0 V
1 0 V
1 0 V
stroke 3203 448 M
1 0 V
1 0 V
1 0 V
1 0 V
1 0 V
1 0 V
1 0 V
1 0 V
1 0 V
1 0 V
1 0 V
1 0 V
1 0 V
1 0 V
1 0 V
1 0 V
1 0 V
1 0 V
1 0 V
1 0 V
1 0 V
1 0 V
1 0 V
1 0 V
1 0 V
1 0 V
1 0 V
1 0 V
1 0 V
1 0 V
1 0 V
1 0 V
1 0 V
1 0 V
1 0 V
1 0 V
1 0 V
1 0 V
1 0 V
1 0 V
1 0 V
1 0 V
1 0 V
1 0 V
1 0 V
1 0 V
1 0 V
1 0 V
1 0 V
1 0 V
1 0 V
1 0 V
1 0 V
1 0 V
1 0 V
1 0 V
1 0 V
1 0 V
1 0 V
1 0 V
1 0 V
1 0 V
1 0 V
1 0 V
1 0 V
1 0 V
1 0 V
1 0 V
1 0 V
1 0 V
1 0 V
1 0 V
1 0 V
1 0 V
1 0 V
1 0 V
1 0 V
1 0 V
1 0 V
1 0 V
1 0 V
1 0 V
1 0 V
1 0 V
1 0 V
1 0 V
1 0 V
1 0 V
1 0 V
1 0 V
1 0 V
1 0 V
1 0 V
1 0 V
1 0 V
1 0 V
1 0 V
1 0 V
1 0 V
1 0 V
1 0 V
1 0 V
1 0 V
1 0 V
stroke 3307 448 M
1 0 V
1 0 V
1 0 V
1 0 V
1 0 V
1 0 V
1 0 V
1 0 V
1 0 V
1 0 V
1 0 V
1 0 V
1 0 V
1 0 V
1 0 V
1 0 V
1 0 V
1 0 V
1 0 V
1 0 V
1 0 V
1 0 V
1 0 V
1 0 V
1 0 V
1 0 V
1 0 V
1 0 V
1 0 V
1 0 V
1 0 V
1 0 V
1 0 V
1 0 V
1 0 V
1 0 V
1 0 V
1 0 V
1 0 V
1 0 V
602 1084 Pls
877 957 Pls
1037 842 Pls
1151 717 Pls
1239 724 Pls
1312 643 Pls
1373 635 Pls
1426 491 Pls
1472 632 Pls
1514 579 Pls
1552 473 Pls
1586 497 Pls
1618 473 Pls
1647 468 Pls
1674 523 Pls
1700 464 Pls
1724 581 Pls
1747 603 Pls
1768 472 Pls
1788 528 Pls
1808 493 Pls
1826 475 Pls
1844 491 Pls
1861 459 Pls
1877 468 Pls
1892 504 Pls
1907 464 Pls
1922 473 Pls
1936 456 Pls
1949 464 Pls
1962 452 Pls
1975 449 Pls
1987 448 Pls
1999 448 Pls
2010 448 Pls
2021 448 Pls
2032 448 Pls
2043 448 Pls
2053 448 Pls
2063 448 Pls
2073 448 Pls
2082 448 Pls
2092 448 Pls
2101 448 Pls
2110 448 Pls
2118 448 Pls
2127 448 Pls
2135 448 Pls
2143 448 Pls
2151 448 Pls
2159 448 Pls
2167 448 Pls
2174 448 Pls
2182 448 Pls
2189 448 Pls
2196 448 Pls
2203 448 Pls
2210 448 Pls
2217 448 Pls
2223 448 Pls
2230 448 Pls
2236 448 Pls
2243 448 Pls
2249 448 Pls
2255 448 Pls
2261 448 Pls
2267 448 Pls
2273 448 Pls
2279 448 Pls
2284 448 Pls
2290 448 Pls
2296 448 Pls
2301 448 Pls
2306 448 Pls
2312 448 Pls
2317 448 Pls
2322 448 Pls
2327 448 Pls
2332 448 Pls
2337 448 Pls
2342 448 Pls
2347 448 Pls
2352 448 Pls
2357 448 Pls
2361 448 Pls
2366 448 Pls
2371 448 Pls
2375 448 Pls
2380 448 Pls
2384 448 Pls
2388 448 Pls
2393 448 Pls
2397 448 Pls
2401 448 Pls
2405 448 Pls
2410 448 Pls
2414 448 Pls
2418 448 Pls
2422 448 Pls
2426 448 Pls
2430 448 Pls
2434 451 Pls
2437 449 Pls
2441 448 Pls
2445 449 Pls
2449 449 Pls
2453 448 Pls
2456 448 Pls
2460 448 Pls
2463 448 Pls
2467 448 Pls
2471 448 Pls
2474 448 Pls
2478 448 Pls
2481 448 Pls
2485 448 Pls
2488 448 Pls
2491 448 Pls
2495 448 Pls
2498 497 Pls
2501 453 Pls
2504 448 Pls
2508 448 Pls
2511 448 Pls
2514 448 Pls
2517 448 Pls
2520 448 Pls
2524 448 Pls
2527 448 Pls
2530 448 Pls
2533 448 Pls
2536 448 Pls
2539 448 Pls
2542 448 Pls
2545 448 Pls
2548 448 Pls
2550 450 Pls
2553 448 Pls
2556 450 Pls
2559 448 Pls
2562 449 Pls
2565 448 Pls
2567 448 Pls
2570 448 Pls
2573 448 Pls
2576 448 Pls
2578 448 Pls
2581 448 Pls
2584 448 Pls
2586 448 Pls
2589 448 Pls
2592 448 Pls
2594 448 Pls
2597 448 Pls
2599 448 Pls
2602 448 Pls
2604 448 Pls
2607 448 Pls
2609 448 Pls
2612 448 Pls
2614 448 Pls
2617 448 Pls
2619 448 Pls
2622 448 Pls
2624 448 Pls
2626 448 Pls
2629 448 Pls
2631 448 Pls
2634 448 Pls
2636 448 Pls
2638 448 Pls
2641 448 Pls
2643 448 Pls
2645 448 Pls
2647 448 Pls
2650 448 Pls
2652 448 Pls
2654 448 Pls
2656 448 Pls
2659 448 Pls
2661 448 Pls
2663 448 Pls
2665 448 Pls
2667 448 Pls
2669 448 Pls
2671 448 Pls
2674 448 Pls
2676 448 Pls
2678 448 Pls
2680 448 Pls
2682 448 Pls
2684 448 Pls
2686 448 Pls
2688 448 Pls
2690 448 Pls
2692 448 Pls
2694 448 Pls
2696 448 Pls
2698 448 Pls
2700 448 Pls
2702 448 Pls
2704 448 Pls
2706 448 Pls
2708 481 Pls
2710 448 Pls
2712 448 Pls
2714 448 Pls
2716 448 Pls
2718 448 Pls
2720 456 Pls
2721 449 Pls
2723 448 Pls
2725 448 Pls
2727 448 Pls
2729 448 Pls
2731 448 Pls
2733 448 Pls
2734 448 Pls
2736 448 Pls
2738 448 Pls
2740 448 Pls
2742 448 Pls
2743 448 Pls
2745 448 Pls
2747 448 Pls
2749 448 Pls
2750 448 Pls
2752 448 Pls
2754 448 Pls
2756 448 Pls
2757 448 Pls
2759 448 Pls
2761 448 Pls
2762 448 Pls
2764 448 Pls
2766 448 Pls
2767 448 Pls
2769 448 Pls
2771 448 Pls
2772 448 Pls
2774 448 Pls
2776 448 Pls
2777 448 Pls
2779 448 Pls
2781 448 Pls
2782 448 Pls
2784 448 Pls
2785 448 Pls
2787 448 Pls
2789 448 Pls
2790 448 Pls
2792 448 Pls
2793 448 Pls
2795 448 Pls
2796 448 Pls
2798 448 Pls
2800 448 Pls
2801 448 Pls
2803 448 Pls
2804 448 Pls
2806 448 Pls
2807 448 Pls
2809 448 Pls
2810 448 Pls
2812 448 Pls
2813 448 Pls
2815 448 Pls
2816 448 Pls
2818 448 Pls
2819 448 Pls
2821 448 Pls
2822 448 Pls
2823 448 Pls
2825 448 Pls
2826 448 Pls
2828 448 Pls
2829 448 Pls
2831 448 Pls
2832 448 Pls
2833 448 Pls
2835 448 Pls
2836 448 Pls
2838 448 Pls
2839 448 Pls
2840 448 Pls
2842 448 Pls
2843 448 Pls
2845 448 Pls
2846 448 Pls
2847 448 Pls
2849 448 Pls
2850 448 Pls
2851 448 Pls
2853 448 Pls
2854 448 Pls
2855 448 Pls
2857 448 Pls
2858 448 Pls
2859 448 Pls
2861 448 Pls
2862 448 Pls
2863 448 Pls
2865 448 Pls
2866 448 Pls
2867 448 Pls
2869 448 Pls
2870 448 Pls
2871 448 Pls
2873 448 Pls
2874 448 Pls
2875 448 Pls
2876 448 Pls
2878 448 Pls
2879 448 Pls
2880 448 Pls
2881 448 Pls
2883 448 Pls
2884 448 Pls
2885 448 Pls
2886 448 Pls
2888 448 Pls
2889 448 Pls
2890 448 Pls
2891 448 Pls
2893 448 Pls
2894 448 Pls
2895 448 Pls
2896 448 Pls
2897 448 Pls
2899 448 Pls
2900 448 Pls
2901 448 Pls
2902 448 Pls
2903 448 Pls
2905 448 Pls
2906 448 Pls
2907 448 Pls
2908 448 Pls
2909 448 Pls
2910 448 Pls
2912 448 Pls
2913 448 Pls
2914 448 Pls
2915 448 Pls
2916 448 Pls
2917 448 Pls
2918 448 Pls
2920 448 Pls
2921 448 Pls
2922 448 Pls
2923 448 Pls
2924 448 Pls
2925 448 Pls
2926 448 Pls
2927 448 Pls
2929 448 Pls
2930 448 Pls
2931 448 Pls
2932 448 Pls
2933 448 Pls
2934 448 Pls
2935 448 Pls
2936 448 Pls
2937 448 Pls
2938 448 Pls
2940 448 Pls
2941 448 Pls
2942 448 Pls
2943 448 Pls
2944 448 Pls
2945 448 Pls
2946 448 Pls
2947 448 Pls
2948 448 Pls
2949 448 Pls
2950 448 Pls
2951 448 Pls
2952 448 Pls
2953 448 Pls
2954 448 Pls
2955 448 Pls
2957 448 Pls
2958 448 Pls
2959 448 Pls
2960 448 Pls
2961 448 Pls
2962 448 Pls
2963 448 Pls
2964 448 Pls
2965 448 Pls
2966 448 Pls
2967 448 Pls
2968 448 Pls
2969 448 Pls
2970 448 Pls
2971 448 Pls
2972 448 Pls
2973 448 Pls
2974 448 Pls
2975 448 Pls
2976 448 Pls
2977 448 Pls
2978 448 Pls
2979 448 Pls
2980 448 Pls
2981 448 Pls
2982 448 Pls
2983 448 Pls
2984 448 Pls
2985 448 Pls
2985 448 Pls
2986 448 Pls
2987 448 Pls
2988 448 Pls
2989 448 Pls
2990 448 Pls
2991 448 Pls
2992 448 Pls
2993 448 Pls
2994 448 Pls
2995 448 Pls
2996 448 Pls
2997 448 Pls
2998 448 Pls
2999 448 Pls
3000 448 Pls
3001 448 Pls
3002 448 Pls
3002 448 Pls
3003 448 Pls
3004 448 Pls
3005 448 Pls
3006 448 Pls
3007 448 Pls
3008 448 Pls
3009 448 Pls
3010 448 Pls
3011 448 Pls
3012 448 Pls
3012 448 Pls
3013 448 Pls
3014 448 Pls
3015 448 Pls
3016 448 Pls
3017 448 Pls
3018 448 Pls
3019 448 Pls
3020 448 Pls
3021 448 Pls
3021 448 Pls
3022 448 Pls
3023 448 Pls
3024 448 Pls
3025 448 Pls
3026 448 Pls
3027 448 Pls
3027 448 Pls
3028 448 Pls
3029 448 Pls
3030 448 Pls
3031 448 Pls
3032 448 Pls
3033 448 Pls
3034 448 Pls
3034 448 Pls
3035 448 Pls
3036 448 Pls
3037 448 Pls
3038 448 Pls
3039 448 Pls
3039 448 Pls
3040 448 Pls
3041 448 Pls
3042 448 Pls
3043 448 Pls
3044 448 Pls
3044 448 Pls
3045 448 Pls
3046 448 Pls
3047 448 Pls
3048 448 Pls
3049 448 Pls
3049 448 Pls
3050 448 Pls
3051 448 Pls
3052 448 Pls
3053 448 Pls
3053 448 Pls
3054 448 Pls
3055 448 Pls
3056 448 Pls
3057 448 Pls
3058 448 Pls
3058 448 Pls
3059 448 Pls
3060 448 Pls
3061 448 Pls
3062 448 Pls
3062 448 Pls
3063 448 Pls
3064 448 Pls
3065 448 Pls
3065 448 Pls
3066 448 Pls
3067 448 Pls
3068 448 Pls
3069 448 Pls
3069 448 Pls
3070 448 Pls
3071 448 Pls
3072 448 Pls
3073 448 Pls
3073 448 Pls
3074 448 Pls
3075 448 Pls
3076 448 Pls
3076 448 Pls
3077 448 Pls
3078 448 Pls
3079 448 Pls
3079 448 Pls
3080 448 Pls
3081 448 Pls
3082 448 Pls
3082 448 Pls
3083 448 Pls
3084 448 Pls
3085 448 Pls
3085 448 Pls
3086 448 Pls
3087 448 Pls
3088 448 Pls
3088 448 Pls
3089 448 Pls
3090 448 Pls
3091 448 Pls
3091 448 Pls
3092 448 Pls
3093 448 Pls
3094 448 Pls
3094 448 Pls
3095 448 Pls
3096 448 Pls
3097 448 Pls
3097 448 Pls
3098 448 Pls
3099 448 Pls
3099 448 Pls
3100 448 Pls
3101 448 Pls
3102 448 Pls
3102 448 Pls
3103 448 Pls
3104 448 Pls
3104 448 Pls
3105 448 Pls
3106 448 Pls
3107 448 Pls
3107 448 Pls
3108 448 Pls
3109 448 Pls
3109 448 Pls
3110 448 Pls
3111 448 Pls
3112 448 Pls
3112 448 Pls
3113 448 Pls
3114 448 Pls
3114 448 Pls
3115 448 Pls
3116 448 Pls
3116 448 Pls
3117 448 Pls
3118 448 Pls
3118 448 Pls
3119 448 Pls
3120 448 Pls
3121 448 Pls
3121 448 Pls
3122 448 Pls
3123 448 Pls
3123 448 Pls
3124 448 Pls
3125 448 Pls
3125 448 Pls
3126 448 Pls
3127 448 Pls
3127 448 Pls
3128 448 Pls
3129 448 Pls
3129 448 Pls
3130 448 Pls
3131 448 Pls
3131 448 Pls
3132 448 Pls
3133 448 Pls
3133 448 Pls
3134 448 Pls
3135 448 Pls
3135 448 Pls
3136 448 Pls
3137 448 Pls
3137 448 Pls
3138 448 Pls
3139 448 Pls
3139 448 Pls
3140 448 Pls
3141 448 Pls
3141 448 Pls
3142 448 Pls
3143 448 Pls
3143 448 Pls
3144 448 Pls
3144 448 Pls
3145 448 Pls
3146 448 Pls
3146 448 Pls
3147 448 Pls
3148 448 Pls
3148 448 Pls
3149 448 Pls
3150 448 Pls
3150 448 Pls
3151 448 Pls
3151 448 Pls
3152 448 Pls
3153 448 Pls
3153 448 Pls
3154 448 Pls
3155 448 Pls
3155 448 Pls
3156 448 Pls
3157 448 Pls
3157 448 Pls
3158 448 Pls
3158 448 Pls
3159 448 Pls
3160 448 Pls
3160 448 Pls
3161 448 Pls
3161 448 Pls
3162 448 Pls
3163 448 Pls
3163 448 Pls
3164 448 Pls
3165 448 Pls
3165 448 Pls
3166 448 Pls
3166 448 Pls
3167 448 Pls
3168 448 Pls
3168 448 Pls
3169 448 Pls
3169 448 Pls
3170 448 Pls
3171 448 Pls
3171 448 Pls
3172 448 Pls
3172 448 Pls
3173 448 Pls
3174 448 Pls
3174 448 Pls
3175 448 Pls
3175 448 Pls
3176 448 Pls
3177 448 Pls
3177 448 Pls
3178 448 Pls
3178 448 Pls
3179 448 Pls
3180 448 Pls
3180 448 Pls
3181 448 Pls
3181 448 Pls
3182 448 Pls
3183 448 Pls
3183 448 Pls
3184 448 Pls
3184 448 Pls
3185 448 Pls
3185 448 Pls
3186 448 Pls
3187 448 Pls
3187 448 Pls
3188 448 Pls
3188 448 Pls
3189 448 Pls
3190 448 Pls
3190 448 Pls
3191 448 Pls
3191 448 Pls
3192 448 Pls
3192 448 Pls
3193 448 Pls
3194 448 Pls
3194 448 Pls
3195 448 Pls
3195 448 Pls
3196 448 Pls
3196 448 Pls
3197 448 Pls
3197 448 Pls
3198 448 Pls
3199 448 Pls
3199 448 Pls
3200 448 Pls
3200 448 Pls
3201 448 Pls
3201 448 Pls
3202 448 Pls
3203 448 Pls
3203 448 Pls
3204 448 Pls
3204 448 Pls
3205 448 Pls
3205 448 Pls
3206 448 Pls
3206 448 Pls
3207 448 Pls
3208 448 Pls
3208 448 Pls
3209 448 Pls
3209 448 Pls
3210 448 Pls
3210 448 Pls
3211 448 Pls
3211 448 Pls
3212 448 Pls
3212 448 Pls
3213 448 Pls
3214 448 Pls
3214 448 Pls
3215 448 Pls
3215 448 Pls
3216 448 Pls
3216 448 Pls
3217 448 Pls
3217 448 Pls
3218 448 Pls
3218 448 Pls
3219 448 Pls
3219 448 Pls
3220 448 Pls
3220 448 Pls
3221 448 Pls
3222 448 Pls
3222 448 Pls
3223 448 Pls
3223 448 Pls
3224 448 Pls
3224 448 Pls
3225 448 Pls
3225 448 Pls
3226 448 Pls
3226 448 Pls
3227 448 Pls
3227 448 Pls
3228 448 Pls
3228 448 Pls
3229 448 Pls
3229 448 Pls
3230 448 Pls
3230 448 Pls
3231 448 Pls
3232 448 Pls
3232 448 Pls
3233 448 Pls
3233 448 Pls
3234 448 Pls
3234 448 Pls
3235 448 Pls
3235 448 Pls
3236 448 Pls
3236 448 Pls
3237 448 Pls
3237 448 Pls
3238 448 Pls
3238 448 Pls
3239 448 Pls
3239 448 Pls
3240 448 Pls
3240 448 Pls
3241 448 Pls
3241 448 Pls
3242 448 Pls
3242 448 Pls
3243 448 Pls
3243 448 Pls
3244 448 Pls
3244 448 Pls
3245 448 Pls
3245 448 Pls
3246 448 Pls
3246 448 Pls
3247 448 Pls
3247 448 Pls
3248 448 Pls
3248 448 Pls
3249 448 Pls
3249 448 Pls
3250 448 Pls
3250 448 Pls
3251 448 Pls
3251 448 Pls
3252 448 Pls
3252 448 Pls
3253 448 Pls
3253 448 Pls
3254 448 Pls
3254 448 Pls
3255 448 Pls
3255 448 Pls
3256 448 Pls
3256 448 Pls
3257 448 Pls
3257 448 Pls
3258 448 Pls
3258 448 Pls
3259 448 Pls
3259 448 Pls
3259 448 Pls
3260 448 Pls
3260 448 Pls
3261 448 Pls
3261 448 Pls
3262 448 Pls
3262 448 Pls
3263 448 Pls
3263 448 Pls
3264 448 Pls
3264 448 Pls
3265 448 Pls
3265 448 Pls
3266 448 Pls
3266 448 Pls
3267 448 Pls
3267 448 Pls
3268 448 Pls
3268 448 Pls
3269 448 Pls
3269 448 Pls
3270 448 Pls
3270 448 Pls
3270 448 Pls
3271 448 Pls
3271 448 Pls
3272 448 Pls
3272 448 Pls
3273 448 Pls
3273 448 Pls
3274 448 Pls
3274 448 Pls
3275 448 Pls
3275 448 Pls
3276 448 Pls
3276 448 Pls
3276 448 Pls
3277 448 Pls
3277 448 Pls
3278 448 Pls
3278 448 Pls
3279 448 Pls
3279 448 Pls
3280 448 Pls
3280 448 Pls
3281 448 Pls
3281 448 Pls
3282 448 Pls
3282 448 Pls
3282 448 Pls
3283 448 Pls
3283 448 Pls
3284 448 Pls
3284 448 Pls
3285 448 Pls
3285 448 Pls
3286 448 Pls
3286 448 Pls
3287 448 Pls
3287 448 Pls
3287 448 Pls
3288 448 Pls
3288 448 Pls
3289 448 Pls
3289 448 Pls
3290 448 Pls
3290 448 Pls
3291 448 Pls
3291 448 Pls
3291 448 Pls
3292 448 Pls
3292 448 Pls
3293 448 Pls
3293 448 Pls
3294 448 Pls
3294 448 Pls
3295 448 Pls
3295 448 Pls
3295 448 Pls
3296 448 Pls
3296 448 Pls
3297 448 Pls
3297 448 Pls
3298 448 Pls
3298 448 Pls
3299 448 Pls
3299 448 Pls
3299 448 Pls
3300 448 Pls
3300 448 Pls
3301 448 Pls
3301 448 Pls
3302 448 Pls
3302 448 Pls
3302 448 Pls
3303 448 Pls
3303 448 Pls
3304 448 Pls
3304 448 Pls
3305 448 Pls
3305 448 Pls
3305 448 Pls
3306 448 Pls
3306 448 Pls
3307 448 Pls
3307 448 Pls
3308 448 Pls
3308 448 Pls
3308 448 Pls
3309 448 Pls
3309 448 Pls
3310 448 Pls
3310 448 Pls
3311 448 Pls
3311 448 Pls
3311 448 Pls
3312 448 Pls
3312 448 Pls
3313 448 Pls
3313 448 Pls
3314 448 Pls
3314 448 Pls
3314 448 Pls
3315 448 Pls
3315 448 Pls
3316 448 Pls
3316 448 Pls
3316 448 Pls
3317 448 Pls
3317 448 Pls
3318 448 Pls
3318 448 Pls
3319 448 Pls
3319 448 Pls
3319 448 Pls
3320 448 Pls
3320 448 Pls
3321 448 Pls
3321 448 Pls
3321 448 Pls
3322 448 Pls
3322 448 Pls
3323 448 Pls
3323 448 Pls
3323 448 Pls
3324 448 Pls
3324 448 Pls
3325 448 Pls
3325 448 Pls
3326 448 Pls
3326 448 Pls
3326 448 Pls
3327 448 Pls
3327 448 Pls
3328 448 Pls
3328 448 Pls
3328 448 Pls
3329 448 Pls
3329 448 Pls
3330 448 Pls
3330 448 Pls
3330 448 Pls
3331 448 Pls
3331 448 Pls
3332 448 Pls
3332 448 Pls
3332 448 Pls
3333 448 Pls
3333 448 Pls
3334 448 Pls
3334 448 Pls
3334 448 Pls
3335 448 Pls
3335 448 Pls
3336 448 Pls
3336 448 Pls
3336 448 Pls
3337 448 Pls
3337 448 Pls
3338 448 Pls
3338 448 Pls
3338 448 Pls
3339 448 Pls
3339 448 Pls
3340 448 Pls
3340 448 Pls
3340 448 Pls
3341 448 Pls
3341 448 Pls
3342 448 Pls
3342 448 Pls
3342 448 Pls
3343 448 Pls
3343 448 Pls
3344 448 Pls
3344 448 Pls
3344 448 Pls
3345 448 Pls
3345 448 Pls
3345 448 Pls
3346 448 Pls
3346 448 Pls
3347 448 Pls
2979 2219 Pls
% End plot #1
% Begin plot #2
1.000 UP
1.000 UL
LT1
LCb setrgbcolor
2696 2079 M
(raw_1) Rshow
LT1
2780 2079 M
399 0 V
602 1778 M
877 1307 L
1037 998 L
1151 873 L
88 -302 V
73 90 V
61 -160 V
53 66 V
46 -104 V
42 29 V
38 -15 V
34 -17 V
32 -11 V
29 0 V
27 -1 V
26 34 V
24 -34 V
23 1 V
21 -1 V
20 0 V
20 0 V
18 0 V
18 0 V
17 0 V
16 0 V
15 0 V
15 0 V
15 0 V
14 0 V
13 0 V
13 0 V
13 0 V
12 0 V
12 0 V
11 0 V
11 0 V
11 0 V
11 0 V
10 0 V
10 0 V
10 0 V
9 0 V
10 0 V
9 0 V
9 0 V
8 0 V
9 0 V
8 0 V
8 0 V
8 0 V
8 0 V
8 0 V
7 0 V
8 0 V
7 0 V
7 0 V
7 0 V
7 0 V
7 0 V
6 0 V
7 0 V
6 0 V
7 0 V
6 0 V
6 0 V
6 0 V
6 0 V
6 0 V
6 0 V
5 0 V
6 0 V
6 0 V
5 0 V
5 0 V
6 0 V
5 0 V
5 0 V
5 0 V
5 0 V
5 0 V
5 0 V
5 0 V
5 0 V
5 0 V
4 0 V
5 0 V
5 0 V
4 0 V
5 0 V
4 0 V
4 0 V
5 0 V
4 0 V
4 0 V
4 0 V
5 0 V
4 0 V
4 0 V
4 0 V
4 0 V
4 0 V
4 0 V
3 0 V
4 0 V
4 0 V
4 0 V
4 0 V
3 0 V
stroke 2456 448 M
4 0 V
3 0 V
4 0 V
4 0 V
3 0 V
4 0 V
3 0 V
4 0 V
3 0 V
3 0 V
4 0 V
3 0 V
3 0 V
3 0 V
4 0 V
3 0 V
3 0 V
3 0 V
3 0 V
4 0 V
3 0 V
3 0 V
3 0 V
3 0 V
3 0 V
3 0 V
3 0 V
3 0 V
2 0 V
3 0 V
3 0 V
3 0 V
3 0 V
3 0 V
2 0 V
3 0 V
3 0 V
3 0 V
2 0 V
3 0 V
3 0 V
2 0 V
3 0 V
3 0 V
2 0 V
3 0 V
2 0 V
3 0 V
2 0 V
3 0 V
2 0 V
3 0 V
2 0 V
3 0 V
2 0 V
3 0 V
2 0 V
2 0 V
3 0 V
2 0 V
3 0 V
2 0 V
2 0 V
3 0 V
2 0 V
2 0 V
2 0 V
3 0 V
2 0 V
2 0 V
2 0 V
3 0 V
2 0 V
2 0 V
2 0 V
2 0 V
2 0 V
2 0 V
3 0 V
2 0 V
2 0 V
2 0 V
2 0 V
2 0 V
2 0 V
2 0 V
2 0 V
2 0 V
2 0 V
2 0 V
2 0 V
2 0 V
2 0 V
2 0 V
2 0 V
2 0 V
2 0 V
2 0 V
2 0 V
2 0 V
2 0 V
2 0 V
1 0 V
2 0 V
stroke 2723 448 M
2 0 V
2 0 V
2 0 V
2 0 V
2 0 V
1 0 V
2 0 V
2 0 V
2 0 V
2 0 V
1 0 V
2 0 V
2 0 V
2 0 V
1 0 V
2 0 V
2 0 V
2 0 V
1 0 V
2 0 V
2 0 V
1 0 V
2 0 V
2 0 V
1 0 V
2 0 V
2 0 V
1 0 V
2 0 V
2 0 V
1 0 V
2 0 V
2 0 V
1 0 V
2 0 V
1 0 V
2 0 V
2 0 V
1 0 V
2 0 V
1 0 V
2 0 V
1 0 V
2 0 V
2 0 V
1 0 V
2 0 V
1 0 V
2 0 V
1 0 V
2 0 V
1 0 V
2 0 V
1 0 V
2 0 V
1 0 V
2 0 V
1 0 V
2 0 V
1 0 V
1 0 V
2 0 V
1 0 V
2 0 V
1 0 V
2 0 V
1 0 V
1 0 V
2 0 V
1 0 V
2 0 V
1 0 V
1 0 V
2 0 V
1 0 V
2 0 V
1 0 V
1 0 V
2 0 V
1 0 V
1 0 V
2 0 V
1 0 V
1 0 V
2 0 V
1 0 V
1 0 V
2 0 V
1 0 V
1 0 V
2 0 V
1 0 V
1 0 V
2 0 V
1 0 V
1 0 V
2 0 V
1 0 V
1 0 V
1 0 V
2 0 V
1 0 V
1 0 V
1 0 V
stroke 2881 448 M
2 0 V
1 0 V
1 0 V
1 0 V
2 0 V
1 0 V
1 0 V
1 0 V
2 0 V
1 0 V
1 0 V
1 0 V
1 0 V
2 0 V
1 0 V
1 0 V
1 0 V
1 0 V
2 0 V
1 0 V
1 0 V
1 0 V
1 0 V
1 0 V
2 0 V
1 0 V
1 0 V
1 0 V
1 0 V
1 0 V
1 0 V
2 0 V
1 0 V
1 0 V
1 0 V
1 0 V
1 0 V
1 0 V
1 0 V
2 0 V
1 0 V
1 0 V
1 0 V
1 0 V
1 0 V
1 0 V
1 0 V
1 0 V
1 0 V
2 0 V
1 0 V
1 0 V
1 0 V
1 0 V
1 0 V
1 0 V
1 0 V
1 0 V
1 0 V
1 0 V
1 0 V
1 0 V
1 0 V
1 0 V
1 0 V
2 0 V
1 0 V
1 0 V
1 0 V
1 0 V
1 0 V
1 0 V
1 0 V
1 0 V
1 0 V
1 0 V
1 0 V
1 0 V
1 0 V
1 0 V
1 0 V
1 0 V
1 0 V
1 0 V
1 0 V
1 0 V
1 0 V
1 0 V
1 0 V
1 0 V
1 0 V
1 0 V
1 0 V
1 0 V
1 0 V
1 0 V
1 0 V
1 0 V
1 0 V
1 0 V
1 0 V
1 0 V
1 0 V
1 0 V
stroke 2995 448 M
1 0 V
1 0 V
1 0 V
1 0 V
1 0 V
1 0 V
1 0 V
1 0 V
1 0 V
1 0 V
1 0 V
1 0 V
1 0 V
1 0 V
1 0 V
1 0 V
1 0 V
1 0 V
1 0 V
1 0 V
1 0 V
1 0 V
1 0 V
1 0 V
1 0 V
1 0 V
1 0 V
1 0 V
1 0 V
1 0 V
1 0 V
1 0 V
1 0 V
1 0 V
1 0 V
1 0 V
1 0 V
1 0 V
1 0 V
1 0 V
1 0 V
1 0 V
1 0 V
1 0 V
1 0 V
1 0 V
1 0 V
1 0 V
1 0 V
1 0 V
1 0 V
1 0 V
1 0 V
1 0 V
1 0 V
1 0 V
1 0 V
1 0 V
1 0 V
1 0 V
1 0 V
1 0 V
1 0 V
1 0 V
1 0 V
1 0 V
1 0 V
1 0 V
1 0 V
1 0 V
1 0 V
1 0 V
1 0 V
1 0 V
1 0 V
1 0 V
1 0 V
1 0 V
1 0 V
1 0 V
1 0 V
1 0 V
1 0 V
1 0 V
1 0 V
1 0 V
1 0 V
1 0 V
1 0 V
1 0 V
1 0 V
1 0 V
1 0 V
1 0 V
1 0 V
1 0 V
1 0 V
1 0 V
1 0 V
1 0 V
1 0 V
1 0 V
1 0 V
1 0 V
stroke 3099 448 M
1 0 V
1 0 V
1 0 V
1 0 V
1 0 V
1 0 V
1 0 V
1 0 V
1 0 V
1 0 V
1 0 V
1 0 V
1 0 V
1 0 V
1 0 V
1 0 V
1 0 V
1 0 V
1 0 V
1 0 V
1 0 V
1 0 V
1 0 V
1 0 V
1 0 V
1 0 V
1 0 V
1 0 V
1 0 V
1 0 V
1 0 V
1 0 V
1 0 V
1 0 V
1 0 V
1 0 V
1 0 V
1 0 V
1 0 V
1 0 V
1 0 V
1 0 V
1 0 V
1 0 V
1 0 V
1 0 V
1 0 V
1 0 V
1 0 V
1 0 V
1 0 V
1 0 V
1 0 V
1 0 V
1 0 V
1 0 V
1 0 V
1 0 V
1 0 V
1 0 V
1 0 V
1 0 V
1 0 V
1 0 V
1 0 V
1 0 V
1 0 V
1 0 V
1 0 V
1 0 V
1 0 V
1 0 V
1 0 V
1 0 V
1 0 V
1 0 V
1 0 V
1 0 V
1 0 V
1 0 V
1 0 V
1 0 V
1 0 V
1 0 V
1 0 V
1 0 V
1 0 V
1 0 V
1 0 V
1 0 V
1 0 V
1 0 V
1 0 V
1 0 V
1 0 V
1 0 V
1 0 V
1 0 V
1 0 V
1 0 V
1 0 V
1 0 V
1 0 V
1 0 V
stroke 3203 448 M
1 0 V
1 0 V
1 0 V
1 0 V
1 0 V
1 0 V
1 0 V
1 0 V
1 0 V
1 0 V
1 0 V
1 0 V
1 0 V
1 0 V
1 0 V
1 0 V
1 0 V
1 0 V
1 0 V
1 0 V
1 0 V
1 0 V
1 0 V
1 0 V
1 0 V
1 0 V
1 0 V
1 0 V
1 0 V
1 0 V
1 0 V
1 0 V
1 0 V
1 0 V
1 0 V
1 0 V
1 0 V
1 0 V
1 0 V
1 0 V
1 0 V
1 0 V
1 0 V
1 0 V
1 0 V
1 0 V
1 0 V
1 0 V
1 0 V
1 0 V
1 0 V
1 0 V
1 0 V
1 0 V
1 0 V
1 0 V
1 0 V
1 0 V
1 0 V
1 0 V
1 0 V
1 0 V
1 0 V
1 0 V
1 0 V
1 0 V
1 0 V
1 0 V
1 0 V
1 0 V
1 0 V
1 0 V
1 0 V
1 0 V
1 0 V
1 0 V
1 0 V
1 0 V
1 0 V
1 0 V
1 0 V
1 0 V
1 0 V
1 0 V
1 0 V
1 0 V
1 0 V
1 0 V
1 0 V
1 0 V
1 0 V
1 0 V
1 0 V
1 0 V
1 0 V
1 0 V
1 0 V
1 0 V
1 0 V
1 0 V
1 0 V
1 0 V
1 0 V
1 0 V
stroke 3307 448 M
1 0 V
1 0 V
1 0 V
1 0 V
1 0 V
1 0 V
1 0 V
1 0 V
1 0 V
1 0 V
1 0 V
1 0 V
1 0 V
1 0 V
1 0 V
1 0 V
1 0 V
1 0 V
1 0 V
1 0 V
1 0 V
1 0 V
1 0 V
1 0 V
1 0 V
1 0 V
1 0 V
1 0 V
1 0 V
1 0 V
1 0 V
1 0 V
1 0 V
1 0 V
1 0 V
1 0 V
1 0 V
1 0 V
1 0 V
1 0 V
602 1778 Circle
877 1307 Circle
1037 998 Circle
1151 873 Circle
1239 571 Circle
1312 661 Circle
1373 501 Circle
1426 567 Circle
1472 463 Circle
1514 492 Circle
1552 477 Circle
1586 460 Circle
1618 449 Circle
1647 449 Circle
1674 448 Circle
1700 482 Circle
1724 448 Circle
1747 449 Circle
1768 448 Circle
1788 448 Circle
1808 448 Circle
1826 448 Circle
1844 448 Circle
1861 448 Circle
1877 448 Circle
1892 448 Circle
1907 448 Circle
1922 448 Circle
1936 448 Circle
1949 448 Circle
1962 448 Circle
1975 448 Circle
1987 448 Circle
1999 448 Circle
2010 448 Circle
2021 448 Circle
2032 448 Circle
2043 448 Circle
2053 448 Circle
2063 448 Circle
2073 448 Circle
2082 448 Circle
2092 448 Circle
2101 448 Circle
2110 448 Circle
2118 448 Circle
2127 448 Circle
2135 448 Circle
2143 448 Circle
2151 448 Circle
2159 448 Circle
2167 448 Circle
2174 448 Circle
2182 448 Circle
2189 448 Circle
2196 448 Circle
2203 448 Circle
2210 448 Circle
2217 448 Circle
2223 448 Circle
2230 448 Circle
2236 448 Circle
2243 448 Circle
2249 448 Circle
2255 448 Circle
2261 448 Circle
2267 448 Circle
2273 448 Circle
2279 448 Circle
2284 448 Circle
2290 448 Circle
2296 448 Circle
2301 448 Circle
2306 448 Circle
2312 448 Circle
2317 448 Circle
2322 448 Circle
2327 448 Circle
2332 448 Circle
2337 448 Circle
2342 448 Circle
2347 448 Circle
2352 448 Circle
2357 448 Circle
2361 448 Circle
2366 448 Circle
2371 448 Circle
2375 448 Circle
2380 448 Circle
2384 448 Circle
2388 448 Circle
2393 448 Circle
2397 448 Circle
2401 448 Circle
2405 448 Circle
2410 448 Circle
2414 448 Circle
2418 448 Circle
2422 448 Circle
2426 448 Circle
2430 448 Circle
2434 448 Circle
2437 448 Circle
2441 448 Circle
2445 448 Circle
2449 448 Circle
2453 448 Circle
2456 448 Circle
2460 448 Circle
2463 448 Circle
2467 448 Circle
2471 448 Circle
2474 448 Circle
2478 448 Circle
2481 448 Circle
2485 448 Circle
2488 448 Circle
2491 448 Circle
2495 448 Circle
2498 448 Circle
2501 448 Circle
2504 448 Circle
2508 448 Circle
2511 448 Circle
2514 448 Circle
2517 448 Circle
2520 448 Circle
2524 448 Circle
2527 448 Circle
2530 448 Circle
2533 448 Circle
2536 448 Circle
2539 448 Circle
2542 448 Circle
2545 448 Circle
2548 448 Circle
2550 448 Circle
2553 448 Circle
2556 448 Circle
2559 448 Circle
2562 448 Circle
2565 448 Circle
2567 448 Circle
2570 448 Circle
2573 448 Circle
2576 448 Circle
2578 448 Circle
2581 448 Circle
2584 448 Circle
2586 448 Circle
2589 448 Circle
2592 448 Circle
2594 448 Circle
2597 448 Circle
2599 448 Circle
2602 448 Circle
2604 448 Circle
2607 448 Circle
2609 448 Circle
2612 448 Circle
2614 448 Circle
2617 448 Circle
2619 448 Circle
2622 448 Circle
2624 448 Circle
2626 448 Circle
2629 448 Circle
2631 448 Circle
2634 448 Circle
2636 448 Circle
2638 448 Circle
2641 448 Circle
2643 448 Circle
2645 448 Circle
2647 448 Circle
2650 448 Circle
2652 448 Circle
2654 448 Circle
2656 448 Circle
2659 448 Circle
2661 448 Circle
2663 448 Circle
2665 448 Circle
2667 448 Circle
2669 448 Circle
2671 448 Circle
2674 448 Circle
2676 448 Circle
2678 448 Circle
2680 448 Circle
2682 448 Circle
2684 448 Circle
2686 448 Circle
2688 448 Circle
2690 448 Circle
2692 448 Circle
2694 448 Circle
2696 448 Circle
2698 448 Circle
2700 448 Circle
2702 448 Circle
2704 448 Circle
2706 448 Circle
2708 448 Circle
2710 448 Circle
2712 448 Circle
2714 448 Circle
2716 448 Circle
2718 448 Circle
2720 448 Circle
2721 448 Circle
2723 448 Circle
2725 448 Circle
2727 448 Circle
2729 448 Circle
2731 448 Circle
2733 448 Circle
2734 448 Circle
2736 448 Circle
2738 448 Circle
2740 448 Circle
2742 448 Circle
2743 448 Circle
2745 448 Circle
2747 448 Circle
2749 448 Circle
2750 448 Circle
2752 448 Circle
2754 448 Circle
2756 448 Circle
2757 448 Circle
2759 448 Circle
2761 448 Circle
2762 448 Circle
2764 448 Circle
2766 448 Circle
2767 448 Circle
2769 448 Circle
2771 448 Circle
2772 448 Circle
2774 448 Circle
2776 448 Circle
2777 448 Circle
2779 448 Circle
2781 448 Circle
2782 448 Circle
2784 448 Circle
2785 448 Circle
2787 448 Circle
2789 448 Circle
2790 448 Circle
2792 448 Circle
2793 448 Circle
2795 448 Circle
2796 448 Circle
2798 448 Circle
2800 448 Circle
2801 448 Circle
2803 448 Circle
2804 448 Circle
2806 448 Circle
2807 448 Circle
2809 448 Circle
2810 448 Circle
2812 448 Circle
2813 448 Circle
2815 448 Circle
2816 448 Circle
2818 448 Circle
2819 448 Circle
2821 448 Circle
2822 448 Circle
2823 448 Circle
2825 448 Circle
2826 448 Circle
2828 448 Circle
2829 448 Circle
2831 448 Circle
2832 448 Circle
2833 448 Circle
2835 448 Circle
2836 448 Circle
2838 448 Circle
2839 448 Circle
2840 448 Circle
2842 448 Circle
2843 448 Circle
2845 448 Circle
2846 448 Circle
2847 448 Circle
2849 448 Circle
2850 448 Circle
2851 448 Circle
2853 448 Circle
2854 448 Circle
2855 448 Circle
2857 448 Circle
2858 448 Circle
2859 448 Circle
2861 448 Circle
2862 448 Circle
2863 448 Circle
2865 448 Circle
2866 448 Circle
2867 448 Circle
2869 448 Circle
2870 448 Circle
2871 448 Circle
2873 448 Circle
2874 448 Circle
2875 448 Circle
2876 448 Circle
2878 448 Circle
2879 448 Circle
2880 448 Circle
2881 448 Circle
2883 448 Circle
2884 448 Circle
2885 448 Circle
2886 448 Circle
2888 448 Circle
2889 448 Circle
2890 448 Circle
2891 448 Circle
2893 448 Circle
2894 448 Circle
2895 448 Circle
2896 448 Circle
2897 448 Circle
2899 448 Circle
2900 448 Circle
2901 448 Circle
2902 448 Circle
2903 448 Circle
2905 448 Circle
2906 448 Circle
2907 448 Circle
2908 448 Circle
2909 448 Circle
2910 448 Circle
2912 448 Circle
2913 448 Circle
2914 448 Circle
2915 448 Circle
2916 448 Circle
2917 448 Circle
2918 448 Circle
2920 448 Circle
2921 448 Circle
2922 448 Circle
2923 448 Circle
2924 448 Circle
2925 448 Circle
2926 448 Circle
2927 448 Circle
2929 448 Circle
2930 448 Circle
2931 448 Circle
2932 448 Circle
2933 448 Circle
2934 448 Circle
2935 448 Circle
2936 448 Circle
2937 448 Circle
2938 448 Circle
2940 448 Circle
2941 448 Circle
2942 448 Circle
2943 448 Circle
2944 448 Circle
2945 448 Circle
2946 448 Circle
2947 448 Circle
2948 448 Circle
2949 448 Circle
2950 448 Circle
2951 448 Circle
2952 448 Circle
2953 448 Circle
2954 448 Circle
2955 448 Circle
2957 448 Circle
2958 448 Circle
2959 448 Circle
2960 448 Circle
2961 448 Circle
2962 448 Circle
2963 448 Circle
2964 448 Circle
2965 448 Circle
2966 448 Circle
2967 448 Circle
2968 448 Circle
2969 448 Circle
2970 448 Circle
2971 448 Circle
2972 448 Circle
2973 448 Circle
2974 448 Circle
2975 448 Circle
2976 448 Circle
2977 448 Circle
2978 448 Circle
2979 448 Circle
2980 448 Circle
2981 448 Circle
2982 448 Circle
2983 448 Circle
2984 448 Circle
2985 448 Circle
2985 448 Circle
2986 448 Circle
2987 448 Circle
2988 448 Circle
2989 448 Circle
2990 448 Circle
2991 448 Circle
2992 448 Circle
2993 448 Circle
2994 448 Circle
2995 448 Circle
2996 448 Circle
2997 448 Circle
2998 448 Circle
2999 448 Circle
3000 448 Circle
3001 448 Circle
3002 448 Circle
3002 448 Circle
3003 448 Circle
3004 448 Circle
3005 448 Circle
3006 448 Circle
3007 448 Circle
3008 448 Circle
3009 448 Circle
3010 448 Circle
3011 448 Circle
3012 448 Circle
3012 448 Circle
3013 448 Circle
3014 448 Circle
3015 448 Circle
3016 448 Circle
3017 448 Circle
3018 448 Circle
3019 448 Circle
3020 448 Circle
3021 448 Circle
3021 448 Circle
3022 448 Circle
3023 448 Circle
3024 448 Circle
3025 448 Circle
3026 448 Circle
3027 448 Circle
3027 448 Circle
3028 448 Circle
3029 448 Circle
3030 448 Circle
3031 448 Circle
3032 448 Circle
3033 448 Circle
3034 448 Circle
3034 448 Circle
3035 448 Circle
3036 448 Circle
3037 448 Circle
3038 448 Circle
3039 448 Circle
3039 448 Circle
3040 448 Circle
3041 448 Circle
3042 448 Circle
3043 448 Circle
3044 448 Circle
3044 448 Circle
3045 448 Circle
3046 448 Circle
3047 448 Circle
3048 448 Circle
3049 448 Circle
3049 448 Circle
3050 448 Circle
3051 448 Circle
3052 448 Circle
3053 448 Circle
3053 448 Circle
3054 448 Circle
3055 448 Circle
3056 448 Circle
3057 448 Circle
3058 448 Circle
3058 448 Circle
3059 448 Circle
3060 448 Circle
3061 448 Circle
3062 448 Circle
3062 448 Circle
3063 448 Circle
3064 448 Circle
3065 448 Circle
3065 448 Circle
3066 448 Circle
3067 448 Circle
3068 448 Circle
3069 448 Circle
3069 448 Circle
3070 448 Circle
3071 448 Circle
3072 448 Circle
3073 448 Circle
3073 448 Circle
3074 448 Circle
3075 448 Circle
3076 448 Circle
3076 448 Circle
3077 448 Circle
3078 448 Circle
3079 448 Circle
3079 448 Circle
3080 448 Circle
3081 448 Circle
3082 448 Circle
3082 448 Circle
3083 448 Circle
3084 448 Circle
3085 448 Circle
3085 448 Circle
3086 448 Circle
3087 448 Circle
3088 448 Circle
3088 448 Circle
3089 448 Circle
3090 448 Circle
3091 448 Circle
3091 448 Circle
3092 448 Circle
3093 448 Circle
3094 448 Circle
3094 448 Circle
3095 448 Circle
3096 448 Circle
3097 448 Circle
3097 448 Circle
3098 448 Circle
3099 448 Circle
3099 448 Circle
3100 448 Circle
3101 448 Circle
3102 448 Circle
3102 448 Circle
3103 448 Circle
3104 448 Circle
3104 448 Circle
3105 448 Circle
3106 448 Circle
3107 448 Circle
3107 448 Circle
3108 448 Circle
3109 448 Circle
3109 448 Circle
3110 448 Circle
3111 448 Circle
3112 448 Circle
3112 448 Circle
3113 448 Circle
3114 448 Circle
3114 448 Circle
3115 448 Circle
3116 448 Circle
3116 448 Circle
3117 448 Circle
3118 448 Circle
3118 448 Circle
3119 448 Circle
3120 448 Circle
3121 448 Circle
3121 448 Circle
3122 448 Circle
3123 448 Circle
3123 448 Circle
3124 448 Circle
3125 448 Circle
3125 448 Circle
3126 448 Circle
3127 448 Circle
3127 448 Circle
3128 448 Circle
3129 448 Circle
3129 448 Circle
3130 448 Circle
3131 448 Circle
3131 448 Circle
3132 448 Circle
3133 448 Circle
3133 448 Circle
3134 448 Circle
3135 448 Circle
3135 448 Circle
3136 448 Circle
3137 448 Circle
3137 448 Circle
3138 448 Circle
3139 448 Circle
3139 448 Circle
3140 448 Circle
3141 448 Circle
3141 448 Circle
3142 448 Circle
3143 448 Circle
3143 448 Circle
3144 448 Circle
3144 448 Circle
3145 448 Circle
3146 448 Circle
3146 448 Circle
3147 448 Circle
3148 448 Circle
3148 448 Circle
3149 448 Circle
3150 448 Circle
3150 448 Circle
3151 448 Circle
3151 448 Circle
3152 448 Circle
3153 448 Circle
3153 448 Circle
3154 448 Circle
3155 448 Circle
3155 448 Circle
3156 448 Circle
3157 448 Circle
3157 448 Circle
3158 448 Circle
3158 448 Circle
3159 448 Circle
3160 448 Circle
3160 448 Circle
3161 448 Circle
3161 448 Circle
3162 448 Circle
3163 448 Circle
3163 448 Circle
3164 448 Circle
3165 448 Circle
3165 448 Circle
3166 448 Circle
3166 448 Circle
3167 448 Circle
3168 448 Circle
3168 448 Circle
3169 448 Circle
3169 448 Circle
3170 448 Circle
3171 448 Circle
3171 448 Circle
3172 448 Circle
3172 448 Circle
3173 448 Circle
3174 448 Circle
3174 448 Circle
3175 448 Circle
3175 448 Circle
3176 448 Circle
3177 448 Circle
3177 448 Circle
3178 448 Circle
3178 448 Circle
3179 448 Circle
3180 448 Circle
3180 448 Circle
3181 448 Circle
3181 448 Circle
3182 448 Circle
3183 448 Circle
3183 448 Circle
3184 448 Circle
3184 448 Circle
3185 448 Circle
3185 448 Circle
3186 448 Circle
3187 448 Circle
3187 448 Circle
3188 448 Circle
3188 448 Circle
3189 448 Circle
3190 448 Circle
3190 448 Circle
3191 448 Circle
3191 448 Circle
3192 448 Circle
3192 448 Circle
3193 448 Circle
3194 448 Circle
3194 448 Circle
3195 448 Circle
3195 448 Circle
3196 448 Circle
3196 448 Circle
3197 448 Circle
3197 448 Circle
3198 448 Circle
3199 448 Circle
3199 448 Circle
3200 448 Circle
3200 448 Circle
3201 448 Circle
3201 448 Circle
3202 448 Circle
3203 448 Circle
3203 448 Circle
3204 448 Circle
3204 448 Circle
3205 448 Circle
3205 448 Circle
3206 448 Circle
3206 448 Circle
3207 448 Circle
3208 448 Circle
3208 448 Circle
3209 448 Circle
3209 448 Circle
3210 448 Circle
3210 448 Circle
3211 448 Circle
3211 448 Circle
3212 448 Circle
3212 448 Circle
3213 448 Circle
3214 448 Circle
3214 448 Circle
3215 448 Circle
3215 448 Circle
3216 448 Circle
3216 448 Circle
3217 448 Circle
3217 448 Circle
3218 448 Circle
3218 448 Circle
3219 448 Circle
3219 448 Circle
3220 448 Circle
3220 448 Circle
3221 448 Circle
3222 448 Circle
3222 448 Circle
3223 448 Circle
3223 448 Circle
3224 448 Circle
3224 448 Circle
3225 448 Circle
3225 448 Circle
3226 448 Circle
3226 448 Circle
3227 448 Circle
3227 448 Circle
3228 448 Circle
3228 448 Circle
3229 448 Circle
3229 448 Circle
3230 448 Circle
3230 448 Circle
3231 448 Circle
3232 448 Circle
3232 448 Circle
3233 448 Circle
3233 448 Circle
3234 448 Circle
3234 448 Circle
3235 448 Circle
3235 448 Circle
3236 448 Circle
3236 448 Circle
3237 448 Circle
3237 448 Circle
3238 448 Circle
3238 448 Circle
3239 448 Circle
3239 448 Circle
3240 448 Circle
3240 448 Circle
3241 448 Circle
3241 448 Circle
3242 448 Circle
3242 448 Circle
3243 448 Circle
3243 448 Circle
3244 448 Circle
3244 448 Circle
3245 448 Circle
3245 448 Circle
3246 448 Circle
3246 448 Circle
3247 448 Circle
3247 448 Circle
3248 448 Circle
3248 448 Circle
3249 448 Circle
3249 448 Circle
3250 448 Circle
3250 448 Circle
3251 448 Circle
3251 448 Circle
3252 448 Circle
3252 448 Circle
3253 448 Circle
3253 448 Circle
3254 448 Circle
3254 448 Circle
3255 448 Circle
3255 448 Circle
3256 448 Circle
3256 448 Circle
3257 448 Circle
3257 448 Circle
3258 448 Circle
3258 448 Circle
3259 448 Circle
3259 448 Circle
3259 448 Circle
3260 448 Circle
3260 448 Circle
3261 448 Circle
3261 448 Circle
3262 448 Circle
3262 448 Circle
3263 448 Circle
3263 448 Circle
3264 448 Circle
3264 448 Circle
3265 448 Circle
3265 448 Circle
3266 448 Circle
3266 448 Circle
3267 448 Circle
3267 448 Circle
3268 448 Circle
3268 448 Circle
3269 448 Circle
3269 448 Circle
3270 448 Circle
3270 448 Circle
3270 448 Circle
3271 448 Circle
3271 448 Circle
3272 448 Circle
3272 448 Circle
3273 448 Circle
3273 448 Circle
3274 448 Circle
3274 448 Circle
3275 448 Circle
3275 448 Circle
3276 448 Circle
3276 448 Circle
3276 448 Circle
3277 448 Circle
3277 448 Circle
3278 448 Circle
3278 448 Circle
3279 448 Circle
3279 448 Circle
3280 448 Circle
3280 448 Circle
3281 448 Circle
3281 448 Circle
3282 448 Circle
3282 448 Circle
3282 448 Circle
3283 448 Circle
3283 448 Circle
3284 448 Circle
3284 448 Circle
3285 448 Circle
3285 448 Circle
3286 448 Circle
3286 448 Circle
3287 448 Circle
3287 448 Circle
3287 448 Circle
3288 448 Circle
3288 448 Circle
3289 448 Circle
3289 448 Circle
3290 448 Circle
3290 448 Circle
3291 448 Circle
3291 448 Circle
3291 448 Circle
3292 448 Circle
3292 448 Circle
3293 448 Circle
3293 448 Circle
3294 448 Circle
3294 448 Circle
3295 448 Circle
3295 448 Circle
3295 448 Circle
3296 448 Circle
3296 448 Circle
3297 448 Circle
3297 448 Circle
3298 448 Circle
3298 448 Circle
3299 448 Circle
3299 448 Circle
3299 448 Circle
3300 448 Circle
3300 448 Circle
3301 448 Circle
3301 448 Circle
3302 448 Circle
3302 448 Circle
3302 448 Circle
3303 448 Circle
3303 448 Circle
3304 448 Circle
3304 448 Circle
3305 448 Circle
3305 448 Circle
3305 448 Circle
3306 448 Circle
3306 448 Circle
3307 448 Circle
3307 448 Circle
3308 448 Circle
3308 448 Circle
3308 448 Circle
3309 448 Circle
3309 448 Circle
3310 448 Circle
3310 448 Circle
3311 448 Circle
3311 448 Circle
3311 448 Circle
3312 448 Circle
3312 448 Circle
3313 448 Circle
3313 448 Circle
3314 448 Circle
3314 448 Circle
3314 448 Circle
3315 448 Circle
3315 448 Circle
3316 448 Circle
3316 448 Circle
3316 448 Circle
3317 448 Circle
3317 448 Circle
3318 448 Circle
3318 448 Circle
3319 448 Circle
3319 448 Circle
3319 448 Circle
3320 448 Circle
3320 448 Circle
3321 448 Circle
3321 448 Circle
3321 448 Circle
3322 448 Circle
3322 448 Circle
3323 448 Circle
3323 448 Circle
3323 448 Circle
3324 448 Circle
3324 448 Circle
3325 448 Circle
3325 448 Circle
3326 448 Circle
3326 448 Circle
3326 448 Circle
3327 448 Circle
3327 448 Circle
3328 448 Circle
3328 448 Circle
3328 448 Circle
3329 448 Circle
3329 448 Circle
3330 448 Circle
3330 448 Circle
3330 448 Circle
3331 448 Circle
3331 448 Circle
3332 448 Circle
3332 448 Circle
3332 448 Circle
3333 448 Circle
3333 448 Circle
3334 448 Circle
3334 448 Circle
3334 448 Circle
3335 448 Circle
3335 448 Circle
3336 448 Circle
3336 448 Circle
3336 448 Circle
3337 448 Circle
3337 448 Circle
3338 448 Circle
3338 448 Circle
3338 448 Circle
3339 448 Circle
3339 448 Circle
3340 448 Circle
3340 448 Circle
3340 448 Circle
3341 448 Circle
3341 448 Circle
3342 448 Circle
3342 448 Circle
3342 448 Circle
3343 448 Circle
3343 448 Circle
3344 448 Circle
3344 448 Circle
3344 448 Circle
3345 448 Circle
3345 448 Circle
3345 448 Circle
3346 448 Circle
3346 448 Circle
3347 448 Circle
2979 2079 Circle
% End plot #2
1.000 UL
LTb
602 2352 N
602 448 L
2745 0 V
0 1904 V
-2745 0 V
Z stroke
1.000 UP
1.000 UL
LTb
stroke
grestore
end
showpage
%%Trailer
%%DocumentFonts: Helvetica
