%!PS-Adobe-2.0 EPSF-2.0
%%Title: graph_raw_01.eps
%%Creator: gnuplot 4.2 patchlevel 6 
%%CreationDate: Thu Sep  5 13:42:37 2013
%%DocumentFonts: (atend)
%%BoundingBox: 50 50 230 176
%%EndComments
%%BeginProlog
/gnudict 256 dict def
gnudict begin
%
% The following 6 true/false flags may be edited by hand if required
% The unit line width may also be changed
%
/Color false def
/Blacktext false def
/Solid false def
/Dashlength 1 def
/Landscape false def
/Level1 false def
/Rounded false def
/TransparentPatterns false def
/gnulinewidth 5.000 def
/userlinewidth gnulinewidth def
%
/vshift -46 def
/dl1 {
  10.0 Dashlength mul mul
  Rounded { currentlinewidth 0.75 mul sub dup 0 le { pop 0.01 } if } if
} def
/dl2 {
  10.0 Dashlength mul mul
  Rounded { currentlinewidth 0.75 mul add } if
} def
/hpt_ 31.5 def
/vpt_ 31.5 def
/hpt hpt_ def
/vpt vpt_ def
Level1 {} {
/SDict 10 dict def
systemdict /pdfmark known not {
  userdict /pdfmark systemdict /cleartomark get put
} if
SDict begin [
  /Title (graph_raw_01.eps)
  /Subject (gnuplot plot)
  /Creator (gnuplot 4.2 patchlevel 6 )
  /Author (Sugiura Tomoki)
%  /Producer (gnuplot)
%  /Keywords ()
  /CreationDate (Thu Sep  5 13:42:37 2013)
  /DOCINFO pdfmark
end
} ifelse
%
% Gnuplot Prolog Version 4.2 (August 2006)
%
/M {moveto} bind def
/L {lineto} bind def
/R {rmoveto} bind def
/V {rlineto} bind def
/N {newpath moveto} bind def
/Z {closepath} bind def
/C {setrgbcolor} bind def
/f {rlineto fill} bind def
/vpt2 vpt 2 mul def
/hpt2 hpt 2 mul def
/Lshow {currentpoint stroke M 0 vshift R 
	Blacktext {gsave 0 setgray show grestore} {show} ifelse} def
/Rshow {currentpoint stroke M dup stringwidth pop neg vshift R
	Blacktext {gsave 0 setgray show grestore} {show} ifelse} def
/Cshow {currentpoint stroke M dup stringwidth pop -2 div vshift R 
	Blacktext {gsave 0 setgray show grestore} {show} ifelse} def
/UP {dup vpt_ mul /vpt exch def hpt_ mul /hpt exch def
  /hpt2 hpt 2 mul def /vpt2 vpt 2 mul def} def
/DL {Color {setrgbcolor Solid {pop []} if 0 setdash}
 {pop pop pop 0 setgray Solid {pop []} if 0 setdash} ifelse} def
/BL {stroke userlinewidth 2 mul setlinewidth
	Rounded {1 setlinejoin 1 setlinecap} if} def
/AL {stroke userlinewidth 2 div setlinewidth
	Rounded {1 setlinejoin 1 setlinecap} if} def
/UL {dup gnulinewidth mul /userlinewidth exch def
	dup 1 lt {pop 1} if 10 mul /udl exch def} def
/PL {stroke userlinewidth setlinewidth
	Rounded {1 setlinejoin 1 setlinecap} if} def
% Default Line colors
/LCw {1 1 1} def
/LCb {0 0 0} def
/LCa {0 0 0} def
/LC0 {1 0 0} def
/LC1 {0 1 0} def
/LC2 {0 0 1} def
/LC3 {1 0 1} def
/LC4 {0 1 1} def
/LC5 {1 1 0} def
/LC6 {0 0 0} def
/LC7 {1 0.3 0} def
/LC8 {0.5 0.5 0.5} def
% Default Line Types
/LTw {PL [] 1 setgray} def
/LTb {BL [] LCb DL} def
/LTa {AL [1 udl mul 2 udl mul] 0 setdash LCa setrgbcolor} def
/LT0 {PL [] LC0 DL} def
/LT1 {PL [4 dl1 2 dl2] LC1 DL} def
/LT2 {PL [2 dl1 3 dl2] LC2 DL} def
/LT3 {PL [1 dl1 1.5 dl2] LC3 DL} def
/LT4 {PL [6 dl1 2 dl2 1 dl1 2 dl2] LC4 DL} def
/LT5 {PL [3 dl1 3 dl2 1 dl1 3 dl2] LC5 DL} def
/LT6 {PL [2 dl1 2 dl2 2 dl1 6 dl2] LC6 DL} def
/LT7 {PL [1 dl1 2 dl2 6 dl1 2 dl2 1 dl1 2 dl2] LC7 DL} def
/LT8 {PL [2 dl1 2 dl2 2 dl1 2 dl2 2 dl1 2 dl2 2 dl1 4 dl2] LC8 DL} def
/Pnt {stroke [] 0 setdash gsave 1 setlinecap M 0 0 V stroke grestore} def
/Dia {stroke [] 0 setdash 2 copy vpt add M
  hpt neg vpt neg V hpt vpt neg V
  hpt vpt V hpt neg vpt V closepath stroke
  Pnt} def
/Pls {stroke [] 0 setdash vpt sub M 0 vpt2 V
  currentpoint stroke M
  hpt neg vpt neg R hpt2 0 V stroke
 } def
/Box {stroke [] 0 setdash 2 copy exch hpt sub exch vpt add M
  0 vpt2 neg V hpt2 0 V 0 vpt2 V
  hpt2 neg 0 V closepath stroke
  Pnt} def
/Crs {stroke [] 0 setdash exch hpt sub exch vpt add M
  hpt2 vpt2 neg V currentpoint stroke M
  hpt2 neg 0 R hpt2 vpt2 V stroke} def
/TriU {stroke [] 0 setdash 2 copy vpt 1.12 mul add M
  hpt neg vpt -1.62 mul V
  hpt 2 mul 0 V
  hpt neg vpt 1.62 mul V closepath stroke
  Pnt} def
/Star {2 copy Pls Crs} def
/BoxF {stroke [] 0 setdash exch hpt sub exch vpt add M
  0 vpt2 neg V hpt2 0 V 0 vpt2 V
  hpt2 neg 0 V closepath fill} def
/TriUF {stroke [] 0 setdash vpt 1.12 mul add M
  hpt neg vpt -1.62 mul V
  hpt 2 mul 0 V
  hpt neg vpt 1.62 mul V closepath fill} def
/TriD {stroke [] 0 setdash 2 copy vpt 1.12 mul sub M
  hpt neg vpt 1.62 mul V
  hpt 2 mul 0 V
  hpt neg vpt -1.62 mul V closepath stroke
  Pnt} def
/TriDF {stroke [] 0 setdash vpt 1.12 mul sub M
  hpt neg vpt 1.62 mul V
  hpt 2 mul 0 V
  hpt neg vpt -1.62 mul V closepath fill} def
/DiaF {stroke [] 0 setdash vpt add M
  hpt neg vpt neg V hpt vpt neg V
  hpt vpt V hpt neg vpt V closepath fill} def
/Pent {stroke [] 0 setdash 2 copy gsave
  translate 0 hpt M 4 {72 rotate 0 hpt L} repeat
  closepath stroke grestore Pnt} def
/PentF {stroke [] 0 setdash gsave
  translate 0 hpt M 4 {72 rotate 0 hpt L} repeat
  closepath fill grestore} def
/Circle {stroke [] 0 setdash 2 copy
  hpt 0 360 arc stroke Pnt} def
/CircleF {stroke [] 0 setdash hpt 0 360 arc fill} def
/C0 {BL [] 0 setdash 2 copy moveto vpt 90 450 arc} bind def
/C1 {BL [] 0 setdash 2 copy moveto
	2 copy vpt 0 90 arc closepath fill
	vpt 0 360 arc closepath} bind def
/C2 {BL [] 0 setdash 2 copy moveto
	2 copy vpt 90 180 arc closepath fill
	vpt 0 360 arc closepath} bind def
/C3 {BL [] 0 setdash 2 copy moveto
	2 copy vpt 0 180 arc closepath fill
	vpt 0 360 arc closepath} bind def
/C4 {BL [] 0 setdash 2 copy moveto
	2 copy vpt 180 270 arc closepath fill
	vpt 0 360 arc closepath} bind def
/C5 {BL [] 0 setdash 2 copy moveto
	2 copy vpt 0 90 arc
	2 copy moveto
	2 copy vpt 180 270 arc closepath fill
	vpt 0 360 arc} bind def
/C6 {BL [] 0 setdash 2 copy moveto
	2 copy vpt 90 270 arc closepath fill
	vpt 0 360 arc closepath} bind def
/C7 {BL [] 0 setdash 2 copy moveto
	2 copy vpt 0 270 arc closepath fill
	vpt 0 360 arc closepath} bind def
/C8 {BL [] 0 setdash 2 copy moveto
	2 copy vpt 270 360 arc closepath fill
	vpt 0 360 arc closepath} bind def
/C9 {BL [] 0 setdash 2 copy moveto
	2 copy vpt 270 450 arc closepath fill
	vpt 0 360 arc closepath} bind def
/C10 {BL [] 0 setdash 2 copy 2 copy moveto vpt 270 360 arc closepath fill
	2 copy moveto
	2 copy vpt 90 180 arc closepath fill
	vpt 0 360 arc closepath} bind def
/C11 {BL [] 0 setdash 2 copy moveto
	2 copy vpt 0 180 arc closepath fill
	2 copy moveto
	2 copy vpt 270 360 arc closepath fill
	vpt 0 360 arc closepath} bind def
/C12 {BL [] 0 setdash 2 copy moveto
	2 copy vpt 180 360 arc closepath fill
	vpt 0 360 arc closepath} bind def
/C13 {BL [] 0 setdash 2 copy moveto
	2 copy vpt 0 90 arc closepath fill
	2 copy moveto
	2 copy vpt 180 360 arc closepath fill
	vpt 0 360 arc closepath} bind def
/C14 {BL [] 0 setdash 2 copy moveto
	2 copy vpt 90 360 arc closepath fill
	vpt 0 360 arc} bind def
/C15 {BL [] 0 setdash 2 copy vpt 0 360 arc closepath fill
	vpt 0 360 arc closepath} bind def
/Rec {newpath 4 2 roll moveto 1 index 0 rlineto 0 exch rlineto
	neg 0 rlineto closepath} bind def
/Square {dup Rec} bind def
/Bsquare {vpt sub exch vpt sub exch vpt2 Square} bind def
/S0 {BL [] 0 setdash 2 copy moveto 0 vpt rlineto BL Bsquare} bind def
/S1 {BL [] 0 setdash 2 copy vpt Square fill Bsquare} bind def
/S2 {BL [] 0 setdash 2 copy exch vpt sub exch vpt Square fill Bsquare} bind def
/S3 {BL [] 0 setdash 2 copy exch vpt sub exch vpt2 vpt Rec fill Bsquare} bind def
/S4 {BL [] 0 setdash 2 copy exch vpt sub exch vpt sub vpt Square fill Bsquare} bind def
/S5 {BL [] 0 setdash 2 copy 2 copy vpt Square fill
	exch vpt sub exch vpt sub vpt Square fill Bsquare} bind def
/S6 {BL [] 0 setdash 2 copy exch vpt sub exch vpt sub vpt vpt2 Rec fill Bsquare} bind def
/S7 {BL [] 0 setdash 2 copy exch vpt sub exch vpt sub vpt vpt2 Rec fill
	2 copy vpt Square fill Bsquare} bind def
/S8 {BL [] 0 setdash 2 copy vpt sub vpt Square fill Bsquare} bind def
/S9 {BL [] 0 setdash 2 copy vpt sub vpt vpt2 Rec fill Bsquare} bind def
/S10 {BL [] 0 setdash 2 copy vpt sub vpt Square fill 2 copy exch vpt sub exch vpt Square fill
	Bsquare} bind def
/S11 {BL [] 0 setdash 2 copy vpt sub vpt Square fill 2 copy exch vpt sub exch vpt2 vpt Rec fill
	Bsquare} bind def
/S12 {BL [] 0 setdash 2 copy exch vpt sub exch vpt sub vpt2 vpt Rec fill Bsquare} bind def
/S13 {BL [] 0 setdash 2 copy exch vpt sub exch vpt sub vpt2 vpt Rec fill
	2 copy vpt Square fill Bsquare} bind def
/S14 {BL [] 0 setdash 2 copy exch vpt sub exch vpt sub vpt2 vpt Rec fill
	2 copy exch vpt sub exch vpt Square fill Bsquare} bind def
/S15 {BL [] 0 setdash 2 copy Bsquare fill Bsquare} bind def
/D0 {gsave translate 45 rotate 0 0 S0 stroke grestore} bind def
/D1 {gsave translate 45 rotate 0 0 S1 stroke grestore} bind def
/D2 {gsave translate 45 rotate 0 0 S2 stroke grestore} bind def
/D3 {gsave translate 45 rotate 0 0 S3 stroke grestore} bind def
/D4 {gsave translate 45 rotate 0 0 S4 stroke grestore} bind def
/D5 {gsave translate 45 rotate 0 0 S5 stroke grestore} bind def
/D6 {gsave translate 45 rotate 0 0 S6 stroke grestore} bind def
/D7 {gsave translate 45 rotate 0 0 S7 stroke grestore} bind def
/D8 {gsave translate 45 rotate 0 0 S8 stroke grestore} bind def
/D9 {gsave translate 45 rotate 0 0 S9 stroke grestore} bind def
/D10 {gsave translate 45 rotate 0 0 S10 stroke grestore} bind def
/D11 {gsave translate 45 rotate 0 0 S11 stroke grestore} bind def
/D12 {gsave translate 45 rotate 0 0 S12 stroke grestore} bind def
/D13 {gsave translate 45 rotate 0 0 S13 stroke grestore} bind def
/D14 {gsave translate 45 rotate 0 0 S14 stroke grestore} bind def
/D15 {gsave translate 45 rotate 0 0 S15 stroke grestore} bind def
/DiaE {stroke [] 0 setdash vpt add M
  hpt neg vpt neg V hpt vpt neg V
  hpt vpt V hpt neg vpt V closepath stroke} def
/BoxE {stroke [] 0 setdash exch hpt sub exch vpt add M
  0 vpt2 neg V hpt2 0 V 0 vpt2 V
  hpt2 neg 0 V closepath stroke} def
/TriUE {stroke [] 0 setdash vpt 1.12 mul add M
  hpt neg vpt -1.62 mul V
  hpt 2 mul 0 V
  hpt neg vpt 1.62 mul V closepath stroke} def
/TriDE {stroke [] 0 setdash vpt 1.12 mul sub M
  hpt neg vpt 1.62 mul V
  hpt 2 mul 0 V
  hpt neg vpt -1.62 mul V closepath stroke} def
/PentE {stroke [] 0 setdash gsave
  translate 0 hpt M 4 {72 rotate 0 hpt L} repeat
  closepath stroke grestore} def
/CircE {stroke [] 0 setdash 
  hpt 0 360 arc stroke} def
/Opaque {gsave closepath 1 setgray fill grestore 0 setgray closepath} def
/DiaW {stroke [] 0 setdash vpt add M
  hpt neg vpt neg V hpt vpt neg V
  hpt vpt V hpt neg vpt V Opaque stroke} def
/BoxW {stroke [] 0 setdash exch hpt sub exch vpt add M
  0 vpt2 neg V hpt2 0 V 0 vpt2 V
  hpt2 neg 0 V Opaque stroke} def
/TriUW {stroke [] 0 setdash vpt 1.12 mul add M
  hpt neg vpt -1.62 mul V
  hpt 2 mul 0 V
  hpt neg vpt 1.62 mul V Opaque stroke} def
/TriDW {stroke [] 0 setdash vpt 1.12 mul sub M
  hpt neg vpt 1.62 mul V
  hpt 2 mul 0 V
  hpt neg vpt -1.62 mul V Opaque stroke} def
/PentW {stroke [] 0 setdash gsave
  translate 0 hpt M 4 {72 rotate 0 hpt L} repeat
  Opaque stroke grestore} def
/CircW {stroke [] 0 setdash 
  hpt 0 360 arc Opaque stroke} def
/BoxFill {gsave Rec 1 setgray fill grestore} def
/Density {
  /Fillden exch def
  currentrgbcolor
  /ColB exch def /ColG exch def /ColR exch def
  /ColR ColR Fillden mul Fillden sub 1 add def
  /ColG ColG Fillden mul Fillden sub 1 add def
  /ColB ColB Fillden mul Fillden sub 1 add def
  ColR ColG ColB setrgbcolor} def
/BoxColFill {gsave Rec PolyFill} def
/PolyFill {gsave Density fill grestore grestore} def
/h {rlineto rlineto rlineto gsave closepath fill grestore} bind def
%
% PostScript Level 1 Pattern Fill routine for rectangles
% Usage: x y w h s a XX PatternFill
%	x,y = lower left corner of box to be filled
%	w,h = width and height of box
%	  a = angle in degrees between lines and x-axis
%	 XX = 0/1 for no/yes cross-hatch
%
/PatternFill {gsave /PFa [ 9 2 roll ] def
  PFa 0 get PFa 2 get 2 div add PFa 1 get PFa 3 get 2 div add translate
  PFa 2 get -2 div PFa 3 get -2 div PFa 2 get PFa 3 get Rec
  gsave 1 setgray fill grestore clip
  currentlinewidth 0.5 mul setlinewidth
  /PFs PFa 2 get dup mul PFa 3 get dup mul add sqrt def
  0 0 M PFa 5 get rotate PFs -2 div dup translate
  0 1 PFs PFa 4 get div 1 add floor cvi
	{PFa 4 get mul 0 M 0 PFs V} for
  0 PFa 6 get ne {
	0 1 PFs PFa 4 get div 1 add floor cvi
	{PFa 4 get mul 0 2 1 roll M PFs 0 V} for
 } if
  stroke grestore} def
%
/languagelevel where
 {pop languagelevel} {1} ifelse
 2 lt
	{/InterpretLevel1 true def}
	{/InterpretLevel1 Level1 def}
 ifelse
%
% PostScript level 2 pattern fill definitions
%
/Level2PatternFill {
/Tile8x8 {/PaintType 2 /PatternType 1 /TilingType 1 /BBox [0 0 8 8] /XStep 8 /YStep 8}
	bind def
/KeepColor {currentrgbcolor [/Pattern /DeviceRGB] setcolorspace} bind def
<< Tile8x8
 /PaintProc {0.5 setlinewidth pop 0 0 M 8 8 L 0 8 M 8 0 L stroke} 
>> matrix makepattern
/Pat1 exch def
<< Tile8x8
 /PaintProc {0.5 setlinewidth pop 0 0 M 8 8 L 0 8 M 8 0 L stroke
	0 4 M 4 8 L 8 4 L 4 0 L 0 4 L stroke}
>> matrix makepattern
/Pat2 exch def
<< Tile8x8
 /PaintProc {0.5 setlinewidth pop 0 0 M 0 8 L
	8 8 L 8 0 L 0 0 L fill}
>> matrix makepattern
/Pat3 exch def
<< Tile8x8
 /PaintProc {0.5 setlinewidth pop -4 8 M 8 -4 L
	0 12 M 12 0 L stroke}
>> matrix makepattern
/Pat4 exch def
<< Tile8x8
 /PaintProc {0.5 setlinewidth pop -4 0 M 8 12 L
	0 -4 M 12 8 L stroke}
>> matrix makepattern
/Pat5 exch def
<< Tile8x8
 /PaintProc {0.5 setlinewidth pop -2 8 M 4 -4 L
	0 12 M 8 -4 L 4 12 M 10 0 L stroke}
>> matrix makepattern
/Pat6 exch def
<< Tile8x8
 /PaintProc {0.5 setlinewidth pop -2 0 M 4 12 L
	0 -4 M 8 12 L 4 -4 M 10 8 L stroke}
>> matrix makepattern
/Pat7 exch def
<< Tile8x8
 /PaintProc {0.5 setlinewidth pop 8 -2 M -4 4 L
	12 0 M -4 8 L 12 4 M 0 10 L stroke}
>> matrix makepattern
/Pat8 exch def
<< Tile8x8
 /PaintProc {0.5 setlinewidth pop 0 -2 M 12 4 L
	-4 0 M 12 8 L -4 4 M 8 10 L stroke}
>> matrix makepattern
/Pat9 exch def
/Pattern1 {PatternBgnd KeepColor Pat1 setpattern} bind def
/Pattern2 {PatternBgnd KeepColor Pat2 setpattern} bind def
/Pattern3 {PatternBgnd KeepColor Pat3 setpattern} bind def
/Pattern4 {PatternBgnd KeepColor Landscape {Pat5} {Pat4} ifelse setpattern} bind def
/Pattern5 {PatternBgnd KeepColor Landscape {Pat4} {Pat5} ifelse setpattern} bind def
/Pattern6 {PatternBgnd KeepColor Landscape {Pat9} {Pat6} ifelse setpattern} bind def
/Pattern7 {PatternBgnd KeepColor Landscape {Pat8} {Pat7} ifelse setpattern} bind def
} def
%
%
%End of PostScript Level 2 code
%
/PatternBgnd {
  TransparentPatterns {} {gsave 1 setgray fill grestore} ifelse
} def
%
% Substitute for Level 2 pattern fill codes with
% grayscale if Level 2 support is not selected.
%
/Level1PatternFill {
/Pattern1 {0.250 Density} bind def
/Pattern2 {0.500 Density} bind def
/Pattern3 {0.750 Density} bind def
/Pattern4 {0.125 Density} bind def
/Pattern5 {0.375 Density} bind def
/Pattern6 {0.625 Density} bind def
/Pattern7 {0.875 Density} bind def
} def
%
% Now test for support of Level 2 code
%
Level1 {Level1PatternFill} {Level2PatternFill} ifelse
%
/Symbol-Oblique /Symbol findfont [1 0 .167 1 0 0] makefont
dup length dict begin {1 index /FID eq {pop pop} {def} ifelse} forall
currentdict end definefont pop
end
%%EndProlog
gnudict begin
gsave
50 50 translate
0.050 0.050 scale
0 setgray
newpath
(Helvetica) findfont 140 scalefont setfont
1.000 UL
LTb
770 448 M
63 0 V
2557 0 R
-63 0 V
686 448 M
( 0) Rshow
1.000 UL
LTb
770 829 M
63 0 V
2557 0 R
-63 0 V
686 829 M
( 10) Rshow
1.000 UL
LTb
770 1210 M
63 0 V
2557 0 R
-63 0 V
-2641 0 R
( 20) Rshow
1.000 UL
LTb
770 1590 M
63 0 V
2557 0 R
-63 0 V
-2641 0 R
( 30) Rshow
1.000 UL
LTb
770 1971 M
63 0 V
2557 0 R
-63 0 V
-2641 0 R
( 40) Rshow
1.000 UL
LTb
770 2352 M
63 0 V
2557 0 R
-63 0 V
-2641 0 R
( 50) Rshow
1.000 UL
LTb
770 448 M
0 63 V
0 1841 R
0 -63 V
770 308 M
( 1) Cshow
1.000 UL
LTb
1032 448 M
0 31 V
0 1873 R
0 -31 V
1294 448 M
0 63 V
0 1841 R
0 -63 V
0 -1981 R
( 4) Cshow
1.000 UL
LTb
1556 448 M
0 31 V
0 1873 R
0 -31 V
1818 448 M
0 63 V
0 1841 R
0 -63 V
0 -1981 R
( 16) Cshow
1.000 UL
LTb
2080 448 M
0 31 V
0 1873 R
0 -31 V
2342 448 M
0 63 V
0 1841 R
0 -63 V
0 -1981 R
( 64) Cshow
1.000 UL
LTb
2604 448 M
0 31 V
0 1873 R
0 -31 V
2866 448 M
0 63 V
0 1841 R
0 -63 V
0 -1981 R
( 256) Cshow
1.000 UL
LTb
3128 448 M
0 31 V
0 1873 R
0 -31 V
3390 448 M
0 63 V
0 1841 R
0 -63 V
0 -1981 R
( 1024) Cshow
1.000 UL
LTb
1.000 UL
LTb
770 2352 N
770 448 L
2620 0 V
0 1904 V
-2620 0 V
Z stroke
LCb setrgbcolor
280 1400 M
currentpoint gsave translate 90 rotate 0 0 M
(Probability[%]) Cshow
grestore
LTb
LCb setrgbcolor
2080 98 M
(Run-length) Cshow
LTb
1.000 UP
1.000 UL
LTb
1.000 UP
1.000 UL
LT0
LTb
2299 1901 M
(raw_0) Rshow
LT0
2383 1901 M
399 0 V
770 1084 M
1032 957 L
1185 842 L
1294 717 L
84 7 V
69 -81 V
59 -8 V
50 -144 V
45 141 V
39 -53 V
36 -106 V
33 24 V
31 -24 V
28 -5 V
26 55 V
24 -59 V
23 117 V
22 22 V
20 -131 V
19 56 V
19 -35 V
17 -18 V
17 16 V
16 -32 V
16 9 V
15 36 V
14 -40 V
14 9 V
13 -17 V
13 8 V
12 -12 V
12 -3 V
12 -1 V
11 0 V
11 0 V
11 0 V
10 0 V
10 0 V
10 0 V
9 0 V
10 0 V
9 0 V
9 0 V
8 0 V
9 0 V
8 0 V
8 0 V
8 0 V
8 0 V
8 0 V
7 0 V
8 0 V
7 0 V
7 0 V
7 0 V
7 0 V
6 0 V
7 0 V
6 0 V
7 0 V
6 0 V
6 0 V
6 0 V
6 0 V
6 0 V
6 0 V
5 0 V
6 0 V
5 0 V
6 0 V
5 0 V
6 0 V
5 0 V
5 0 V
5 0 V
5 0 V
5 0 V
5 0 V
5 0 V
4 0 V
5 0 V
5 0 V
4 0 V
5 0 V
4 0 V
5 0 V
4 0 V
4 0 V
5 0 V
4 0 V
4 0 V
4 0 V
4 0 V
4 0 V
4 0 V
4 0 V
4 0 V
4 0 V
4 0 V
4 0 V
3 0 V
4 3 V
4 -2 V
4 -1 V
3 1 V
4 0 V
3 -1 V
4 0 V
stroke 2540 448 M
3 0 V
4 0 V
3 0 V
4 0 V
3 0 V
3 0 V
4 0 V
3 0 V
3 0 V
3 0 V
3 0 V
4 49 V
3 -44 V
3 -5 V
3 0 V
3 0 V
3 0 V
3 0 V
3 0 V
3 0 V
3 0 V
3 0 V
3 0 V
3 0 V
2 0 V
3 0 V
3 0 V
3 0 V
3 2 V
2 -2 V
3 2 V
3 -2 V
3 1 V
2 -1 V
3 0 V
3 0 V
2 0 V
3 0 V
2 0 V
3 0 V
2 0 V
3 0 V
2 0 V
3 0 V
2 0 V
3 0 V
2 0 V
3 0 V
2 0 V
3 0 V
2 0 V
2 0 V
3 0 V
2 0 V
2 0 V
3 0 V
2 0 V
2 0 V
3 0 V
2 0 V
2 0 V
2 0 V
2 0 V
3 0 V
2 0 V
2 0 V
2 0 V
2 0 V
3 0 V
2 0 V
2 0 V
2 0 V
2 0 V
2 0 V
2 0 V
2 0 V
2 0 V
2 0 V
2 0 V
2 0 V
2 0 V
2 0 V
2 0 V
2 0 V
2 0 V
2 0 V
2 0 V
2 0 V
2 0 V
2 0 V
2 0 V
2 0 V
2 0 V
1 0 V
2 0 V
2 33 V
2 -33 V
2 0 V
2 0 V
2 0 V
1 0 V
2 8 V
2 -7 V
2 -1 V
stroke 2795 448 M
1 0 V
2 0 V
2 0 V
2 0 V
2 0 V
1 0 V
2 0 V
2 0 V
1 0 V
2 0 V
2 0 V
2 0 V
1 0 V
2 0 V
2 0 V
1 0 V
2 0 V
2 0 V
1 0 V
2 0 V
1 0 V
2 0 V
2 0 V
1 0 V
2 0 V
1 0 V
2 0 V
2 0 V
1 0 V
2 0 V
1 0 V
2 0 V
1 0 V
2 0 V
1 0 V
2 0 V
2 0 V
1 0 V
2 0 V
1 0 V
2 0 V
1 0 V
2 0 V
1 0 V
1 0 V
2 0 V
1 0 V
2 0 V
1 0 V
2 0 V
1 0 V
2 0 V
1 0 V
1 0 V
2 0 V
1 0 V
2 0 V
1 0 V
2 0 V
1 0 V
1 0 V
2 0 V
1 0 V
1 0 V
2 0 V
1 0 V
2 0 V
1 0 V
1 0 V
2 0 V
1 0 V
1 0 V
2 0 V
1 0 V
1 0 V
2 0 V
1 0 V
1 0 V
1 0 V
2 0 V
1 0 V
1 0 V
2 0 V
1 0 V
1 0 V
1 0 V
2 0 V
1 0 V
1 0 V
1 0 V
2 0 V
1 0 V
1 0 V
1 0 V
2 0 V
1 0 V
1 0 V
1 0 V
2 0 V
1 0 V
1 0 V
1 0 V
1 0 V
2 0 V
stroke 2946 448 M
1 0 V
1 0 V
1 0 V
1 0 V
2 0 V
1 0 V
1 0 V
1 0 V
1 0 V
1 0 V
2 0 V
1 0 V
1 0 V
1 0 V
1 0 V
1 0 V
1 0 V
2 0 V
1 0 V
1 0 V
1 0 V
1 0 V
1 0 V
1 0 V
1 0 V
1 0 V
2 0 V
1 0 V
1 0 V
1 0 V
1 0 V
1 0 V
1 0 V
1 0 V
1 0 V
1 0 V
1 0 V
2 0 V
1 0 V
1 0 V
1 0 V
1 0 V
1 0 V
1 0 V
1 0 V
1 0 V
1 0 V
1 0 V
1 0 V
1 0 V
1 0 V
1 0 V
1 0 V
1 0 V
1 0 V
1 0 V
1 0 V
1 0 V
1 0 V
1 0 V
1 0 V
1 0 V
1 0 V
1 0 V
1 0 V
1 0 V
1 0 V
1 0 V
1 0 V
1 0 V
1 0 V
1 0 V
1 0 V
1 0 V
1 0 V
1 0 V
1 0 V
1 0 V
1 0 V
1 0 V
1 0 V
1 0 V
1 0 V
1 0 V
1 0 V
1 0 V
1 0 V
1 0 V
1 0 V
1 0 V
1 0 V
1 0 V
1 0 V
1 0 V
1 0 V
1 0 V
1 0 V
1 0 V
1 0 V
1 0 V
1 0 V
1 0 V
1 0 V
1 0 V
stroke 3055 448 M
1 0 V
1 0 V
1 0 V
1 0 V
1 0 V
1 0 V
1 0 V
1 0 V
1 0 V
1 0 V
1 0 V
1 0 V
1 0 V
1 0 V
1 0 V
1 0 V
1 0 V
1 0 V
1 0 V
1 0 V
1 0 V
1 0 V
1 0 V
1 0 V
1 0 V
1 0 V
1 0 V
1 0 V
1 0 V
1 0 V
1 0 V
1 0 V
1 0 V
1 0 V
1 0 V
1 0 V
1 0 V
1 0 V
1 0 V
1 0 V
1 0 V
1 0 V
1 0 V
1 0 V
1 0 V
1 0 V
1 0 V
1 0 V
1 0 V
1 0 V
1 0 V
1 0 V
1 0 V
1 0 V
1 0 V
1 0 V
1 0 V
1 0 V
1 0 V
1 0 V
1 0 V
1 0 V
1 0 V
1 0 V
1 0 V
1 0 V
1 0 V
1 0 V
1 0 V
1 0 V
1 0 V
1 0 V
1 0 V
1 0 V
1 0 V
1 0 V
1 0 V
1 0 V
1 0 V
1 0 V
1 0 V
1 0 V
1 0 V
1 0 V
1 0 V
1 0 V
1 0 V
1 0 V
1 0 V
1 0 V
1 0 V
1 0 V
1 0 V
1 0 V
1 0 V
1 0 V
1 0 V
1 0 V
1 0 V
1 0 V
1 0 V
1 0 V
1 0 V
1 0 V
stroke 3159 448 M
1 0 V
1 0 V
1 0 V
1 0 V
1 0 V
1 0 V
1 0 V
1 0 V
1 0 V
1 0 V
1 0 V
1 0 V
1 0 V
1 0 V
1 0 V
1 0 V
1 0 V
1 0 V
1 0 V
1 0 V
1 0 V
1 0 V
1 0 V
1 0 V
1 0 V
1 0 V
1 0 V
1 0 V
1 0 V
1 0 V
1 0 V
1 0 V
1 0 V
1 0 V
1 0 V
1 0 V
1 0 V
1 0 V
1 0 V
1 0 V
1 0 V
1 0 V
1 0 V
1 0 V
1 0 V
1 0 V
1 0 V
1 0 V
1 0 V
1 0 V
1 0 V
1 0 V
1 0 V
1 0 V
1 0 V
1 0 V
1 0 V
1 0 V
1 0 V
1 0 V
1 0 V
1 0 V
1 0 V
1 0 V
1 0 V
1 0 V
1 0 V
1 0 V
1 0 V
1 0 V
1 0 V
1 0 V
1 0 V
1 0 V
1 0 V
1 0 V
1 0 V
1 0 V
1 0 V
1 0 V
1 0 V
1 0 V
1 0 V
1 0 V
1 0 V
1 0 V
1 0 V
1 0 V
1 0 V
1 0 V
1 0 V
1 0 V
1 0 V
1 0 V
1 0 V
1 0 V
1 0 V
1 0 V
1 0 V
1 0 V
1 0 V
1 0 V
1 0 V
1 0 V
stroke 3263 448 M
1 0 V
1 0 V
1 0 V
1 0 V
1 0 V
1 0 V
1 0 V
1 0 V
1 0 V
1 0 V
1 0 V
1 0 V
1 0 V
1 0 V
1 0 V
1 0 V
1 0 V
1 0 V
1 0 V
1 0 V
1 0 V
1 0 V
1 0 V
1 0 V
1 0 V
1 0 V
1 0 V
1 0 V
1 0 V
1 0 V
1 0 V
1 0 V
1 0 V
1 0 V
1 0 V
1 0 V
1 0 V
1 0 V
1 0 V
1 0 V
1 0 V
1 0 V
1 0 V
1 0 V
1 0 V
1 0 V
1 0 V
1 0 V
1 0 V
1 0 V
1 0 V
1 0 V
1 0 V
1 0 V
1 0 V
1 0 V
1 0 V
1 0 V
1 0 V
1 0 V
1 0 V
1 0 V
1 0 V
1 0 V
1 0 V
1 0 V
1 0 V
1 0 V
1 0 V
1 0 V
1 0 V
1 0 V
1 0 V
1 0 V
1 0 V
1 0 V
1 0 V
1 0 V
1 0 V
1 0 V
1 0 V
1 0 V
1 0 V
1 0 V
1 0 V
1 0 V
1 0 V
1 0 V
1 0 V
1 0 V
1 0 V
1 0 V
1 0 V
1 0 V
1 0 V
1 0 V
1 0 V
1 0 V
1 0 V
1 0 V
1 0 V
1 0 V
1 0 V
1 0 V
stroke 3367 448 M
1 0 V
1 0 V
1 0 V
1 0 V
1 0 V
1 0 V
1 0 V
1 0 V
1 0 V
1 0 V
1 0 V
1 0 V
1 0 V
1 0 V
1 0 V
1 0 V
1 0 V
1 0 V
1 0 V
1 0 V
1 0 V
1 0 V
1 0 V
770 1084 Pls
1032 957 Pls
1185 842 Pls
1294 717 Pls
1378 724 Pls
1447 643 Pls
1506 635 Pls
1556 491 Pls
1601 632 Pls
1640 579 Pls
1676 473 Pls
1709 497 Pls
1740 473 Pls
1768 468 Pls
1794 523 Pls
1818 464 Pls
1841 581 Pls
1863 603 Pls
1883 472 Pls
1902 528 Pls
1921 493 Pls
1938 475 Pls
1955 491 Pls
1971 459 Pls
1987 468 Pls
2002 504 Pls
2016 464 Pls
2030 473 Pls
2043 456 Pls
2056 464 Pls
2068 452 Pls
2080 449 Pls
2092 448 Pls
2103 448 Pls
2114 448 Pls
2125 448 Pls
2135 448 Pls
2145 448 Pls
2155 448 Pls
2164 448 Pls
2174 448 Pls
2183 448 Pls
2192 448 Pls
2200 448 Pls
2209 448 Pls
2217 448 Pls
2225 448 Pls
2233 448 Pls
2241 448 Pls
2249 448 Pls
2256 448 Pls
2264 448 Pls
2271 448 Pls
2278 448 Pls
2285 448 Pls
2292 448 Pls
2298 448 Pls
2305 448 Pls
2311 448 Pls
2318 448 Pls
2324 448 Pls
2330 448 Pls
2336 448 Pls
2342 448 Pls
2348 448 Pls
2354 448 Pls
2359 448 Pls
2365 448 Pls
2370 448 Pls
2376 448 Pls
2381 448 Pls
2387 448 Pls
2392 448 Pls
2397 448 Pls
2402 448 Pls
2407 448 Pls
2412 448 Pls
2417 448 Pls
2422 448 Pls
2426 448 Pls
2431 448 Pls
2436 448 Pls
2440 448 Pls
2445 448 Pls
2449 448 Pls
2454 448 Pls
2458 448 Pls
2462 448 Pls
2467 448 Pls
2471 448 Pls
2475 448 Pls
2479 448 Pls
2483 448 Pls
2487 448 Pls
2491 448 Pls
2495 448 Pls
2499 448 Pls
2503 448 Pls
2507 448 Pls
2511 448 Pls
2514 448 Pls
2518 451 Pls
2522 449 Pls
2526 448 Pls
2529 449 Pls
2533 449 Pls
2536 448 Pls
2540 448 Pls
2543 448 Pls
2547 448 Pls
2550 448 Pls
2554 448 Pls
2557 448 Pls
2560 448 Pls
2564 448 Pls
2567 448 Pls
2570 448 Pls
2573 448 Pls
2576 448 Pls
2580 497 Pls
2583 453 Pls
2586 448 Pls
2589 448 Pls
2592 448 Pls
2595 448 Pls
2598 448 Pls
2601 448 Pls
2604 448 Pls
2607 448 Pls
2610 448 Pls
2613 448 Pls
2616 448 Pls
2618 448 Pls
2621 448 Pls
2624 448 Pls
2627 448 Pls
2630 450 Pls
2632 448 Pls
2635 450 Pls
2638 448 Pls
2641 449 Pls
2643 448 Pls
2646 448 Pls
2649 448 Pls
2651 448 Pls
2654 448 Pls
2656 448 Pls
2659 448 Pls
2661 448 Pls
2664 448 Pls
2666 448 Pls
2669 448 Pls
2671 448 Pls
2674 448 Pls
2676 448 Pls
2679 448 Pls
2681 448 Pls
2684 448 Pls
2686 448 Pls
2688 448 Pls
2691 448 Pls
2693 448 Pls
2695 448 Pls
2698 448 Pls
2700 448 Pls
2702 448 Pls
2705 448 Pls
2707 448 Pls
2709 448 Pls
2711 448 Pls
2713 448 Pls
2716 448 Pls
2718 448 Pls
2720 448 Pls
2722 448 Pls
2724 448 Pls
2727 448 Pls
2729 448 Pls
2731 448 Pls
2733 448 Pls
2735 448 Pls
2737 448 Pls
2739 448 Pls
2741 448 Pls
2743 448 Pls
2745 448 Pls
2747 448 Pls
2749 448 Pls
2751 448 Pls
2753 448 Pls
2755 448 Pls
2757 448 Pls
2759 448 Pls
2761 448 Pls
2763 448 Pls
2765 448 Pls
2767 448 Pls
2769 448 Pls
2771 448 Pls
2773 448 Pls
2775 448 Pls
2776 448 Pls
2778 448 Pls
2780 481 Pls
2782 448 Pls
2784 448 Pls
2786 448 Pls
2788 448 Pls
2789 448 Pls
2791 456 Pls
2793 449 Pls
2795 448 Pls
2796 448 Pls
2798 448 Pls
2800 448 Pls
2802 448 Pls
2804 448 Pls
2805 448 Pls
2807 448 Pls
2809 448 Pls
2810 448 Pls
2812 448 Pls
2814 448 Pls
2816 448 Pls
2817 448 Pls
2819 448 Pls
2821 448 Pls
2822 448 Pls
2824 448 Pls
2826 448 Pls
2827 448 Pls
2829 448 Pls
2830 448 Pls
2832 448 Pls
2834 448 Pls
2835 448 Pls
2837 448 Pls
2838 448 Pls
2840 448 Pls
2842 448 Pls
2843 448 Pls
2845 448 Pls
2846 448 Pls
2848 448 Pls
2849 448 Pls
2851 448 Pls
2852 448 Pls
2854 448 Pls
2856 448 Pls
2857 448 Pls
2859 448 Pls
2860 448 Pls
2862 448 Pls
2863 448 Pls
2865 448 Pls
2866 448 Pls
2867 448 Pls
2869 448 Pls
2870 448 Pls
2872 448 Pls
2873 448 Pls
2875 448 Pls
2876 448 Pls
2878 448 Pls
2879 448 Pls
2880 448 Pls
2882 448 Pls
2883 448 Pls
2885 448 Pls
2886 448 Pls
2888 448 Pls
2889 448 Pls
2890 448 Pls
2892 448 Pls
2893 448 Pls
2894 448 Pls
2896 448 Pls
2897 448 Pls
2899 448 Pls
2900 448 Pls
2901 448 Pls
2903 448 Pls
2904 448 Pls
2905 448 Pls
2907 448 Pls
2908 448 Pls
2909 448 Pls
2911 448 Pls
2912 448 Pls
2913 448 Pls
2914 448 Pls
2916 448 Pls
2917 448 Pls
2918 448 Pls
2920 448 Pls
2921 448 Pls
2922 448 Pls
2923 448 Pls
2925 448 Pls
2926 448 Pls
2927 448 Pls
2928 448 Pls
2930 448 Pls
2931 448 Pls
2932 448 Pls
2933 448 Pls
2935 448 Pls
2936 448 Pls
2937 448 Pls
2938 448 Pls
2940 448 Pls
2941 448 Pls
2942 448 Pls
2943 448 Pls
2944 448 Pls
2946 448 Pls
2947 448 Pls
2948 448 Pls
2949 448 Pls
2950 448 Pls
2952 448 Pls
2953 448 Pls
2954 448 Pls
2955 448 Pls
2956 448 Pls
2957 448 Pls
2959 448 Pls
2960 448 Pls
2961 448 Pls
2962 448 Pls
2963 448 Pls
2964 448 Pls
2965 448 Pls
2967 448 Pls
2968 448 Pls
2969 448 Pls
2970 448 Pls
2971 448 Pls
2972 448 Pls
2973 448 Pls
2974 448 Pls
2975 448 Pls
2977 448 Pls
2978 448 Pls
2979 448 Pls
2980 448 Pls
2981 448 Pls
2982 448 Pls
2983 448 Pls
2984 448 Pls
2985 448 Pls
2986 448 Pls
2987 448 Pls
2989 448 Pls
2990 448 Pls
2991 448 Pls
2992 448 Pls
2993 448 Pls
2994 448 Pls
2995 448 Pls
2996 448 Pls
2997 448 Pls
2998 448 Pls
2999 448 Pls
3000 448 Pls
3001 448 Pls
3002 448 Pls
3003 448 Pls
3004 448 Pls
3005 448 Pls
3006 448 Pls
3007 448 Pls
3008 448 Pls
3009 448 Pls
3010 448 Pls
3011 448 Pls
3012 448 Pls
3013 448 Pls
3014 448 Pls
3015 448 Pls
3016 448 Pls
3017 448 Pls
3018 448 Pls
3019 448 Pls
3020 448 Pls
3021 448 Pls
3022 448 Pls
3023 448 Pls
3024 448 Pls
3025 448 Pls
3026 448 Pls
3027 448 Pls
3028 448 Pls
3029 448 Pls
3030 448 Pls
3031 448 Pls
3032 448 Pls
3033 448 Pls
3034 448 Pls
3035 448 Pls
3036 448 Pls
3037 448 Pls
3038 448 Pls
3038 448 Pls
3039 448 Pls
3040 448 Pls
3041 448 Pls
3042 448 Pls
3043 448 Pls
3044 448 Pls
3045 448 Pls
3046 448 Pls
3047 448 Pls
3048 448 Pls
3049 448 Pls
3050 448 Pls
3050 448 Pls
3051 448 Pls
3052 448 Pls
3053 448 Pls
3054 448 Pls
3055 448 Pls
3056 448 Pls
3057 448 Pls
3058 448 Pls
3058 448 Pls
3059 448 Pls
3060 448 Pls
3061 448 Pls
3062 448 Pls
3063 448 Pls
3064 448 Pls
3065 448 Pls
3066 448 Pls
3066 448 Pls
3067 448 Pls
3068 448 Pls
3069 448 Pls
3070 448 Pls
3071 448 Pls
3072 448 Pls
3072 448 Pls
3073 448 Pls
3074 448 Pls
3075 448 Pls
3076 448 Pls
3077 448 Pls
3078 448 Pls
3078 448 Pls
3079 448 Pls
3080 448 Pls
3081 448 Pls
3082 448 Pls
3083 448 Pls
3083 448 Pls
3084 448 Pls
3085 448 Pls
3086 448 Pls
3087 448 Pls
3088 448 Pls
3088 448 Pls
3089 448 Pls
3090 448 Pls
3091 448 Pls
3092 448 Pls
3092 448 Pls
3093 448 Pls
3094 448 Pls
3095 448 Pls
3096 448 Pls
3096 448 Pls
3097 448 Pls
3098 448 Pls
3099 448 Pls
3100 448 Pls
3100 448 Pls
3101 448 Pls
3102 448 Pls
3103 448 Pls
3104 448 Pls
3104 448 Pls
3105 448 Pls
3106 448 Pls
3107 448 Pls
3108 448 Pls
3108 448 Pls
3109 448 Pls
3110 448 Pls
3111 448 Pls
3111 448 Pls
3112 448 Pls
3113 448 Pls
3114 448 Pls
3114 448 Pls
3115 448 Pls
3116 448 Pls
3117 448 Pls
3118 448 Pls
3118 448 Pls
3119 448 Pls
3120 448 Pls
3121 448 Pls
3121 448 Pls
3122 448 Pls
3123 448 Pls
3124 448 Pls
3124 448 Pls
3125 448 Pls
3126 448 Pls
3127 448 Pls
3127 448 Pls
3128 448 Pls
3129 448 Pls
3129 448 Pls
3130 448 Pls
3131 448 Pls
3132 448 Pls
3132 448 Pls
3133 448 Pls
3134 448 Pls
3135 448 Pls
3135 448 Pls
3136 448 Pls
3137 448 Pls
3137 448 Pls
3138 448 Pls
3139 448 Pls
3140 448 Pls
3140 448 Pls
3141 448 Pls
3142 448 Pls
3142 448 Pls
3143 448 Pls
3144 448 Pls
3145 448 Pls
3145 448 Pls
3146 448 Pls
3147 448 Pls
3147 448 Pls
3148 448 Pls
3149 448 Pls
3150 448 Pls
3150 448 Pls
3151 448 Pls
3152 448 Pls
3152 448 Pls
3153 448 Pls
3154 448 Pls
3154 448 Pls
3155 448 Pls
3156 448 Pls
3156 448 Pls
3157 448 Pls
3158 448 Pls
3158 448 Pls
3159 448 Pls
3160 448 Pls
3161 448 Pls
3161 448 Pls
3162 448 Pls
3163 448 Pls
3163 448 Pls
3164 448 Pls
3165 448 Pls
3165 448 Pls
3166 448 Pls
3167 448 Pls
3167 448 Pls
3168 448 Pls
3169 448 Pls
3169 448 Pls
3170 448 Pls
3171 448 Pls
3171 448 Pls
3172 448 Pls
3173 448 Pls
3173 448 Pls
3174 448 Pls
3174 448 Pls
3175 448 Pls
3176 448 Pls
3176 448 Pls
3177 448 Pls
3178 448 Pls
3178 448 Pls
3179 448 Pls
3180 448 Pls
3180 448 Pls
3181 448 Pls
3182 448 Pls
3182 448 Pls
3183 448 Pls
3184 448 Pls
3184 448 Pls
3185 448 Pls
3185 448 Pls
3186 448 Pls
3187 448 Pls
3187 448 Pls
3188 448 Pls
3189 448 Pls
3189 448 Pls
3190 448 Pls
3190 448 Pls
3191 448 Pls
3192 448 Pls
3192 448 Pls
3193 448 Pls
3194 448 Pls
3194 448 Pls
3195 448 Pls
3195 448 Pls
3196 448 Pls
3197 448 Pls
3197 448 Pls
3198 448 Pls
3199 448 Pls
3199 448 Pls
3200 448 Pls
3200 448 Pls
3201 448 Pls
3202 448 Pls
3202 448 Pls
3203 448 Pls
3203 448 Pls
3204 448 Pls
3205 448 Pls
3205 448 Pls
3206 448 Pls
3206 448 Pls
3207 448 Pls
3208 448 Pls
3208 448 Pls
3209 448 Pls
3209 448 Pls
3210 448 Pls
3211 448 Pls
3211 448 Pls
3212 448 Pls
3212 448 Pls
3213 448 Pls
3214 448 Pls
3214 448 Pls
3215 448 Pls
3215 448 Pls
3216 448 Pls
3216 448 Pls
3217 448 Pls
3218 448 Pls
3218 448 Pls
3219 448 Pls
3219 448 Pls
3220 448 Pls
3221 448 Pls
3221 448 Pls
3222 448 Pls
3222 448 Pls
3223 448 Pls
3223 448 Pls
3224 448 Pls
3225 448 Pls
3225 448 Pls
3226 448 Pls
3226 448 Pls
3227 448 Pls
3227 448 Pls
3228 448 Pls
3229 448 Pls
3229 448 Pls
3230 448 Pls
3230 448 Pls
3231 448 Pls
3231 448 Pls
3232 448 Pls
3232 448 Pls
3233 448 Pls
3234 448 Pls
3234 448 Pls
3235 448 Pls
3235 448 Pls
3236 448 Pls
3236 448 Pls
3237 448 Pls
3237 448 Pls
3238 448 Pls
3239 448 Pls
3239 448 Pls
3240 448 Pls
3240 448 Pls
3241 448 Pls
3241 448 Pls
3242 448 Pls
3242 448 Pls
3243 448 Pls
3244 448 Pls
3244 448 Pls
3245 448 Pls
3245 448 Pls
3246 448 Pls
3246 448 Pls
3247 448 Pls
3247 448 Pls
3248 448 Pls
3248 448 Pls
3249 448 Pls
3249 448 Pls
3250 448 Pls
3251 448 Pls
3251 448 Pls
3252 448 Pls
3252 448 Pls
3253 448 Pls
3253 448 Pls
3254 448 Pls
3254 448 Pls
3255 448 Pls
3255 448 Pls
3256 448 Pls
3256 448 Pls
3257 448 Pls
3257 448 Pls
3258 448 Pls
3258 448 Pls
3259 448 Pls
3259 448 Pls
3260 448 Pls
3261 448 Pls
3261 448 Pls
3262 448 Pls
3262 448 Pls
3263 448 Pls
3263 448 Pls
3264 448 Pls
3264 448 Pls
3265 448 Pls
3265 448 Pls
3266 448 Pls
3266 448 Pls
3267 448 Pls
3267 448 Pls
3268 448 Pls
3268 448 Pls
3269 448 Pls
3269 448 Pls
3270 448 Pls
3270 448 Pls
3271 448 Pls
3271 448 Pls
3272 448 Pls
3272 448 Pls
3273 448 Pls
3273 448 Pls
3274 448 Pls
3274 448 Pls
3275 448 Pls
3275 448 Pls
3276 448 Pls
3276 448 Pls
3277 448 Pls
3277 448 Pls
3278 448 Pls
3278 448 Pls
3279 448 Pls
3279 448 Pls
3280 448 Pls
3280 448 Pls
3281 448 Pls
3281 448 Pls
3282 448 Pls
3282 448 Pls
3283 448 Pls
3283 448 Pls
3284 448 Pls
3284 448 Pls
3285 448 Pls
3285 448 Pls
3286 448 Pls
3286 448 Pls
3287 448 Pls
3287 448 Pls
3288 448 Pls
3288 448 Pls
3289 448 Pls
3289 448 Pls
3290 448 Pls
3290 448 Pls
3290 448 Pls
3291 448 Pls
3291 448 Pls
3292 448 Pls
3292 448 Pls
3293 448 Pls
3293 448 Pls
3294 448 Pls
3294 448 Pls
3295 448 Pls
3295 448 Pls
3296 448 Pls
3296 448 Pls
3297 448 Pls
3297 448 Pls
3298 448 Pls
3298 448 Pls
3299 448 Pls
3299 448 Pls
3300 448 Pls
3300 448 Pls
3300 448 Pls
3301 448 Pls
3301 448 Pls
3302 448 Pls
3302 448 Pls
3303 448 Pls
3303 448 Pls
3304 448 Pls
3304 448 Pls
3305 448 Pls
3305 448 Pls
3306 448 Pls
3306 448 Pls
3306 448 Pls
3307 448 Pls
3307 448 Pls
3308 448 Pls
3308 448 Pls
3309 448 Pls
3309 448 Pls
3310 448 Pls
3310 448 Pls
3311 448 Pls
3311 448 Pls
3312 448 Pls
3312 448 Pls
3312 448 Pls
3313 448 Pls
3313 448 Pls
3314 448 Pls
3314 448 Pls
3315 448 Pls
3315 448 Pls
3316 448 Pls
3316 448 Pls
3316 448 Pls
3317 448 Pls
3317 448 Pls
3318 448 Pls
3318 448 Pls
3319 448 Pls
3319 448 Pls
3320 448 Pls
3320 448 Pls
3320 448 Pls
3321 448 Pls
3321 448 Pls
3322 448 Pls
3322 448 Pls
3323 448 Pls
3323 448 Pls
3324 448 Pls
3324 448 Pls
3324 448 Pls
3325 448 Pls
3325 448 Pls
3326 448 Pls
3326 448 Pls
3327 448 Pls
3327 448 Pls
3328 448 Pls
3328 448 Pls
3328 448 Pls
3329 448 Pls
3329 448 Pls
3330 448 Pls
3330 448 Pls
3331 448 Pls
3331 448 Pls
3331 448 Pls
3332 448 Pls
3332 448 Pls
3333 448 Pls
3333 448 Pls
3334 448 Pls
3334 448 Pls
3334 448 Pls
3335 448 Pls
3335 448 Pls
3336 448 Pls
3336 448 Pls
3337 448 Pls
3337 448 Pls
3337 448 Pls
3338 448 Pls
3338 448 Pls
3339 448 Pls
3339 448 Pls
3340 448 Pls
3340 448 Pls
3340 448 Pls
3341 448 Pls
3341 448 Pls
3342 448 Pls
3342 448 Pls
3342 448 Pls
3343 448 Pls
3343 448 Pls
3344 448 Pls
3344 448 Pls
3345 448 Pls
3345 448 Pls
3345 448 Pls
3346 448 Pls
3346 448 Pls
3347 448 Pls
3347 448 Pls
3347 448 Pls
3348 448 Pls
3348 448 Pls
3349 448 Pls
3349 448 Pls
3350 448 Pls
3350 448 Pls
3350 448 Pls
3351 448 Pls
3351 448 Pls
3352 448 Pls
3352 448 Pls
3352 448 Pls
3353 448 Pls
3353 448 Pls
3354 448 Pls
3354 448 Pls
3354 448 Pls
3355 448 Pls
3355 448 Pls
3356 448 Pls
3356 448 Pls
3356 448 Pls
3357 448 Pls
3357 448 Pls
3358 448 Pls
3358 448 Pls
3358 448 Pls
3359 448 Pls
3359 448 Pls
3360 448 Pls
3360 448 Pls
3360 448 Pls
3361 448 Pls
3361 448 Pls
3362 448 Pls
3362 448 Pls
3362 448 Pls
3363 448 Pls
3363 448 Pls
3364 448 Pls
3364 448 Pls
3364 448 Pls
3365 448 Pls
3365 448 Pls
3366 448 Pls
3366 448 Pls
3366 448 Pls
3367 448 Pls
3367 448 Pls
3368 448 Pls
3368 448 Pls
3368 448 Pls
3369 448 Pls
3369 448 Pls
3370 448 Pls
3370 448 Pls
3370 448 Pls
3371 448 Pls
3371 448 Pls
3371 448 Pls
3372 448 Pls
3372 448 Pls
3373 448 Pls
3373 448 Pls
3373 448 Pls
3374 448 Pls
3374 448 Pls
3375 448 Pls
3375 448 Pls
3375 448 Pls
3376 448 Pls
3376 448 Pls
3376 448 Pls
3377 448 Pls
3377 448 Pls
3378 448 Pls
3378 448 Pls
3378 448 Pls
3379 448 Pls
3379 448 Pls
3380 448 Pls
3380 448 Pls
3380 448 Pls
3381 448 Pls
3381 448 Pls
3381 448 Pls
3382 448 Pls
3382 448 Pls
3383 448 Pls
3383 448 Pls
3383 448 Pls
3384 448 Pls
3384 448 Pls
3384 448 Pls
3385 448 Pls
3385 448 Pls
3386 448 Pls
3386 448 Pls
3386 448 Pls
3387 448 Pls
3387 448 Pls
3387 448 Pls
3388 448 Pls
3388 448 Pls
3389 448 Pls
3389 448 Pls
3389 448 Pls
3390 448 Pls
2582 1901 Pls
1.000 UP
1.000 UL
LT1
LTb
2299 1761 M
(raw_1) Rshow
LT1
2383 1761 M
399 0 V
770 1778 M
262 -471 V
1185 998 L
1294 873 L
84 -302 V
69 90 V
59 -160 V
50 66 V
45 -104 V
39 29 V
36 -15 V
33 -17 V
31 -11 V
28 0 V
26 -1 V
24 34 V
23 -34 V
22 1 V
20 -1 V
19 0 V
19 0 V
17 0 V
17 0 V
16 0 V
16 0 V
15 0 V
14 0 V
14 0 V
13 0 V
13 0 V
12 0 V
12 0 V
12 0 V
11 0 V
11 0 V
11 0 V
10 0 V
10 0 V
10 0 V
9 0 V
10 0 V
9 0 V
9 0 V
8 0 V
9 0 V
8 0 V
8 0 V
8 0 V
8 0 V
8 0 V
7 0 V
8 0 V
7 0 V
7 0 V
7 0 V
7 0 V
6 0 V
7 0 V
6 0 V
7 0 V
6 0 V
6 0 V
6 0 V
6 0 V
6 0 V
6 0 V
5 0 V
6 0 V
5 0 V
6 0 V
5 0 V
6 0 V
5 0 V
5 0 V
5 0 V
5 0 V
5 0 V
5 0 V
5 0 V
4 0 V
5 0 V
5 0 V
4 0 V
5 0 V
4 0 V
5 0 V
4 0 V
4 0 V
5 0 V
4 0 V
4 0 V
4 0 V
4 0 V
4 0 V
4 0 V
4 0 V
4 0 V
4 0 V
4 0 V
4 0 V
3 0 V
4 0 V
4 0 V
4 0 V
3 0 V
4 0 V
3 0 V
4 0 V
stroke 2540 448 M
3 0 V
4 0 V
3 0 V
4 0 V
3 0 V
3 0 V
4 0 V
3 0 V
3 0 V
3 0 V
3 0 V
4 0 V
3 0 V
3 0 V
3 0 V
3 0 V
3 0 V
3 0 V
3 0 V
3 0 V
3 0 V
3 0 V
3 0 V
3 0 V
2 0 V
3 0 V
3 0 V
3 0 V
3 0 V
2 0 V
3 0 V
3 0 V
3 0 V
2 0 V
3 0 V
3 0 V
2 0 V
3 0 V
2 0 V
3 0 V
2 0 V
3 0 V
2 0 V
3 0 V
2 0 V
3 0 V
2 0 V
3 0 V
2 0 V
3 0 V
2 0 V
2 0 V
3 0 V
2 0 V
2 0 V
3 0 V
2 0 V
2 0 V
3 0 V
2 0 V
2 0 V
2 0 V
2 0 V
3 0 V
2 0 V
2 0 V
2 0 V
2 0 V
3 0 V
2 0 V
2 0 V
2 0 V
2 0 V
2 0 V
2 0 V
2 0 V
2 0 V
2 0 V
2 0 V
2 0 V
2 0 V
2 0 V
2 0 V
2 0 V
2 0 V
2 0 V
2 0 V
2 0 V
2 0 V
2 0 V
2 0 V
2 0 V
2 0 V
1 0 V
2 0 V
2 0 V
2 0 V
2 0 V
2 0 V
2 0 V
1 0 V
2 0 V
2 0 V
2 0 V
stroke 2795 448 M
1 0 V
2 0 V
2 0 V
2 0 V
2 0 V
1 0 V
2 0 V
2 0 V
1 0 V
2 0 V
2 0 V
2 0 V
1 0 V
2 0 V
2 0 V
1 0 V
2 0 V
2 0 V
1 0 V
2 0 V
1 0 V
2 0 V
2 0 V
1 0 V
2 0 V
1 0 V
2 0 V
2 0 V
1 0 V
2 0 V
1 0 V
2 0 V
1 0 V
2 0 V
1 0 V
2 0 V
2 0 V
1 0 V
2 0 V
1 0 V
2 0 V
1 0 V
2 0 V
1 0 V
1 0 V
2 0 V
1 0 V
2 0 V
1 0 V
2 0 V
1 0 V
2 0 V
1 0 V
1 0 V
2 0 V
1 0 V
2 0 V
1 0 V
2 0 V
1 0 V
1 0 V
2 0 V
1 0 V
1 0 V
2 0 V
1 0 V
2 0 V
1 0 V
1 0 V
2 0 V
1 0 V
1 0 V
2 0 V
1 0 V
1 0 V
2 0 V
1 0 V
1 0 V
1 0 V
2 0 V
1 0 V
1 0 V
2 0 V
1 0 V
1 0 V
1 0 V
2 0 V
1 0 V
1 0 V
1 0 V
2 0 V
1 0 V
1 0 V
1 0 V
2 0 V
1 0 V
1 0 V
1 0 V
2 0 V
1 0 V
1 0 V
1 0 V
1 0 V
2 0 V
stroke 2946 448 M
1 0 V
1 0 V
1 0 V
1 0 V
2 0 V
1 0 V
1 0 V
1 0 V
1 0 V
1 0 V
2 0 V
1 0 V
1 0 V
1 0 V
1 0 V
1 0 V
1 0 V
2 0 V
1 0 V
1 0 V
1 0 V
1 0 V
1 0 V
1 0 V
1 0 V
1 0 V
2 0 V
1 0 V
1 0 V
1 0 V
1 0 V
1 0 V
1 0 V
1 0 V
1 0 V
1 0 V
1 0 V
2 0 V
1 0 V
1 0 V
1 0 V
1 0 V
1 0 V
1 0 V
1 0 V
1 0 V
1 0 V
1 0 V
1 0 V
1 0 V
1 0 V
1 0 V
1 0 V
1 0 V
1 0 V
1 0 V
1 0 V
1 0 V
1 0 V
1 0 V
1 0 V
1 0 V
1 0 V
1 0 V
1 0 V
1 0 V
1 0 V
1 0 V
1 0 V
1 0 V
1 0 V
1 0 V
1 0 V
1 0 V
1 0 V
1 0 V
1 0 V
1 0 V
1 0 V
1 0 V
1 0 V
1 0 V
1 0 V
1 0 V
1 0 V
1 0 V
1 0 V
1 0 V
1 0 V
1 0 V
1 0 V
1 0 V
1 0 V
1 0 V
1 0 V
1 0 V
1 0 V
1 0 V
1 0 V
1 0 V
1 0 V
1 0 V
1 0 V
1 0 V
stroke 3055 448 M
1 0 V
1 0 V
1 0 V
1 0 V
1 0 V
1 0 V
1 0 V
1 0 V
1 0 V
1 0 V
1 0 V
1 0 V
1 0 V
1 0 V
1 0 V
1 0 V
1 0 V
1 0 V
1 0 V
1 0 V
1 0 V
1 0 V
1 0 V
1 0 V
1 0 V
1 0 V
1 0 V
1 0 V
1 0 V
1 0 V
1 0 V
1 0 V
1 0 V
1 0 V
1 0 V
1 0 V
1 0 V
1 0 V
1 0 V
1 0 V
1 0 V
1 0 V
1 0 V
1 0 V
1 0 V
1 0 V
1 0 V
1 0 V
1 0 V
1 0 V
1 0 V
1 0 V
1 0 V
1 0 V
1 0 V
1 0 V
1 0 V
1 0 V
1 0 V
1 0 V
1 0 V
1 0 V
1 0 V
1 0 V
1 0 V
1 0 V
1 0 V
1 0 V
1 0 V
1 0 V
1 0 V
1 0 V
1 0 V
1 0 V
1 0 V
1 0 V
1 0 V
1 0 V
1 0 V
1 0 V
1 0 V
1 0 V
1 0 V
1 0 V
1 0 V
1 0 V
1 0 V
1 0 V
1 0 V
1 0 V
1 0 V
1 0 V
1 0 V
1 0 V
1 0 V
1 0 V
1 0 V
1 0 V
1 0 V
1 0 V
1 0 V
1 0 V
1 0 V
1 0 V
stroke 3159 448 M
1 0 V
1 0 V
1 0 V
1 0 V
1 0 V
1 0 V
1 0 V
1 0 V
1 0 V
1 0 V
1 0 V
1 0 V
1 0 V
1 0 V
1 0 V
1 0 V
1 0 V
1 0 V
1 0 V
1 0 V
1 0 V
1 0 V
1 0 V
1 0 V
1 0 V
1 0 V
1 0 V
1 0 V
1 0 V
1 0 V
1 0 V
1 0 V
1 0 V
1 0 V
1 0 V
1 0 V
1 0 V
1 0 V
1 0 V
1 0 V
1 0 V
1 0 V
1 0 V
1 0 V
1 0 V
1 0 V
1 0 V
1 0 V
1 0 V
1 0 V
1 0 V
1 0 V
1 0 V
1 0 V
1 0 V
1 0 V
1 0 V
1 0 V
1 0 V
1 0 V
1 0 V
1 0 V
1 0 V
1 0 V
1 0 V
1 0 V
1 0 V
1 0 V
1 0 V
1 0 V
1 0 V
1 0 V
1 0 V
1 0 V
1 0 V
1 0 V
1 0 V
1 0 V
1 0 V
1 0 V
1 0 V
1 0 V
1 0 V
1 0 V
1 0 V
1 0 V
1 0 V
1 0 V
1 0 V
1 0 V
1 0 V
1 0 V
1 0 V
1 0 V
1 0 V
1 0 V
1 0 V
1 0 V
1 0 V
1 0 V
1 0 V
1 0 V
1 0 V
1 0 V
stroke 3263 448 M
1 0 V
1 0 V
1 0 V
1 0 V
1 0 V
1 0 V
1 0 V
1 0 V
1 0 V
1 0 V
1 0 V
1 0 V
1 0 V
1 0 V
1 0 V
1 0 V
1 0 V
1 0 V
1 0 V
1 0 V
1 0 V
1 0 V
1 0 V
1 0 V
1 0 V
1 0 V
1 0 V
1 0 V
1 0 V
1 0 V
1 0 V
1 0 V
1 0 V
1 0 V
1 0 V
1 0 V
1 0 V
1 0 V
1 0 V
1 0 V
1 0 V
1 0 V
1 0 V
1 0 V
1 0 V
1 0 V
1 0 V
1 0 V
1 0 V
1 0 V
1 0 V
1 0 V
1 0 V
1 0 V
1 0 V
1 0 V
1 0 V
1 0 V
1 0 V
1 0 V
1 0 V
1 0 V
1 0 V
1 0 V
1 0 V
1 0 V
1 0 V
1 0 V
1 0 V
1 0 V
1 0 V
1 0 V
1 0 V
1 0 V
1 0 V
1 0 V
1 0 V
1 0 V
1 0 V
1 0 V
1 0 V
1 0 V
1 0 V
1 0 V
1 0 V
1 0 V
1 0 V
1 0 V
1 0 V
1 0 V
1 0 V
1 0 V
1 0 V
1 0 V
1 0 V
1 0 V
1 0 V
1 0 V
1 0 V
1 0 V
1 0 V
1 0 V
1 0 V
1 0 V
stroke 3367 448 M
1 0 V
1 0 V
1 0 V
1 0 V
1 0 V
1 0 V
1 0 V
1 0 V
1 0 V
1 0 V
1 0 V
1 0 V
1 0 V
1 0 V
1 0 V
1 0 V
1 0 V
1 0 V
1 0 V
1 0 V
1 0 V
1 0 V
1 0 V
770 1778 Crs
1032 1307 Crs
1185 998 Crs
1294 873 Crs
1378 571 Crs
1447 661 Crs
1506 501 Crs
1556 567 Crs
1601 463 Crs
1640 492 Crs
1676 477 Crs
1709 460 Crs
1740 449 Crs
1768 449 Crs
1794 448 Crs
1818 482 Crs
1841 448 Crs
1863 449 Crs
1883 448 Crs
1902 448 Crs
1921 448 Crs
1938 448 Crs
1955 448 Crs
1971 448 Crs
1987 448 Crs
2002 448 Crs
2016 448 Crs
2030 448 Crs
2043 448 Crs
2056 448 Crs
2068 448 Crs
2080 448 Crs
2092 448 Crs
2103 448 Crs
2114 448 Crs
2125 448 Crs
2135 448 Crs
2145 448 Crs
2155 448 Crs
2164 448 Crs
2174 448 Crs
2183 448 Crs
2192 448 Crs
2200 448 Crs
2209 448 Crs
2217 448 Crs
2225 448 Crs
2233 448 Crs
2241 448 Crs
2249 448 Crs
2256 448 Crs
2264 448 Crs
2271 448 Crs
2278 448 Crs
2285 448 Crs
2292 448 Crs
2298 448 Crs
2305 448 Crs
2311 448 Crs
2318 448 Crs
2324 448 Crs
2330 448 Crs
2336 448 Crs
2342 448 Crs
2348 448 Crs
2354 448 Crs
2359 448 Crs
2365 448 Crs
2370 448 Crs
2376 448 Crs
2381 448 Crs
2387 448 Crs
2392 448 Crs
2397 448 Crs
2402 448 Crs
2407 448 Crs
2412 448 Crs
2417 448 Crs
2422 448 Crs
2426 448 Crs
2431 448 Crs
2436 448 Crs
2440 448 Crs
2445 448 Crs
2449 448 Crs
2454 448 Crs
2458 448 Crs
2462 448 Crs
2467 448 Crs
2471 448 Crs
2475 448 Crs
2479 448 Crs
2483 448 Crs
2487 448 Crs
2491 448 Crs
2495 448 Crs
2499 448 Crs
2503 448 Crs
2507 448 Crs
2511 448 Crs
2514 448 Crs
2518 448 Crs
2522 448 Crs
2526 448 Crs
2529 448 Crs
2533 448 Crs
2536 448 Crs
2540 448 Crs
2543 448 Crs
2547 448 Crs
2550 448 Crs
2554 448 Crs
2557 448 Crs
2560 448 Crs
2564 448 Crs
2567 448 Crs
2570 448 Crs
2573 448 Crs
2576 448 Crs
2580 448 Crs
2583 448 Crs
2586 448 Crs
2589 448 Crs
2592 448 Crs
2595 448 Crs
2598 448 Crs
2601 448 Crs
2604 448 Crs
2607 448 Crs
2610 448 Crs
2613 448 Crs
2616 448 Crs
2618 448 Crs
2621 448 Crs
2624 448 Crs
2627 448 Crs
2630 448 Crs
2632 448 Crs
2635 448 Crs
2638 448 Crs
2641 448 Crs
2643 448 Crs
2646 448 Crs
2649 448 Crs
2651 448 Crs
2654 448 Crs
2656 448 Crs
2659 448 Crs
2661 448 Crs
2664 448 Crs
2666 448 Crs
2669 448 Crs
2671 448 Crs
2674 448 Crs
2676 448 Crs
2679 448 Crs
2681 448 Crs
2684 448 Crs
2686 448 Crs
2688 448 Crs
2691 448 Crs
2693 448 Crs
2695 448 Crs
2698 448 Crs
2700 448 Crs
2702 448 Crs
2705 448 Crs
2707 448 Crs
2709 448 Crs
2711 448 Crs
2713 448 Crs
2716 448 Crs
2718 448 Crs
2720 448 Crs
2722 448 Crs
2724 448 Crs
2727 448 Crs
2729 448 Crs
2731 448 Crs
2733 448 Crs
2735 448 Crs
2737 448 Crs
2739 448 Crs
2741 448 Crs
2743 448 Crs
2745 448 Crs
2747 448 Crs
2749 448 Crs
2751 448 Crs
2753 448 Crs
2755 448 Crs
2757 448 Crs
2759 448 Crs
2761 448 Crs
2763 448 Crs
2765 448 Crs
2767 448 Crs
2769 448 Crs
2771 448 Crs
2773 448 Crs
2775 448 Crs
2776 448 Crs
2778 448 Crs
2780 448 Crs
2782 448 Crs
2784 448 Crs
2786 448 Crs
2788 448 Crs
2789 448 Crs
2791 448 Crs
2793 448 Crs
2795 448 Crs
2796 448 Crs
2798 448 Crs
2800 448 Crs
2802 448 Crs
2804 448 Crs
2805 448 Crs
2807 448 Crs
2809 448 Crs
2810 448 Crs
2812 448 Crs
2814 448 Crs
2816 448 Crs
2817 448 Crs
2819 448 Crs
2821 448 Crs
2822 448 Crs
2824 448 Crs
2826 448 Crs
2827 448 Crs
2829 448 Crs
2830 448 Crs
2832 448 Crs
2834 448 Crs
2835 448 Crs
2837 448 Crs
2838 448 Crs
2840 448 Crs
2842 448 Crs
2843 448 Crs
2845 448 Crs
2846 448 Crs
2848 448 Crs
2849 448 Crs
2851 448 Crs
2852 448 Crs
2854 448 Crs
2856 448 Crs
2857 448 Crs
2859 448 Crs
2860 448 Crs
2862 448 Crs
2863 448 Crs
2865 448 Crs
2866 448 Crs
2867 448 Crs
2869 448 Crs
2870 448 Crs
2872 448 Crs
2873 448 Crs
2875 448 Crs
2876 448 Crs
2878 448 Crs
2879 448 Crs
2880 448 Crs
2882 448 Crs
2883 448 Crs
2885 448 Crs
2886 448 Crs
2888 448 Crs
2889 448 Crs
2890 448 Crs
2892 448 Crs
2893 448 Crs
2894 448 Crs
2896 448 Crs
2897 448 Crs
2899 448 Crs
2900 448 Crs
2901 448 Crs
2903 448 Crs
2904 448 Crs
2905 448 Crs
2907 448 Crs
2908 448 Crs
2909 448 Crs
2911 448 Crs
2912 448 Crs
2913 448 Crs
2914 448 Crs
2916 448 Crs
2917 448 Crs
2918 448 Crs
2920 448 Crs
2921 448 Crs
2922 448 Crs
2923 448 Crs
2925 448 Crs
2926 448 Crs
2927 448 Crs
2928 448 Crs
2930 448 Crs
2931 448 Crs
2932 448 Crs
2933 448 Crs
2935 448 Crs
2936 448 Crs
2937 448 Crs
2938 448 Crs
2940 448 Crs
2941 448 Crs
2942 448 Crs
2943 448 Crs
2944 448 Crs
2946 448 Crs
2947 448 Crs
2948 448 Crs
2949 448 Crs
2950 448 Crs
2952 448 Crs
2953 448 Crs
2954 448 Crs
2955 448 Crs
2956 448 Crs
2957 448 Crs
2959 448 Crs
2960 448 Crs
2961 448 Crs
2962 448 Crs
2963 448 Crs
2964 448 Crs
2965 448 Crs
2967 448 Crs
2968 448 Crs
2969 448 Crs
2970 448 Crs
2971 448 Crs
2972 448 Crs
2973 448 Crs
2974 448 Crs
2975 448 Crs
2977 448 Crs
2978 448 Crs
2979 448 Crs
2980 448 Crs
2981 448 Crs
2982 448 Crs
2983 448 Crs
2984 448 Crs
2985 448 Crs
2986 448 Crs
2987 448 Crs
2989 448 Crs
2990 448 Crs
2991 448 Crs
2992 448 Crs
2993 448 Crs
2994 448 Crs
2995 448 Crs
2996 448 Crs
2997 448 Crs
2998 448 Crs
2999 448 Crs
3000 448 Crs
3001 448 Crs
3002 448 Crs
3003 448 Crs
3004 448 Crs
3005 448 Crs
3006 448 Crs
3007 448 Crs
3008 448 Crs
3009 448 Crs
3010 448 Crs
3011 448 Crs
3012 448 Crs
3013 448 Crs
3014 448 Crs
3015 448 Crs
3016 448 Crs
3017 448 Crs
3018 448 Crs
3019 448 Crs
3020 448 Crs
3021 448 Crs
3022 448 Crs
3023 448 Crs
3024 448 Crs
3025 448 Crs
3026 448 Crs
3027 448 Crs
3028 448 Crs
3029 448 Crs
3030 448 Crs
3031 448 Crs
3032 448 Crs
3033 448 Crs
3034 448 Crs
3035 448 Crs
3036 448 Crs
3037 448 Crs
3038 448 Crs
3038 448 Crs
3039 448 Crs
3040 448 Crs
3041 448 Crs
3042 448 Crs
3043 448 Crs
3044 448 Crs
3045 448 Crs
3046 448 Crs
3047 448 Crs
3048 448 Crs
3049 448 Crs
3050 448 Crs
3050 448 Crs
3051 448 Crs
3052 448 Crs
3053 448 Crs
3054 448 Crs
3055 448 Crs
3056 448 Crs
3057 448 Crs
3058 448 Crs
3058 448 Crs
3059 448 Crs
3060 448 Crs
3061 448 Crs
3062 448 Crs
3063 448 Crs
3064 448 Crs
3065 448 Crs
3066 448 Crs
3066 448 Crs
3067 448 Crs
3068 448 Crs
3069 448 Crs
3070 448 Crs
3071 448 Crs
3072 448 Crs
3072 448 Crs
3073 448 Crs
3074 448 Crs
3075 448 Crs
3076 448 Crs
3077 448 Crs
3078 448 Crs
3078 448 Crs
3079 448 Crs
3080 448 Crs
3081 448 Crs
3082 448 Crs
3083 448 Crs
3083 448 Crs
3084 448 Crs
3085 448 Crs
3086 448 Crs
3087 448 Crs
3088 448 Crs
3088 448 Crs
3089 448 Crs
3090 448 Crs
3091 448 Crs
3092 448 Crs
3092 448 Crs
3093 448 Crs
3094 448 Crs
3095 448 Crs
3096 448 Crs
3096 448 Crs
3097 448 Crs
3098 448 Crs
3099 448 Crs
3100 448 Crs
3100 448 Crs
3101 448 Crs
3102 448 Crs
3103 448 Crs
3104 448 Crs
3104 448 Crs
3105 448 Crs
3106 448 Crs
3107 448 Crs
3108 448 Crs
3108 448 Crs
3109 448 Crs
3110 448 Crs
3111 448 Crs
3111 448 Crs
3112 448 Crs
3113 448 Crs
3114 448 Crs
3114 448 Crs
3115 448 Crs
3116 448 Crs
3117 448 Crs
3118 448 Crs
3118 448 Crs
3119 448 Crs
3120 448 Crs
3121 448 Crs
3121 448 Crs
3122 448 Crs
3123 448 Crs
3124 448 Crs
3124 448 Crs
3125 448 Crs
3126 448 Crs
3127 448 Crs
3127 448 Crs
3128 448 Crs
3129 448 Crs
3129 448 Crs
3130 448 Crs
3131 448 Crs
3132 448 Crs
3132 448 Crs
3133 448 Crs
3134 448 Crs
3135 448 Crs
3135 448 Crs
3136 448 Crs
3137 448 Crs
3137 448 Crs
3138 448 Crs
3139 448 Crs
3140 448 Crs
3140 448 Crs
3141 448 Crs
3142 448 Crs
3142 448 Crs
3143 448 Crs
3144 448 Crs
3145 448 Crs
3145 448 Crs
3146 448 Crs
3147 448 Crs
3147 448 Crs
3148 448 Crs
3149 448 Crs
3150 448 Crs
3150 448 Crs
3151 448 Crs
3152 448 Crs
3152 448 Crs
3153 448 Crs
3154 448 Crs
3154 448 Crs
3155 448 Crs
3156 448 Crs
3156 448 Crs
3157 448 Crs
3158 448 Crs
3158 448 Crs
3159 448 Crs
3160 448 Crs
3161 448 Crs
3161 448 Crs
3162 448 Crs
3163 448 Crs
3163 448 Crs
3164 448 Crs
3165 448 Crs
3165 448 Crs
3166 448 Crs
3167 448 Crs
3167 448 Crs
3168 448 Crs
3169 448 Crs
3169 448 Crs
3170 448 Crs
3171 448 Crs
3171 448 Crs
3172 448 Crs
3173 448 Crs
3173 448 Crs
3174 448 Crs
3174 448 Crs
3175 448 Crs
3176 448 Crs
3176 448 Crs
3177 448 Crs
3178 448 Crs
3178 448 Crs
3179 448 Crs
3180 448 Crs
3180 448 Crs
3181 448 Crs
3182 448 Crs
3182 448 Crs
3183 448 Crs
3184 448 Crs
3184 448 Crs
3185 448 Crs
3185 448 Crs
3186 448 Crs
3187 448 Crs
3187 448 Crs
3188 448 Crs
3189 448 Crs
3189 448 Crs
3190 448 Crs
3190 448 Crs
3191 448 Crs
3192 448 Crs
3192 448 Crs
3193 448 Crs
3194 448 Crs
3194 448 Crs
3195 448 Crs
3195 448 Crs
3196 448 Crs
3197 448 Crs
3197 448 Crs
3198 448 Crs
3199 448 Crs
3199 448 Crs
3200 448 Crs
3200 448 Crs
3201 448 Crs
3202 448 Crs
3202 448 Crs
3203 448 Crs
3203 448 Crs
3204 448 Crs
3205 448 Crs
3205 448 Crs
3206 448 Crs
3206 448 Crs
3207 448 Crs
3208 448 Crs
3208 448 Crs
3209 448 Crs
3209 448 Crs
3210 448 Crs
3211 448 Crs
3211 448 Crs
3212 448 Crs
3212 448 Crs
3213 448 Crs
3214 448 Crs
3214 448 Crs
3215 448 Crs
3215 448 Crs
3216 448 Crs
3216 448 Crs
3217 448 Crs
3218 448 Crs
3218 448 Crs
3219 448 Crs
3219 448 Crs
3220 448 Crs
3221 448 Crs
3221 448 Crs
3222 448 Crs
3222 448 Crs
3223 448 Crs
3223 448 Crs
3224 448 Crs
3225 448 Crs
3225 448 Crs
3226 448 Crs
3226 448 Crs
3227 448 Crs
3227 448 Crs
3228 448 Crs
3229 448 Crs
3229 448 Crs
3230 448 Crs
3230 448 Crs
3231 448 Crs
3231 448 Crs
3232 448 Crs
3232 448 Crs
3233 448 Crs
3234 448 Crs
3234 448 Crs
3235 448 Crs
3235 448 Crs
3236 448 Crs
3236 448 Crs
3237 448 Crs
3237 448 Crs
3238 448 Crs
3239 448 Crs
3239 448 Crs
3240 448 Crs
3240 448 Crs
3241 448 Crs
3241 448 Crs
3242 448 Crs
3242 448 Crs
3243 448 Crs
3244 448 Crs
3244 448 Crs
3245 448 Crs
3245 448 Crs
3246 448 Crs
3246 448 Crs
3247 448 Crs
3247 448 Crs
3248 448 Crs
3248 448 Crs
3249 448 Crs
3249 448 Crs
3250 448 Crs
3251 448 Crs
3251 448 Crs
3252 448 Crs
3252 448 Crs
3253 448 Crs
3253 448 Crs
3254 448 Crs
3254 448 Crs
3255 448 Crs
3255 448 Crs
3256 448 Crs
3256 448 Crs
3257 448 Crs
3257 448 Crs
3258 448 Crs
3258 448 Crs
3259 448 Crs
3259 448 Crs
3260 448 Crs
3261 448 Crs
3261 448 Crs
3262 448 Crs
3262 448 Crs
3263 448 Crs
3263 448 Crs
3264 448 Crs
3264 448 Crs
3265 448 Crs
3265 448 Crs
3266 448 Crs
3266 448 Crs
3267 448 Crs
3267 448 Crs
3268 448 Crs
3268 448 Crs
3269 448 Crs
3269 448 Crs
3270 448 Crs
3270 448 Crs
3271 448 Crs
3271 448 Crs
3272 448 Crs
3272 448 Crs
3273 448 Crs
3273 448 Crs
3274 448 Crs
3274 448 Crs
3275 448 Crs
3275 448 Crs
3276 448 Crs
3276 448 Crs
3277 448 Crs
3277 448 Crs
3278 448 Crs
3278 448 Crs
3279 448 Crs
3279 448 Crs
3280 448 Crs
3280 448 Crs
3281 448 Crs
3281 448 Crs
3282 448 Crs
3282 448 Crs
3283 448 Crs
3283 448 Crs
3284 448 Crs
3284 448 Crs
3285 448 Crs
3285 448 Crs
3286 448 Crs
3286 448 Crs
3287 448 Crs
3287 448 Crs
3288 448 Crs
3288 448 Crs
3289 448 Crs
3289 448 Crs
3290 448 Crs
3290 448 Crs
3290 448 Crs
3291 448 Crs
3291 448 Crs
3292 448 Crs
3292 448 Crs
3293 448 Crs
3293 448 Crs
3294 448 Crs
3294 448 Crs
3295 448 Crs
3295 448 Crs
3296 448 Crs
3296 448 Crs
3297 448 Crs
3297 448 Crs
3298 448 Crs
3298 448 Crs
3299 448 Crs
3299 448 Crs
3300 448 Crs
3300 448 Crs
3300 448 Crs
3301 448 Crs
3301 448 Crs
3302 448 Crs
3302 448 Crs
3303 448 Crs
3303 448 Crs
3304 448 Crs
3304 448 Crs
3305 448 Crs
3305 448 Crs
3306 448 Crs
3306 448 Crs
3306 448 Crs
3307 448 Crs
3307 448 Crs
3308 448 Crs
3308 448 Crs
3309 448 Crs
3309 448 Crs
3310 448 Crs
3310 448 Crs
3311 448 Crs
3311 448 Crs
3312 448 Crs
3312 448 Crs
3312 448 Crs
3313 448 Crs
3313 448 Crs
3314 448 Crs
3314 448 Crs
3315 448 Crs
3315 448 Crs
3316 448 Crs
3316 448 Crs
3316 448 Crs
3317 448 Crs
3317 448 Crs
3318 448 Crs
3318 448 Crs
3319 448 Crs
3319 448 Crs
3320 448 Crs
3320 448 Crs
3320 448 Crs
3321 448 Crs
3321 448 Crs
3322 448 Crs
3322 448 Crs
3323 448 Crs
3323 448 Crs
3324 448 Crs
3324 448 Crs
3324 448 Crs
3325 448 Crs
3325 448 Crs
3326 448 Crs
3326 448 Crs
3327 448 Crs
3327 448 Crs
3328 448 Crs
3328 448 Crs
3328 448 Crs
3329 448 Crs
3329 448 Crs
3330 448 Crs
3330 448 Crs
3331 448 Crs
3331 448 Crs
3331 448 Crs
3332 448 Crs
3332 448 Crs
3333 448 Crs
3333 448 Crs
3334 448 Crs
3334 448 Crs
3334 448 Crs
3335 448 Crs
3335 448 Crs
3336 448 Crs
3336 448 Crs
3337 448 Crs
3337 448 Crs
3337 448 Crs
3338 448 Crs
3338 448 Crs
3339 448 Crs
3339 448 Crs
3340 448 Crs
3340 448 Crs
3340 448 Crs
3341 448 Crs
3341 448 Crs
3342 448 Crs
3342 448 Crs
3342 448 Crs
3343 448 Crs
3343 448 Crs
3344 448 Crs
3344 448 Crs
3345 448 Crs
3345 448 Crs
3345 448 Crs
3346 448 Crs
3346 448 Crs
3347 448 Crs
3347 448 Crs
3347 448 Crs
3348 448 Crs
3348 448 Crs
3349 448 Crs
3349 448 Crs
3350 448 Crs
3350 448 Crs
3350 448 Crs
3351 448 Crs
3351 448 Crs
3352 448 Crs
3352 448 Crs
3352 448 Crs
3353 448 Crs
3353 448 Crs
3354 448 Crs
3354 448 Crs
3354 448 Crs
3355 448 Crs
3355 448 Crs
3356 448 Crs
3356 448 Crs
3356 448 Crs
3357 448 Crs
3357 448 Crs
3358 448 Crs
3358 448 Crs
3358 448 Crs
3359 448 Crs
3359 448 Crs
3360 448 Crs
3360 448 Crs
3360 448 Crs
3361 448 Crs
3361 448 Crs
3362 448 Crs
3362 448 Crs
3362 448 Crs
3363 448 Crs
3363 448 Crs
3364 448 Crs
3364 448 Crs
3364 448 Crs
3365 448 Crs
3365 448 Crs
3366 448 Crs
3366 448 Crs
3366 448 Crs
3367 448 Crs
3367 448 Crs
3368 448 Crs
3368 448 Crs
3368 448 Crs
3369 448 Crs
3369 448 Crs
3370 448 Crs
3370 448 Crs
3370 448 Crs
3371 448 Crs
3371 448 Crs
3371 448 Crs
3372 448 Crs
3372 448 Crs
3373 448 Crs
3373 448 Crs
3373 448 Crs
3374 448 Crs
3374 448 Crs
3375 448 Crs
3375 448 Crs
3375 448 Crs
3376 448 Crs
3376 448 Crs
3376 448 Crs
3377 448 Crs
3377 448 Crs
3378 448 Crs
3378 448 Crs
3378 448 Crs
3379 448 Crs
3379 448 Crs
3380 448 Crs
3380 448 Crs
3380 448 Crs
3381 448 Crs
3381 448 Crs
3381 448 Crs
3382 448 Crs
3382 448 Crs
3383 448 Crs
3383 448 Crs
3383 448 Crs
3384 448 Crs
3384 448 Crs
3384 448 Crs
3385 448 Crs
3385 448 Crs
3386 448 Crs
3386 448 Crs
3386 448 Crs
3387 448 Crs
3387 448 Crs
3387 448 Crs
3388 448 Crs
3388 448 Crs
3389 448 Crs
3389 448 Crs
3389 448 Crs
3390 448 Crs
2582 1761 Crs
1.000 UL
LTb
770 2352 N
770 448 L
2620 0 V
0 1904 V
-2620 0 V
Z stroke
1.000 UP
1.000 UL
LTb
stroke
grestore
end
showpage
%%Trailer
%%DocumentFonts: Helvetica
