<?xml version="1.0" encoding="UTF-8" standalone="no"?>
<!-- Created with Inkscape (http://www.inkscape.org/) -->

<svg
   xmlns:dc="http://purl.org/dc/elements/1.1/"
   xmlns:cc="http://creativecommons.org/ns#"
   xmlns:rdf="http://www.w3.org/1999/02/22-rdf-syntax-ns#"
   xmlns:svg="http://www.w3.org/2000/svg"
   xmlns="http://www.w3.org/2000/svg"
   xmlns:sodipodi="http://sodipodi.sourceforge.net/DTD/sodipodi-0.dtd"
   xmlns:inkscape="http://www.inkscape.org/namespaces/inkscape"
   width="210mm"
   height="297mm"
   viewBox="0 0 210 297"
   version="1.1"
   id="svg8"
   inkscape:version="0.92.2 (5c3e80d, 2017-08-06)"
   sodipodi:docname="overview-int-body-component.svg">
  <defs
     id="defs2">
    <marker
       inkscape:stockid="Arrow1Mstart"
       orient="auto"
       refY="0.0"
       refX="0.0"
       id="marker2235"
       style="overflow:visible"
       inkscape:isstock="true">
      <path
         id="path2233"
         d="M 0.0,0.0 L 5.0,-5.0 L -12.5,0.0 L 5.0,5.0 L 0.0,0.0 z "
         style="fill-rule:evenodd;stroke:#000000;stroke-width:1pt;stroke-opacity:1;fill:#000000;fill-opacity:1"
         transform="scale(0.4) translate(10,0)" />
    </marker>
    <marker
       inkscape:isstock="true"
       style="overflow:visible"
       id="marker2165"
       refX="0.0"
       refY="0.0"
       orient="auto"
       inkscape:stockid="Arrow1Mstart"
       inkscape:collect="always">
      <path
         transform="scale(0.4) translate(10,0)"
         style="fill-rule:evenodd;stroke:#000000;stroke-width:1pt;stroke-opacity:1;fill:#000000;fill-opacity:1"
         d="M 0.0,0.0 L 5.0,-5.0 L -12.5,0.0 L 5.0,5.0 L 0.0,0.0 z "
         id="path2163" />
    </marker>
    <marker
       inkscape:stockid="Arrow1Mstart"
       orient="auto"
       refY="0.0"
       refX="0.0"
       id="marker2101"
       style="overflow:visible"
       inkscape:isstock="true"
       inkscape:collect="always">
      <path
         id="path2099"
         d="M 0.0,0.0 L 5.0,-5.0 L -12.5,0.0 L 5.0,5.0 L 0.0,0.0 z "
         style="fill-rule:evenodd;stroke:#000000;stroke-width:1pt;stroke-opacity:1;fill:#000000;fill-opacity:1"
         transform="scale(0.4) translate(10,0)" />
    </marker>
    <marker
       inkscape:stockid="Arrow1Sstart"
       orient="auto"
       refY="0.0"
       refX="0.0"
       id="Arrow1Sstart"
       style="overflow:visible"
       inkscape:isstock="true">
      <path
         id="path1583"
         d="M 0.0,0.0 L 5.0,-5.0 L -12.5,0.0 L 5.0,5.0 L 0.0,0.0 z "
         style="fill-rule:evenodd;stroke:#000000;stroke-width:1pt;stroke-opacity:1;fill:#000000;fill-opacity:1"
         transform="scale(0.2) translate(6,0)" />
    </marker>
    <marker
       inkscape:stockid="Arrow2Mend"
       orient="auto"
       refY="0.0"
       refX="0.0"
       id="Arrow2Mend"
       style="overflow:visible;"
       inkscape:isstock="true">
      <path
         id="path1598"
         style="fill-rule:evenodd;stroke-width:0.625;stroke-linejoin:round;stroke:#000000;stroke-opacity:1;fill:#000000;fill-opacity:1"
         d="M 8.7185878,4.0337352 L -2.2072895,0.016013256 L 8.7185884,-4.0017078 C 6.9730900,-1.6296469 6.9831476,1.6157441 8.7185878,4.0337352 z "
         transform="scale(0.6) rotate(180) translate(0,0)" />
    </marker>
    <marker
       inkscape:stockid="Arrow2Lend"
       orient="auto"
       refY="0.0"
       refX="0.0"
       id="Arrow2Lend"
       style="overflow:visible;"
       inkscape:isstock="true">
      <path
         id="path1592"
         style="fill-rule:evenodd;stroke-width:0.625;stroke-linejoin:round;stroke:#000000;stroke-opacity:1;fill:#000000;fill-opacity:1"
         d="M 8.7185878,4.0337352 L -2.2072895,0.016013256 L 8.7185884,-4.0017078 C 6.9730900,-1.6296469 6.9831476,1.6157441 8.7185878,4.0337352 z "
         transform="scale(1.1) rotate(180) translate(1,0)" />
    </marker>
    <marker
       inkscape:stockid="Arrow1Mstart"
       orient="auto"
       refY="0.0"
       refX="0.0"
       id="Arrow1Mstart"
       style="overflow:visible"
       inkscape:isstock="true">
      <path
         id="path1577"
         d="M 0.0,0.0 L 5.0,-5.0 L -12.5,0.0 L 5.0,5.0 L 0.0,0.0 z "
         style="fill-rule:evenodd;stroke:#000000;stroke-width:1pt;stroke-opacity:1;fill:#000000;fill-opacity:1"
         transform="scale(0.4) translate(10,0)" />
    </marker>
    <marker
       inkscape:stockid="Arrow1Lstart"
       orient="auto"
       refY="0.0"
       refX="0.0"
       id="Arrow1Lstart"
       style="overflow:visible"
       inkscape:isstock="true">
      <path
         id="path1571"
         d="M 0.0,0.0 L 5.0,-5.0 L -12.5,0.0 L 5.0,5.0 L 0.0,0.0 z "
         style="fill-rule:evenodd;stroke:#000000;stroke-width:1pt;stroke-opacity:1;fill:#000000;fill-opacity:1"
         transform="scale(0.8) translate(12.5,0)" />
    </marker>
    <marker
       inkscape:stockid="Arrow1Lend"
       orient="auto"
       refY="0.0"
       refX="0.0"
       id="Arrow1Lend"
       style="overflow:visible;"
       inkscape:isstock="true">
      <path
         id="path1574"
         d="M 0.0,0.0 L 5.0,-5.0 L -12.5,0.0 L 5.0,5.0 L 0.0,0.0 z "
         style="fill-rule:evenodd;stroke:#000000;stroke-width:1pt;stroke-opacity:1;fill:#000000;fill-opacity:1"
         transform="scale(0.8) rotate(180) translate(12.5,0)" />
    </marker>
    <marker
       inkscape:stockid="Arrow1Mstart"
       orient="auto"
       refY="0"
       refX="0"
       id="marker2101-9"
       style="overflow:visible"
       inkscape:isstock="true"
       inkscape:collect="always">
      <path
         inkscape:connector-curvature="0"
         id="path2099-2"
         d="M 0,0 5,-5 -12.5,0 5,5 Z"
         style="fill:#000000;fill-opacity:1;fill-rule:evenodd;stroke:#000000;stroke-width:1.00000003pt;stroke-opacity:1"
         transform="matrix(0.4,0,0,0.4,4,0)" />
    </marker>
  </defs>
  <sodipodi:namedview
     id="base"
     pagecolor="#ffffff"
     bordercolor="#666666"
     borderopacity="1.0"
     inkscape:pageopacity="0.0"
     inkscape:pageshadow="2"
     inkscape:zoom="2.2397186"
     inkscape:cx="457.06227"
     inkscape:cy="962.05997"
     inkscape:document-units="mm"
     inkscape:current-layer="layer1"
     showgrid="true"
     inkscape:window-width="1280"
     inkscape:window-height="987"
     inkscape:window-x="5760"
     inkscape:window-y="1136"
     inkscape:window-maximized="1">
    <inkscape:grid
       type="xygrid"
       id="grid815" />
  </sodipodi:namedview>
  <metadata
     id="metadata5">
    <rdf:RDF>
      <cc:Work
         rdf:about="">
        <dc:format>image/svg+xml</dc:format>
        <dc:type
           rdf:resource="http://purl.org/dc/dcmitype/StillImage" />
        <dc:title />
      </cc:Work>
    </rdf:RDF>
  </metadata>
  <g
     inkscape:label="レイヤー 1"
     inkscape:groupmode="layer"
     id="layer1">
    <g
       id="g946"
       transform="translate(52.916668,1.3229192)">
      <path
         inkscape:connector-curvature="0"
         id="rect819"
         d="m 27.78125,29.770833 c 1.773325,0 3.546649,0 5.319974,0 0,3.96875 0,7.937501 0,11.90625 -1.773325,0 -3.546649,0 -5.319974,0 0,-3.968749 0,-7.9375 0,-11.90625 z"
         style="fill:none;fill-opacity:1;stroke:#000000;stroke-width:0.20053419;stroke-miterlimit:4;stroke-dasharray:none;stroke-dashoffset:0" />
      <path
         inkscape:connector-curvature="0"
         id="text883"
         d="m 28.584729,34.274434 c 0.278639,-0.0552 0.420852,0.02602 0.347955,0.322352 0,0.749804 0,1.499608 0,2.249412 -0.278638,0.0552 -0.420851,-0.02602 -0.347955,-0.322352 0,-0.749804 0,-1.499608 0,-2.249412 z m 1.589912,0 c 0.330428,-0.08367 0.300163,0.09873 0.187101,0.342207 -0.263331,0.85228 -0.526662,1.704561 -0.789993,2.556841 -0.330428,0.08367 -0.300163,-0.09873 -0.1871,-0.342207 0.26333,-0.85228 0.526661,-1.70456 0.789992,-2.556841 z m 0.64251,0 c 0.492649,0 0.985298,0 1.477946,0 0.08758,0.304576 -0.103333,0.330668 -0.358169,0.292833 -0.257274,0 -0.514548,0 -0.771822,0 0,0.252641 0,0.505281 0,0.757921 0.339916,0 0.679832,0 1.019748,0 0.08757,0.304576 -0.103333,0.330668 -0.358169,0.292833 -0.220526,0 -0.441053,0 -0.661579,0 0,0.409393 0,0.818785 0,1.228177 -0.278639,0.0552 -0.420852,-0.02602 -0.347955,-0.322352 0,-0.749804 0,-1.499608 0,-2.249412 z"
         style="font-style:normal;font-variant:normal;font-weight:normal;font-stretch:normal;font-size:3.52777767px;line-height:125%;font-family:sans-serif;-inkscape-font-specification:'sans-serif, Normal';font-variant-ligatures:normal;font-variant-caps:normal;font-variant-numeric:normal;font-feature-settings:normal;text-align:center;letter-spacing:0px;word-spacing:0px;writing-mode:lr-tb;text-anchor:middle;fill:#000000;fill-opacity:1;stroke:none;stroke-width:0.26458332px;stroke-linecap:butt;stroke-linejoin:miter;stroke-opacity:1" />
    </g>
    <g
       id="g956"
       transform="translate(52.916668,1.3229192)">
      <rect
         y="36.385418"
         x="34.395832"
         height="5.291666"
         width="13.229169"
         id="rect819-6-4"
         style="fill:none;fill-opacity:1;stroke:#000000;stroke-width:0.21081851;stroke-miterlimit:4;stroke-dasharray:none;stroke-dashoffset:0" />
      <text
         id="text887"
         y="40.292156"
         x="41.028503"
         style="font-style:normal;font-variant:normal;font-weight:normal;font-stretch:normal;font-size:3.52777767px;line-height:125%;font-family:sans-serif;-inkscape-font-specification:'sans-serif, Normal';font-variant-ligatures:normal;font-variant-caps:normal;font-variant-numeric:normal;font-feature-settings:normal;text-align:center;letter-spacing:0px;word-spacing:0px;writing-mode:lr-tb;text-anchor:middle;fill:#000000;fill-opacity:1;stroke:none;stroke-width:0.26458332px;stroke-linecap:butt;stroke-linejoin:miter;stroke-opacity:1"
         xml:space="preserve"><tspan
           style="stroke-width:0.26458332px"
           y="40.292156"
           x="41.028503"
           id="tspan885"
           sodipodi:role="line">Mem.</tspan></text>
    </g>
    <g
       id="g951"
       transform="translate(52.916668,1.3229192)">
      <rect
         y="29.770834"
         x="34.395832"
         height="5.291667"
         width="13.229169"
         id="rect819-6"
         style="fill:none;fill-opacity:1;stroke:#000000;stroke-width:0.21081853;stroke-miterlimit:4;stroke-dasharray:none;stroke-dashoffset:0" />
      <text
         id="text891"
         y="33.335648"
         x="41.051758"
         style="font-style:normal;font-variant:normal;font-weight:normal;font-stretch:normal;font-size:3.52777767px;line-height:125%;font-family:sans-serif;-inkscape-font-specification:'sans-serif, Normal';font-variant-ligatures:normal;font-variant-caps:normal;font-variant-numeric:normal;font-feature-settings:normal;text-align:center;letter-spacing:0px;word-spacing:0px;writing-mode:lr-tb;text-anchor:middle;fill:#000000;fill-opacity:1;stroke:none;stroke-width:0.26458332px;stroke-linecap:butt;stroke-linejoin:miter;stroke-opacity:1"
         xml:space="preserve"><tspan
           style="stroke-width:0.26458332px"
           y="33.335648"
           x="41.051758"
           id="tspan889"
           sodipodi:role="line">μ-Proc.</tspan></text>
    </g>
    <g
       id="g1128">
      <text
         id="text895"
         y="36.760014"
         x="123.74095"
         style="font-style:normal;font-variant:normal;font-weight:normal;font-stretch:normal;font-size:3.52777767px;line-height:80.80000281%;font-family:sans-serif;-inkscape-font-specification:'sans-serif, Normal';font-variant-ligatures:normal;font-variant-caps:normal;font-variant-numeric:normal;font-feature-settings:normal;text-align:center;letter-spacing:0px;word-spacing:0px;writing-mode:lr-tb;text-anchor:middle;fill:#000000;fill-opacity:1;stroke:none;stroke-width:0.26458332px;stroke-linecap:butt;stroke-linejoin:miter;stroke-opacity:1"
         xml:space="preserve"><tspan
           id="tspan897"
           style="line-height:80.80000281%;stroke-width:0.26458332px"
           y="36.760014"
           x="123.74095"
           sodipodi:role="line">Signal</tspan><tspan
           style="line-height:80.80000281%;stroke-width:0.26458332px"
           y="39.964062"
           x="123.74095"
           sodipodi:role="line"
           id="tspan972">Conv.</tspan></text>
      <rect
         y="31.093748"
         x="117.73959"
         height="11.906252"
         width="11.906256"
         id="rect819-0-9"
         style="fill:none;fill-opacity:1;stroke:#000000;stroke-width:0.3000001;stroke-miterlimit:4;stroke-dasharray:none;stroke-dashoffset:0" />
    </g>
    <rect
       style="fill:none;fill-opacity:1;stroke:#000000;stroke-width:0.22563048;stroke-miterlimit:4;stroke-dasharray:0.22563048, 0.45126094;stroke-dashoffset:0"
       id="rect970"
       width="34.395836"
       height="18.520838"
       x="79.375"
       y="29.770834" />
    <g
       id="g1258">
      <path
         inkscape:connector-curvature="0"
         id="rect819-2-5"
         d="m 71.409194,31.101581 c 1.773325,0 3.546649,0 5.319974,0 0,3.966138 0,7.932281 0,11.898419 -1.773325,0 -3.546649,0 -5.319974,0 0,-3.966138 0,-7.932281 0,-11.898419 z"
         style="fill:none;fill-opacity:1;stroke:#000000;stroke-width:0.20046827;stroke-miterlimit:4;stroke-dasharray:none;stroke-dashoffset:0" />
      <text
         id="text997-5"
         y="35.955009"
         x="73.973579"
         style="font-style:normal;font-variant:normal;font-weight:normal;font-stretch:normal;font-size:3.52777767px;line-height:125%;font-family:sans-serif;-inkscape-font-specification:'sans-serif, Normal';font-variant-ligatures:normal;font-variant-caps:normal;font-variant-numeric:normal;font-feature-settings:normal;text-align:center;letter-spacing:0px;word-spacing:0px;writing-mode:lr-tb;text-anchor:middle;fill:#000000;fill-opacity:1;stroke:none;stroke-width:0.26458332px;stroke-linecap:butt;stroke-linejoin:miter;stroke-opacity:1"
         xml:space="preserve"><tspan
           style="stroke-width:0.26458332px"
           y="35.955009"
           x="73.973579"
           id="tspan995-2"
           sodipodi:role="line">Tx</tspan><tspan
           id="tspan1252"
           style="stroke-width:0.26458332px"
           y="40.718338"
           x="73.973579"
           sodipodi:role="line">RX</tspan></text>
    </g>
    <rect
       style="fill:none;fill-opacity:1;stroke:#000000;stroke-width:0.34962517;stroke-miterlimit:4;stroke-dasharray:1.04887555, 0.34962518;stroke-dashoffset:0"
       id="rect970-9"
       width="60.854164"
       height="25.135418"
       x="70.114586"
       y="28.447922" />
    <text
       xml:space="preserve"
       style="font-style:normal;font-variant:normal;font-weight:normal;font-stretch:normal;font-size:3.52777767px;line-height:125%;font-family:sans-serif;-inkscape-font-specification:'sans-serif, Normal';font-variant-ligatures:normal;font-variant-caps:normal;font-variant-numeric:normal;font-feature-settings:normal;text-align:center;letter-spacing:0px;word-spacing:0px;writing-mode:lr-tb;text-anchor:middle;fill:#000000;fill-opacity:1;stroke:none;stroke-width:0.26458332px;stroke-linecap:butt;stroke-linejoin:miter;stroke-opacity:1"
       x="96.497124"
       y="46.801685"
       id="text1059"><tspan
         sodipodi:role="line"
         id="tspan1057"
         x="96.497124"
         y="46.801685"
         style="stroke-width:0.26458332px">Proposed SoC</tspan></text>
    <text
       xml:space="preserve"
       style="font-style:normal;font-variant:normal;font-weight:normal;font-stretch:normal;font-size:3.52777767px;line-height:125%;font-family:sans-serif;-inkscape-font-specification:'sans-serif, Normal';font-variant-ligatures:normal;font-variant-caps:normal;font-variant-numeric:normal;font-feature-settings:normal;text-align:center;letter-spacing:0px;word-spacing:0px;writing-mode:lr-tb;text-anchor:middle;fill:#000000;fill-opacity:1;stroke:none;stroke-width:0.26458332px;stroke-linecap:butt;stroke-linejoin:miter;stroke-opacity:1"
       x="100.41162"
       y="52.565407"
       id="text1059-0"><tspan
         sodipodi:role="line"
         id="tspan1057-2"
         x="100.41162"
         y="52.565407"
         style="stroke-width:0.26458332px">Internal Body Component</tspan></text>
    <g
       id="g1302">
      <path
         inkscape:connector-curvature="0"
         id="path1151"
         d="M 71.4375,33.739583 H 67.46875"
         style="fill:none;fill-rule:evenodd;stroke:#000000;stroke-width:0.16500001;stroke-linecap:butt;stroke-linejoin:miter;stroke-miterlimit:4;stroke-dasharray:none;stroke-opacity:1" />
      <path
         inkscape:connector-curvature="0"
         id="path1151-8"
         d="M 71.4375,40.354167 H 67.46875"
         style="fill:none;fill-rule:evenodd;stroke:#000000;stroke-width:0.16500001;stroke-linecap:butt;stroke-linejoin:miter;stroke-miterlimit:4;stroke-dasharray:none;stroke-opacity:1" />
      <path
         inkscape:connector-curvature="0"
         id="path1168"
         d="m 67.46875,39.03125 c 0,0 -2.285939,-0.711994 0,-1.322917"
         style="fill:none;fill-rule:evenodd;stroke:#000000;stroke-width:0.16500001;stroke-linecap:butt;stroke-linejoin:miter;stroke-miterlimit:4;stroke-dasharray:none;stroke-opacity:1" />
      <path
         inkscape:connector-curvature="0"
         id="path1168-3"
         d="m 67.46875,37.708333 c 0,0 -2.285939,-0.711994 0,-1.322917"
         style="fill:none;fill-rule:evenodd;stroke:#000000;stroke-width:0.16500001;stroke-linecap:butt;stroke-linejoin:miter;stroke-miterlimit:4;stroke-dasharray:none;stroke-opacity:1" />
      <path
         inkscape:connector-curvature="0"
         id="path1168-3-8"
         d="m 67.468751,36.385416 c 0,0 -2.285939,-0.711994 0,-1.322917"
         style="fill:none;fill-rule:evenodd;stroke:#000000;stroke-width:0.16500001;stroke-linecap:butt;stroke-linejoin:miter;stroke-miterlimit:4;stroke-dasharray:none;stroke-opacity:1" />
      <path
         inkscape:connector-curvature="0"
         id="path1168-6"
         d="m 67.46875,40.354167 c 0,0 -2.285939,-0.711994 0,-1.322917"
         style="fill:none;fill-rule:evenodd;stroke:#000000;stroke-width:0.16500001;stroke-linecap:butt;stroke-linejoin:miter;stroke-miterlimit:4;stroke-dasharray:none;stroke-opacity:1" />
      <path
         inkscape:connector-curvature="0"
         id="path1168-6-2"
         d="m 67.46875,35.0625 c 0,0 -2.285939,-0.711994 0,-1.322917"
         style="fill:none;fill-rule:evenodd;stroke:#000000;stroke-width:0.16500001;stroke-linecap:butt;stroke-linejoin:miter;stroke-miterlimit:4;stroke-dasharray:none;stroke-opacity:1" />
    </g>
    <g
       transform="rotate(180,66.145832,37.046875)"
       id="g1302-5">
      <path
         inkscape:connector-curvature="0"
         id="path1151-4"
         d="M 71.4375,33.739583 H 67.46875"
         style="fill:none;fill-rule:evenodd;stroke:#000000;stroke-width:0.16500001;stroke-linecap:butt;stroke-linejoin:miter;stroke-miterlimit:4;stroke-dasharray:none;stroke-opacity:1" />
      <path
         inkscape:connector-curvature="0"
         id="path1151-8-4"
         d="M 71.4375,40.354167 H 67.46875"
         style="fill:none;fill-rule:evenodd;stroke:#000000;stroke-width:0.16500001;stroke-linecap:butt;stroke-linejoin:miter;stroke-miterlimit:4;stroke-dasharray:none;stroke-opacity:1" />
      <path
         inkscape:connector-curvature="0"
         id="path1168-9"
         d="m 67.46875,39.03125 c 0,0 -2.285939,-0.711994 0,-1.322917"
         style="fill:none;fill-rule:evenodd;stroke:#000000;stroke-width:0.16500001;stroke-linecap:butt;stroke-linejoin:miter;stroke-miterlimit:4;stroke-dasharray:none;stroke-opacity:1" />
      <path
         inkscape:connector-curvature="0"
         id="path1168-3-9"
         d="m 67.46875,37.708333 c 0,0 -2.285939,-0.711994 0,-1.322917"
         style="fill:none;fill-rule:evenodd;stroke:#000000;stroke-width:0.16500001;stroke-linecap:butt;stroke-linejoin:miter;stroke-miterlimit:4;stroke-dasharray:none;stroke-opacity:1" />
      <path
         inkscape:connector-curvature="0"
         id="path1168-3-8-3"
         d="m 67.468751,36.385416 c 0,0 -2.285939,-0.711994 0,-1.322917"
         style="fill:none;fill-rule:evenodd;stroke:#000000;stroke-width:0.16500001;stroke-linecap:butt;stroke-linejoin:miter;stroke-miterlimit:4;stroke-dasharray:none;stroke-opacity:1" />
      <path
         inkscape:connector-curvature="0"
         id="path1168-6-6"
         d="m 67.46875,40.354167 c 0,0 -2.285939,-0.711994 0,-1.322917"
         style="fill:none;fill-rule:evenodd;stroke:#000000;stroke-width:0.16500001;stroke-linecap:butt;stroke-linejoin:miter;stroke-miterlimit:4;stroke-dasharray:none;stroke-opacity:1" />
      <path
         inkscape:connector-curvature="0"
         id="path1168-6-2-0"
         d="m 67.46875,35.0625 c 0,0 -2.285939,-0.711994 0,-1.322917"
         style="fill:none;fill-rule:evenodd;stroke:#000000;stroke-width:0.16500001;stroke-linecap:butt;stroke-linejoin:miter;stroke-miterlimit:4;stroke-dasharray:none;stroke-opacity:1" />
    </g>
    <g
       id="g1413"
       transform="translate(2.6458333)">
      <path
         inkscape:connector-curvature="0"
         id="rect819-2-5-0"
         d="m 35.71875,29.770833 c 7.49653,0 14.993053,0 22.489583,0 0,6.173608 0,12.347225 0,18.520834 -7.49653,0 -14.993053,0 -22.489583,0 0,-6.173609 0,-12.347226 0,-18.520834 z"
         style="fill:none;fill-opacity:1;stroke:#000000;stroke-width:0.51424158;stroke-miterlimit:4;stroke-dasharray:none;stroke-dashoffset:0" />
      <text
         id="text895-3"
         y="36.800442"
         x="46.907558"
         style="font-style:normal;font-variant:normal;font-weight:normal;font-stretch:normal;font-size:3.52777767px;line-height:80.80000281%;font-family:sans-serif;-inkscape-font-specification:'sans-serif, Normal';font-variant-ligatures:normal;font-variant-caps:normal;font-variant-numeric:normal;font-feature-settings:normal;text-align:center;letter-spacing:0px;word-spacing:0px;writing-mode:lr-tb;text-anchor:middle;fill:#000000;fill-opacity:1;stroke:none;stroke-width:0.26458332px;stroke-linecap:butt;stroke-linejoin:miter;stroke-opacity:1"
         xml:space="preserve"><tspan
           id="tspan897-1"
           style="line-height:80.80000281%;stroke-width:0.26458332px"
           y="36.800442"
           x="46.907558"
           sodipodi:role="line">External</tspan><tspan
           id="tspan1404"
           style="line-height:80.80000281%;stroke-width:0.26458332px"
           y="40.00449"
           x="46.907558"
           sodipodi:role="line">Body</tspan><tspan
           id="tspan1406"
           style="line-height:80.80000281%;stroke-width:0.26458332px"
           y="43.208538"
           x="46.907558"
           sodipodi:role="line">Component</tspan></text>
    </g>
    <path
       style="fill:none;fill-rule:evenodd;stroke:#000000;stroke-width:0.23665047;stroke-linecap:butt;stroke-linejoin:miter;stroke-miterlimit:4;stroke-dasharray:none;stroke-opacity:1;marker-start:url(#marker2101)"
       d="m 117.73958,37.708333 h -5.29166"
       id="path1415"
       inkscape:connector-curvature="0" />
    <path
       style="fill:none;fill-rule:evenodd;stroke:#000000;stroke-width:0.26458332px;stroke-linecap:butt;stroke-linejoin:miter;stroke-opacity:1"
       d="m 115.09375,36.385417 -1.32292,2.645833"
       id="path1417"
       inkscape:connector-curvature="0" />
    <g
       id="g2963"
       transform="translate(0,0.66145822)">
      <path
         inkscape:connector-curvature="0"
         id="path1415-7"
         d="m 136.26042,36.385417 h -6.61458"
         style="fill:none;fill-rule:evenodd;stroke:#000000;stroke-width:0.26458332px;stroke-linecap:butt;stroke-linejoin:miter;stroke-opacity:1;marker-start:url(#marker2165)" />
      <path
         inkscape:connector-curvature="0"
         id="path1417-4"
         d="m 133.61459,35.0625 -1.32292,2.645833"
         style="fill:none;fill-rule:evenodd;stroke:#000000;stroke-width:0.26458332px;stroke-linecap:butt;stroke-linejoin:miter;stroke-opacity:1" />
    </g>
    <g
       id="g2313"
       transform="translate(1.0172526e-5,1.3229205)">
      <rect
         y="31.093746"
         x="136.26041"
         height="9.2604189"
         width="18.520836"
         id="rect819-0-9-1"
         style="fill:none;fill-opacity:1;stroke:#000000;stroke-width:0.32998323;stroke-miterlimit:4;stroke-dasharray:none;stroke-dashoffset:0" />
      <text
         id="text895-0-4"
         y="29.549503"
         x="145.44159"
         style="font-style:normal;font-variant:normal;font-weight:normal;font-stretch:normal;font-size:3.52777767px;line-height:80.80000281%;font-family:sans-serif;-inkscape-font-specification:'sans-serif, Normal';font-variant-ligatures:normal;font-variant-caps:normal;font-variant-numeric:normal;font-feature-settings:normal;text-align:center;letter-spacing:0px;word-spacing:0px;writing-mode:lr-tb;text-anchor:middle;fill:#000000;fill-opacity:1;stroke:none;stroke-width:0.26458332px;stroke-linecap:butt;stroke-linejoin:miter;stroke-opacity:1"
         xml:space="preserve"><tspan
           id="tspan897-7-9"
           style="line-height:80.80000281%;stroke-width:0.26458332px"
           y="32.244724"
           x="145.44159"
           sodipodi:role="line" /><tspan
           id="tspan1474"
           style="line-height:80.80000281%;stroke-width:0.26458332px"
           y="35.095169"
           x="145.44159"
           sodipodi:role="line">Electrode</tspan><tspan
           id="tspan1476"
           style="line-height:80.80000281%;stroke-width:0.26458332px"
           y="38.299217"
           x="145.44159"
           sodipodi:role="line">Array</tspan></text>
    </g>
    <g
       id="g1548"
       transform="translate(0,1.2715659e-6)">
      <rect
         y="45.645832"
         x="138.90625"
         height="7.937501"
         width="13.229173"
         id="rect819-0-9-1-6"
         style="fill:none;fill-opacity:1;stroke:#000000;stroke-width:0.25819898;stroke-miterlimit:4;stroke-dasharray:none;stroke-dashoffset:0" />
      <text
         id="text895-0-4-4"
         y="49.273464"
         x="145.56906"
         style="font-style:normal;font-variant:normal;font-weight:normal;font-stretch:normal;font-size:3.52777767px;line-height:80.80000281%;font-family:sans-serif;-inkscape-font-specification:'sans-serif, Normal';font-variant-ligatures:normal;font-variant-caps:normal;font-variant-numeric:normal;font-feature-settings:normal;text-align:center;letter-spacing:0px;word-spacing:0px;writing-mode:lr-tb;text-anchor:middle;fill:#000000;fill-opacity:1;stroke:none;stroke-width:0.26458332px;stroke-linecap:butt;stroke-linejoin:miter;stroke-opacity:1"
         xml:space="preserve"><tspan
           id="tspan1476-8"
           style="line-height:80.80000281%;stroke-width:0.26458332px"
           y="49.273464"
           x="145.56906"
           sodipodi:role="line">Target</tspan><tspan
           id="tspan1542"
           style="line-height:80.80000281%;stroke-width:0.26458332px"
           y="52.477512"
           x="145.56906"
           sodipodi:role="line">Nerve</tspan></text>
    </g>
    <path
       style="fill:none;fill-rule:evenodd;stroke:#000000;stroke-width:0.26458332px;stroke-linecap:butt;stroke-linejoin:miter;stroke-opacity:1;marker-start:url(#marker2235)"
       d="M 145.52083,45.38125 V 41.4125"
       id="path1550"
       inkscape:connector-curvature="0" />
    <path
       style="fill:none;fill-rule:evenodd;stroke:#000000;stroke-width:0.26458332px;stroke-linecap:butt;stroke-linejoin:miter;stroke-opacity:1"
       d="m 146.84375,42.206249 -2.64584,1.322917"
       id="path1567"
       inkscape:connector-curvature="0" />
    <path
       style="fill:none;fill-rule:evenodd;stroke:#000000;stroke-width:0.2049454;stroke-linecap:butt;stroke-linejoin:miter;stroke-miterlimit:4;stroke-dasharray:none;stroke-opacity:1;marker-start:url(#marker2101-9)"
       d="m 80.697917,37.05079 h -3.96875"
       id="path1415-8"
       inkscape:connector-curvature="0" />
    <path
       style="fill:none;fill-rule:evenodd;stroke:#000000;stroke-width:0.34142625;stroke-linecap:butt;stroke-linejoin:miter;stroke-miterlimit:4;stroke-dasharray:2.04855741, 0.34142624;stroke-dashoffset:0;stroke-opacity:1"
       d="m 66.145833,25.802083 v 27.78125"
       id="path967"
       inkscape:connector-curvature="0" />
    <text
       xml:space="preserve"
       style="font-style:normal;font-variant:normal;font-weight:normal;font-stretch:normal;font-size:3.52777767px;line-height:125%;font-family:sans-serif;-inkscape-font-specification:'sans-serif, Normal';font-variant-ligatures:normal;font-variant-caps:normal;font-variant-numeric:normal;font-feature-settings:normal;text-align:center;letter-spacing:0px;word-spacing:0px;writing-mode:lr-tb;text-anchor:middle;fill:#000000;fill-opacity:1;stroke:none;stroke-width:0.26458332px;stroke-linecap:butt;stroke-linejoin:miter;stroke-opacity:1"
       x="66.854889"
       y="25.161024"
       id="text971"><tspan
         sodipodi:role="line"
         id="tspan969"
         x="66.854889"
         y="25.161024"
         style="stroke-width:0.26458332px">Skin &amp; Skull</tspan></text>
    <g
       id="g1122">
      <rect
         y="31.093754"
         x="101.86459"
         height="11.906249"
         width="10.583322"
         id="rect819-0"
         style="fill:none;fill-opacity:1;stroke:#000000;stroke-width:0.28284252;stroke-miterlimit:4;stroke-dasharray:none;stroke-dashoffset:0" />
      <text
         id="text895-0-6"
         y="36.760017"
         x="107.23119"
         style="font-style:normal;font-variant:normal;font-weight:normal;font-stretch:normal;font-size:3.52777767px;line-height:80.80000281%;font-family:sans-serif;-inkscape-font-specification:'sans-serif, Normal';font-variant-ligatures:normal;font-variant-caps:normal;font-variant-numeric:normal;font-feature-settings:normal;text-align:center;letter-spacing:0px;word-spacing:0px;writing-mode:lr-tb;text-anchor:middle;fill:#000000;fill-opacity:1;stroke:none;stroke-width:0.26458332px;stroke-linecap:butt;stroke-linejoin:miter;stroke-opacity:1"
         xml:space="preserve"><tspan
           style="line-height:80.80000281%;stroke-width:0.26458332px"
           y="36.760017"
           x="107.23119"
           id="tspan893-2-2"
           sodipodi:role="line">Stim.</tspan><tspan
           id="tspan897-7-8"
           style="line-height:80.80000281%;stroke-width:0.26458332px"
           y="39.964066"
           x="107.23119"
           sodipodi:role="line">Ctrl.</tspan></text>
    </g>
  </g>
</svg>
