<?xml version="1.0" encoding="UTF-8" standalone="no"?>
<!-- Created with Inkscape (http://www.inkscape.org/) -->

<svg
   xmlns:dc="http://purl.org/dc/elements/1.1/"
   xmlns:cc="http://creativecommons.org/ns#"
   xmlns:rdf="http://www.w3.org/1999/02/22-rdf-syntax-ns#"
   xmlns:svg="http://www.w3.org/2000/svg"
   xmlns="http://www.w3.org/2000/svg"
   xmlns:xlink="http://www.w3.org/1999/xlink"
   xmlns:sodipodi="http://sodipodi.sourceforge.net/DTD/sodipodi-0.dtd"
   xmlns:inkscape="http://www.inkscape.org/namespaces/inkscape"
   id="svg4581"
   version="1.1"
   inkscape:version="0.91 r13725"
   width="604.65204"
   height="232.47604"
   viewBox="0 0 604.65204 232.47604"
   sodipodi:docname="stim_default_single.svg">
  <metadata
     id="metadata4587">
    <rdf:RDF>
      <cc:Work
         rdf:about="">
        <dc:format>image/svg+xml</dc:format>
        <dc:type
           rdf:resource="http://purl.org/dc/dcmitype/StillImage" />
        <dc:title></dc:title>
      </cc:Work>
    </rdf:RDF>
  </metadata>
  <defs
     id="defs4585">
    <marker
       inkscape:isstock="true"
       style="overflow:visible"
       id="marker13184"
       refX="0"
       refY="0"
       orient="auto"
       inkscape:stockid="Arrow1Lend">
      <path
         transform="matrix(-0.8,0,0,-0.8,-10,0)"
         style="fill:#000000;fill-opacity:1;fill-rule:evenodd;stroke:#000000;stroke-width:1pt;stroke-opacity:1"
         d="M 0,0 5,-5 -12.5,0 5,5 0,0 Z"
         id="path13186"
         inkscape:connector-curvature="0" />
    </marker>
    <marker
       inkscape:isstock="true"
       style="overflow:visible"
       id="marker12988"
       refX="0"
       refY="0"
       orient="auto"
       inkscape:stockid="Arrow1Lend">
      <path
         transform="matrix(-0.8,0,0,-0.8,-10,0)"
         style="fill:#000000;fill-opacity:1;fill-rule:evenodd;stroke:#000000;stroke-width:1pt;stroke-opacity:1"
         d="M 0,0 5,-5 -12.5,0 5,5 0,0 Z"
         id="path12990"
         inkscape:connector-curvature="0" />
    </marker>
    <marker
       inkscape:isstock="true"
       style="overflow:visible"
       id="marker12360"
       refX="0"
       refY="0"
       orient="auto"
       inkscape:stockid="Arrow1Lend">
      <path
         transform="matrix(-0.8,0,0,-0.8,-10,0)"
         style="fill:#000000;fill-opacity:1;fill-rule:evenodd;stroke:#000000;stroke-width:1pt;stroke-opacity:1"
         d="M 0,0 5,-5 -12.5,0 5,5 0,0 Z"
         id="path12362"
         inkscape:connector-curvature="0" />
    </marker>
    <marker
       inkscape:isstock="true"
       style="overflow:visible"
       id="marker12176"
       refX="0"
       refY="0"
       orient="auto"
       inkscape:stockid="Arrow1Lend">
      <path
         transform="matrix(-0.8,0,0,-0.8,-10,0)"
         style="fill:#000000;fill-opacity:1;fill-rule:evenodd;stroke:#000000;stroke-width:1pt;stroke-opacity:1"
         d="M 0,0 5,-5 -12.5,0 5,5 0,0 Z"
         id="path12178"
         inkscape:connector-curvature="0" />
    </marker>
    <marker
       inkscape:isstock="true"
       style="overflow:visible"
       id="marker11998"
       refX="0"
       refY="0"
       orient="auto"
       inkscape:stockid="Arrow1Lend">
      <path
         transform="matrix(-0.8,0,0,-0.8,-10,0)"
         style="fill:#000000;fill-opacity:1;fill-rule:evenodd;stroke:#000000;stroke-width:1pt;stroke-opacity:1"
         d="M 0,0 5,-5 -12.5,0 5,5 0,0 Z"
         id="path12000"
         inkscape:connector-curvature="0" />
    </marker>
    <marker
       inkscape:isstock="true"
       style="overflow:visible"
       id="marker11826"
       refX="0"
       refY="0"
       orient="auto"
       inkscape:stockid="Arrow1Lend">
      <path
         transform="matrix(-0.8,0,0,-0.8,-10,0)"
         style="fill:#000000;fill-opacity:1;fill-rule:evenodd;stroke:#000000;stroke-width:1pt;stroke-opacity:1"
         d="M 0,0 5,-5 -12.5,0 5,5 0,0 Z"
         id="path11828"
         inkscape:connector-curvature="0" />
    </marker>
    <marker
       inkscape:isstock="true"
       style="overflow:visible"
       id="marker11648"
       refX="0"
       refY="0"
       orient="auto"
       inkscape:stockid="Arrow1Lstart">
      <path
         transform="matrix(0.8,0,0,0.8,10,0)"
         style="fill:#000000;fill-opacity:1;fill-rule:evenodd;stroke:#000000;stroke-width:1pt;stroke-opacity:1"
         d="M 0,0 5,-5 -12.5,0 5,5 0,0 Z"
         id="path11650"
         inkscape:connector-curvature="0" />
    </marker>
    <marker
       inkscape:isstock="true"
       style="overflow:visible"
       id="marker11488"
       refX="0"
       refY="0"
       orient="auto"
       inkscape:stockid="Arrow1Lstart">
      <path
         transform="matrix(0.8,0,0,0.8,10,0)"
         style="fill:#000000;fill-opacity:1;fill-rule:evenodd;stroke:#000000;stroke-width:1pt;stroke-opacity:1"
         d="M 0,0 5,-5 -12.5,0 5,5 0,0 Z"
         id="path11490"
         inkscape:connector-curvature="0" />
    </marker>
    <marker
       inkscape:isstock="true"
       style="overflow:visible"
       id="marker11334"
       refX="0"
       refY="0"
       orient="auto"
       inkscape:stockid="Arrow1Lstart">
      <path
         transform="matrix(0.8,0,0,0.8,10,0)"
         style="fill:#000000;fill-opacity:1;fill-rule:evenodd;stroke:#000000;stroke-width:1pt;stroke-opacity:1"
         d="M 0,0 5,-5 -12.5,0 5,5 0,0 Z"
         id="path11336"
         inkscape:connector-curvature="0" />
    </marker>
    <marker
       inkscape:isstock="true"
       style="overflow:visible"
       id="marker11186"
       refX="0"
       refY="0"
       orient="auto"
       inkscape:stockid="Arrow1Lstart">
      <path
         transform="matrix(0.8,0,0,0.8,10,0)"
         style="fill:#000000;fill-opacity:1;fill-rule:evenodd;stroke:#000000;stroke-width:1pt;stroke-opacity:1"
         d="M 0,0 5,-5 -12.5,0 5,5 0,0 Z"
         id="path11188"
         inkscape:connector-curvature="0" />
    </marker>
    <marker
       inkscape:isstock="true"
       style="overflow:visible"
       id="marker11032"
       refX="0"
       refY="0"
       orient="auto"
       inkscape:stockid="Arrow1Lend">
      <path
         transform="matrix(-0.8,0,0,-0.8,-10,0)"
         style="fill:#000000;fill-opacity:1;fill-rule:evenodd;stroke:#000000;stroke-width:1pt;stroke-opacity:1"
         d="M 0,0 5,-5 -12.5,0 5,5 0,0 Z"
         id="path11034"
         inkscape:connector-curvature="0" />
    </marker>
    <marker
       inkscape:isstock="true"
       style="overflow:visible"
       id="marker10896"
       refX="0"
       refY="0"
       orient="auto"
       inkscape:stockid="Arrow1Lend">
      <path
         transform="matrix(-0.8,0,0,-0.8,-10,0)"
         style="fill:#000000;fill-opacity:1;fill-rule:evenodd;stroke:#000000;stroke-width:1pt;stroke-opacity:1"
         d="M 0,0 5,-5 -12.5,0 5,5 0,0 Z"
         id="path10898"
         inkscape:connector-curvature="0" />
    </marker>
    <marker
       inkscape:isstock="true"
       style="overflow:visible"
       id="marker10766"
       refX="0"
       refY="0"
       orient="auto"
       inkscape:stockid="Arrow1Lend">
      <path
         transform="matrix(-0.8,0,0,-0.8,-10,0)"
         style="fill:#000000;fill-opacity:1;fill-rule:evenodd;stroke:#000000;stroke-width:1pt;stroke-opacity:1"
         d="M 0,0 5,-5 -12.5,0 5,5 0,0 Z"
         id="path10768"
         inkscape:connector-curvature="0" />
    </marker>
    <marker
       inkscape:isstock="true"
       style="overflow:visible"
       id="marker10642"
       refX="0"
       refY="0"
       orient="auto"
       inkscape:stockid="Arrow1Lend">
      <path
         transform="matrix(-0.8,0,0,-0.8,-10,0)"
         style="fill:#000000;fill-opacity:1;fill-rule:evenodd;stroke:#000000;stroke-width:1pt;stroke-opacity:1"
         d="M 0,0 5,-5 -12.5,0 5,5 0,0 Z"
         id="path10644"
         inkscape:connector-curvature="0" />
    </marker>
    <marker
       inkscape:isstock="true"
       style="overflow:visible"
       id="marker10524"
       refX="0"
       refY="0"
       orient="auto"
       inkscape:stockid="Arrow1Lend">
      <path
         transform="matrix(-0.8,0,0,-0.8,-10,0)"
         style="fill:#000000;fill-opacity:1;fill-rule:evenodd;stroke:#000000;stroke-width:1pt;stroke-opacity:1"
         d="M 0,0 5,-5 -12.5,0 5,5 0,0 Z"
         id="path10526"
         inkscape:connector-curvature="0" />
    </marker>
    <marker
       inkscape:isstock="true"
       style="overflow:visible"
       id="marker10406"
       refX="0"
       refY="0"
       orient="auto"
       inkscape:stockid="Arrow1Lstart">
      <path
         transform="matrix(0.8,0,0,0.8,10,0)"
         style="fill:#000000;fill-opacity:1;fill-rule:evenodd;stroke:#000000;stroke-width:1pt;stroke-opacity:1"
         d="M 0,0 5,-5 -12.5,0 5,5 0,0 Z"
         id="path10408"
         inkscape:connector-curvature="0" />
    </marker>
    <marker
       inkscape:isstock="true"
       style="overflow:visible"
       id="marker10300"
       refX="0"
       refY="0"
       orient="auto"
       inkscape:stockid="Arrow1Lstart">
      <path
         transform="matrix(0.8,0,0,0.8,10,0)"
         style="fill:#000000;fill-opacity:1;fill-rule:evenodd;stroke:#000000;stroke-width:1pt;stroke-opacity:1"
         d="M 0,0 5,-5 -12.5,0 5,5 0,0 Z"
         id="path10302"
         inkscape:connector-curvature="0" />
    </marker>
    <marker
       inkscape:isstock="true"
       style="overflow:visible"
       id="marker10200"
       refX="0"
       refY="0"
       orient="auto"
       inkscape:stockid="Arrow1Lstart">
      <path
         transform="matrix(0.8,0,0,0.8,10,0)"
         style="fill:#000000;fill-opacity:1;fill-rule:evenodd;stroke:#000000;stroke-width:1pt;stroke-opacity:1"
         d="M 0,0 5,-5 -12.5,0 5,5 0,0 Z"
         id="path10202"
         inkscape:connector-curvature="0" />
    </marker>
    <marker
       inkscape:isstock="true"
       style="overflow:visible"
       id="marker10106"
       refX="0"
       refY="0"
       orient="auto"
       inkscape:stockid="Arrow1Lstart">
      <path
         transform="matrix(0.8,0,0,0.8,10,0)"
         style="fill:#000000;fill-opacity:1;fill-rule:evenodd;stroke:#000000;stroke-width:1pt;stroke-opacity:1"
         d="M 0,0 5,-5 -12.5,0 5,5 0,0 Z"
         id="path10108"
         inkscape:connector-curvature="0" />
    </marker>
    <marker
       inkscape:isstock="true"
       style="overflow:visible"
       id="marker10018"
       refX="0"
       refY="0"
       orient="auto"
       inkscape:stockid="Arrow1Lstart">
      <path
         transform="matrix(0.8,0,0,0.8,10,0)"
         style="fill:#000000;fill-opacity:1;fill-rule:evenodd;stroke:#000000;stroke-width:1pt;stroke-opacity:1"
         d="M 0,0 5,-5 -12.5,0 5,5 0,0 Z"
         id="path10020"
         inkscape:connector-curvature="0" />
    </marker>
    <marker
       inkscape:stockid="Arrow1Lstart"
       orient="auto"
       refY="0"
       refX="0"
       id="Arrow1Lstart"
       style="overflow:visible"
       inkscape:isstock="true"
       inkscape:collect="always">
      <path
         id="path4228"
         d="M 0,0 5,-5 -12.5,0 5,5 0,0 Z"
         style="fill:#000000;fill-opacity:1;fill-rule:evenodd;stroke:#000000;stroke-width:1pt;stroke-opacity:1"
         transform="matrix(0.8,0,0,0.8,10,0)"
         inkscape:connector-curvature="0" />
    </marker>
    <marker
       inkscape:stockid="Arrow1Lend"
       orient="auto"
       refY="0"
       refX="0"
       id="Arrow1Lend"
       style="overflow:visible"
       inkscape:isstock="true"
       inkscape:collect="always">
      <path
         id="path4231"
         d="M 0,0 5,-5 -12.5,0 5,5 0,0 Z"
         style="fill:#000000;fill-opacity:1;fill-rule:evenodd;stroke:#000000;stroke-width:1pt;stroke-opacity:1"
         transform="matrix(-0.8,0,0,-0.8,-10,0)"
         inkscape:connector-curvature="0" />
    </marker>
    <clipPath
       clipPathUnits="userSpaceOnUse"
       id="clipPath5143">
      <rect
         style="fill:none;stroke:#000000;stroke-width:2.98432899;stroke-miterlimit:4;stroke-dasharray:none;stroke-dashoffset:0"
         id="rect5145"
         width="774.51007"
         height="228.93701"
         x="198.75621"
         y="44.093288" />
    </clipPath>
    <marker
       inkscape:stockid="Arrow1Lstart"
       orient="auto"
       refY="0"
       refX="0"
       id="Arrow1Lstart-5"
       style="overflow:visible"
       inkscape:isstock="true"
       inkscape:collect="always">
      <path
         inkscape:connector-curvature="0"
         id="path4228-0"
         d="M 0,0 5,-5 -12.5,0 5,5 0,0 Z"
         style="fill:#000000;fill-opacity:1;fill-rule:evenodd;stroke:#000000;stroke-width:1pt;stroke-opacity:1"
         transform="matrix(0.8,0,0,0.8,10,0)" />
    </marker>
    <marker
       inkscape:stockid="Arrow1Lend"
       orient="auto"
       refY="0"
       refX="0"
       id="Arrow1Lend-6"
       style="overflow:visible"
       inkscape:isstock="true"
       inkscape:collect="always">
      <path
         inkscape:connector-curvature="0"
         id="path4231-3"
         d="M 0,0 5,-5 -12.5,0 5,5 0,0 Z"
         style="fill:#000000;fill-opacity:1;fill-rule:evenodd;stroke:#000000;stroke-width:1pt;stroke-opacity:1"
         transform="matrix(-0.8,0,0,-0.8,-10,0)" />
    </marker>
    <marker
       inkscape:stockid="Arrow1Lstart"
       orient="auto"
       refY="0"
       refX="0"
       id="Arrow1Lstart-5-6"
       style="overflow:visible"
       inkscape:isstock="true">
      <path
         inkscape:connector-curvature="0"
         id="path4228-0-8"
         d="M 0,0 5,-5 -12.5,0 5,5 0,0 Z"
         style="fill:#000000;fill-opacity:1;fill-rule:evenodd;stroke:#000000;stroke-width:1pt;stroke-opacity:1"
         transform="matrix(0.8,0,0,0.8,10,0)" />
    </marker>
    <marker
       inkscape:stockid="Arrow1Lend"
       orient="auto"
       refY="0"
       refX="0"
       id="Arrow1Lend-6-0"
       style="overflow:visible"
       inkscape:isstock="true">
      <path
         inkscape:connector-curvature="0"
         id="path4231-3-3"
         d="M 0,0 5,-5 -12.5,0 5,5 0,0 Z"
         style="fill:#000000;fill-opacity:1;fill-rule:evenodd;stroke:#000000;stroke-width:1pt;stroke-opacity:1"
         transform="matrix(-0.8,0,0,-0.8,-10,0)" />
    </marker>
    <marker
       inkscape:stockid="Arrow1Lstart"
       orient="auto"
       refY="0"
       refX="0"
       id="Arrow1Lstart-5-6-8"
       style="overflow:visible"
       inkscape:isstock="true">
      <path
         inkscape:connector-curvature="0"
         id="path4228-0-8-6"
         d="M 0,0 5,-5 -12.5,0 5,5 0,0 Z"
         style="fill:#000000;fill-opacity:1;fill-rule:evenodd;stroke:#000000;stroke-width:1pt;stroke-opacity:1"
         transform="matrix(0.8,0,0,0.8,10,0)" />
    </marker>
    <marker
       inkscape:stockid="Arrow1Lend"
       orient="auto"
       refY="0"
       refX="0"
       id="Arrow1Lend-6-0-3"
       style="overflow:visible"
       inkscape:isstock="true">
      <path
         inkscape:connector-curvature="0"
         id="path4231-3-3-8"
         d="M 0,0 5,-5 -12.5,0 5,5 0,0 Z"
         style="fill:#000000;fill-opacity:1;fill-rule:evenodd;stroke:#000000;stroke-width:1pt;stroke-opacity:1"
         transform="matrix(-0.8,0,0,-0.8,-10,0)" />
    </marker>
    <marker
       inkscape:stockid="Arrow1Lstart"
       orient="auto"
       refY="0"
       refX="0"
       id="Arrow1Lstart-5-6-8-7"
       style="overflow:visible"
       inkscape:isstock="true">
      <path
         inkscape:connector-curvature="0"
         id="path4228-0-8-6-5"
         d="M 0,0 5,-5 -12.5,0 5,5 0,0 Z"
         style="fill:#000000;fill-opacity:1;fill-rule:evenodd;stroke:#000000;stroke-width:1pt;stroke-opacity:1"
         transform="matrix(0.8,0,0,0.8,10,0)" />
    </marker>
    <marker
       inkscape:stockid="Arrow1Lend"
       orient="auto"
       refY="0"
       refX="0"
       id="Arrow1Lend-6-0-3-0"
       style="overflow:visible"
       inkscape:isstock="true">
      <path
         inkscape:connector-curvature="0"
         id="path4231-3-3-8-8"
         d="M 0,0 5,-5 -12.5,0 5,5 0,0 Z"
         style="fill:#000000;fill-opacity:1;fill-rule:evenodd;stroke:#000000;stroke-width:1pt;stroke-opacity:1"
         transform="matrix(-0.8,0,0,-0.8,-10,0)" />
    </marker>
    <marker
       inkscape:stockid="Arrow1Lstart"
       orient="auto"
       refY="0"
       refX="0"
       id="Arrow1Lstart-5-6-8-7-9"
       style="overflow:visible"
       inkscape:isstock="true">
      <path
         inkscape:connector-curvature="0"
         id="path4228-0-8-6-5-5"
         d="M 0,0 5,-5 -12.5,0 5,5 0,0 Z"
         style="fill:#000000;fill-opacity:1;fill-rule:evenodd;stroke:#000000;stroke-width:1pt;stroke-opacity:1"
         transform="matrix(0.8,0,0,0.8,10,0)" />
    </marker>
    <marker
       inkscape:stockid="Arrow1Lend"
       orient="auto"
       refY="0"
       refX="0"
       id="Arrow1Lend-6-0-3-0-1"
       style="overflow:visible"
       inkscape:isstock="true">
      <path
         inkscape:connector-curvature="0"
         id="path4231-3-3-8-8-6"
         d="M 0,0 5,-5 -12.5,0 5,5 0,0 Z"
         style="fill:#000000;fill-opacity:1;fill-rule:evenodd;stroke:#000000;stroke-width:1pt;stroke-opacity:1"
         transform="matrix(-0.8,0,0,-0.8,-10,0)" />
    </marker>
    <marker
       inkscape:stockid="Arrow1Lstart"
       orient="auto"
       refY="0"
       refX="0"
       id="Arrow1Lstart-5-6-8-7-6"
       style="overflow:visible"
       inkscape:isstock="true">
      <path
         inkscape:connector-curvature="0"
         id="path4228-0-8-6-5-8"
         d="M 0,0 5,-5 -12.5,0 5,5 0,0 Z"
         style="fill:#000000;fill-opacity:1;fill-rule:evenodd;stroke:#000000;stroke-width:1pt;stroke-opacity:1"
         transform="matrix(0.8,0,0,0.8,10,0)" />
    </marker>
    <marker
       inkscape:isstock="true"
       style="overflow:visible"
       id="marker12176-7"
       refX="0"
       refY="0"
       orient="auto"
       inkscape:stockid="Arrow1Lend">
      <path
         transform="matrix(-0.8,0,0,-0.8,-10,0)"
         style="fill:#000000;fill-opacity:1;fill-rule:evenodd;stroke:#000000;stroke-width:1pt;stroke-opacity:1"
         d="M 0,0 5,-5 -12.5,0 5,5 0,0 Z"
         id="path12178-4"
         inkscape:connector-curvature="0" />
    </marker>
    <marker
       inkscape:stockid="Arrow1Lend"
       orient="auto"
       refY="0"
       refX="0"
       id="Arrow1Lend-6-0-3-0-4"
       style="overflow:visible"
       inkscape:isstock="true">
      <path
         inkscape:connector-curvature="0"
         id="path4231-3-3-8-8-2"
         d="M 0,0 5,-5 -12.5,0 5,5 0,0 Z"
         style="fill:#000000;fill-opacity:1;fill-rule:evenodd;stroke:#000000;stroke-width:1pt;stroke-opacity:1"
         transform="matrix(-0.8,0,0,-0.8,-10,0)" />
    </marker>
  </defs>
  <sodipodi:namedview
     pagecolor="#ffffff"
     bordercolor="#666666"
     borderopacity="1"
     objecttolerance="10"
     gridtolerance="10"
     guidetolerance="10"
     inkscape:pageopacity="0"
     inkscape:pageshadow="2"
     inkscape:window-width="1920"
     inkscape:window-height="2096"
     id="namedview4583"
     showgrid="false"
     fit-margin-top="0"
     fit-margin-left="0"
     fit-margin-right="0"
     fit-margin-bottom="0"
     inkscape:zoom="1.4590164"
     inkscape:cx="278.12508"
     inkscape:cy="141.39272"
     inkscape:window-x="0"
     inkscape:window-y="27"
     inkscape:window-maximized="1"
     inkscape:current-layer="svg4581" />
  <image
     width="976"
     height="321"
     preserveAspectRatio="none"
     xlink:href="data:image/png;base64,iVBORw0KGgoAAAANSUhEUgAAA9AAAAFBAQAAAAC3cHqKAAAABGdBTUEAALGPC/xhBQAAACBjSFJN AAB6JgAAgIQAAPoAAACA6AAAdTAAAOpgAAA6mAAAF3CculE8AAAAAmJLR0QAAd2KE6QAAAAHdElN RQfgBg4RAASvhj7vAAAFXElEQVR42u3dQW8aRxQHcCoqODQy117SvfUrpBHI+0laqcceilpZskLX YZJLudmVeu9+CKRalVVRy1J9ScTRtrDZWEjxpWRJkRJW2Z3pzsxb2BqnBdp9g73vWZbZAfHzwuwa /nqMC8JYFUaFufow/rYQ6BvG3iLtNdHrQoe2EJdm6KAjxHNsWlfg7vnPJuU9A/Q71xbnwY+2EdqN 6bZrgA7crngWtLsG6KhzJYZB+wqZlh5nFX8ctCvI9FFm3jrTT1Hpyr//QhnRvGiJSTLICwyRDrdS NE5N6T83NlD29Qa6ea9kiOaV2ssGqjyby8VPSo8M0YNaydBeh2NjD3i4VfvdEM2L90qP2Gw8Ykvf 1aq0KO9+umOITld8IjVFx6PG6Kfm6CNz9JU5+q052tzBZZZGKKKJJppoookmmuhbQXNmluYWDs1r jH/80SYvbsjNUUXw+CtCoaNeJ+o6NdF/KTdf74kwpkM0Wjifiz6Xm+OumEiaIdGhcL4Q/abcPB6I UQyHNhItLKcpvN0pPbHx6K7znfDUc516wJ8Usi75XPtOXfTfSDo1zTrZ7nOQzPBtmOGpgyt7Wh7X Vkx76rhWp5QX6rrsabh0qH+kTqRo9HwRTTTRRBNNNNFEv58e2eb2OvMiek1ohHfYRBNNNBqt3+fe cZpvCpkWitb3RT0iM40IhY5OhUoLq1ueHnm9J4SDQ/eFSgsdBvS4K8R+9rCmVVrIbKCPB0J0sWiV FrLjFO2j0TItZGOg5QN+Ev98sWjoV5ne2Wih21vqtrygnmuZFjoO0HKaHYgl9nx2w8U+v6AdrqeZ TAunMzw+uMRjFFoe1zItbLWAjk8pnKPQsH04vSYJDNHof7pHookmmmiiiSaa6OslX6ItVrOXruWF bv+bvvE6hldEE0000USvTKO1F5qkobdQlFtA6rQQg056C50q0DotxKJVWugAjZgWerq3cEojpoUe U2nh32gfh4a0sJx+wE+Wvp/FgsJUFWP6XKeFLKGTtHC5Wnqhk3cxfabTQpbM8CQtzJ7mn9kqLWQt eCmbpIXZ03BpPi1Eo/9rEU000UQTTTTR+aKXfIm5WFCYqklhrd7kEm2EDlxztJVL2iWa6Axp/Sb3 jtNJWtjaregRnRZi0ElaWN2Gv/Y6LUShPUgLE1qnhUi07i18A7ROC1Hovk4L2avKjPax9lr3FvZT D/gJ2nOtegt/Sk2zA8QZvi2qm0DrtBDruFa9hSWgdVqIeDa7nhbm7c8H0UQTTTTRRBN9a+gf/tdl cG6sNdxrg7RnjEao99ETK490ToNKonNAw5vcu01zO+ktbOpYAdJCBDrqM5UWblWbvhqBtBCJ1r2F za4agbQQg75gureQNT01AmkhDq17C1nTntI+Dt1jKi2c7jWkhVYnK/Li52H7696X8gPvNnwSOTXN DnBoj6m0MJ7h+j9DQVqIQMvjWqaF5VZprK6BtBCBhu25tBCPvl5EE0000UQTTfQtoF1zNKWFuaER aq0CDaKJzgXtGqBz0ltoq7Tw4dEHegSxt9DT6xY+/MXXI4i9hT29bmGjAzRib+GpTgsbLtCIvYXw X06+GqRo3N7CRgA0fm/ht78Cjd9b2EhmOH5vYeMIaOotJJpoookmmmiiib6ZprQQmfaM0QhFNNFE 54HGXbdQrRWYiJjrFtr8vrzUtPQI4rqFFyIcKhpGMNctFNEftW8uB8kicojrFp6yKOo9qJ/t2HoE cd3CXieKvP36xWNvRvt49PmD+mFCr7Zu4ar0sLdf9xJ6tXULV6LPOuEwfq69HaBXW7dwFVqmhfdP 9+uX0Ea64rqFq9BzIwYXgEWrvwB/FkGvO0qrkAAAACV0RVh0ZGF0ZTpjcmVhdGUAMjAxNi0wNi0x NFQxNzowMDowNCswOTowMK/4BS8AAAAldEVYdGRhdGU6bW9kaWZ5ADIwMTYtMDYtMTRUMTc6MDA6 MDQrMDk6MDDepb2TAAAAAElFTkSuQmCC "
     id="image4589"
     x="0"
     y="0"
     clip-path="url(#clipPath5143)"
     style="fill:#000000;stroke-width:1;stroke-miterlimit:4;stroke-dasharray:none"
     transform="matrix(0.77973757,0,0,1,-154.97768,-40.554262)" />
  <path
     style="fill:#000000;fill-rule:evenodd;stroke:#000000;stroke-width:0.87710041;stroke-linecap:butt;stroke-linejoin:miter;stroke-miterlimit:4;stroke-dasharray:none;stroke-opacity:1;marker-start:url(#Arrow1Lstart);marker-mid:url(#Arrow1Lend-6);marker-end:url(#Arrow1Lend)"
     d="m 4.9247535,39.704165 c 590.5497265,0 590.5497265,0 590.5497265,0"
     id="path5147"
     inkscape:connector-curvature="0" />
  <path
     style="fill:#000000;fill-rule:evenodd;stroke:#000000;stroke-width:0.87923414;stroke-linecap:butt;stroke-linejoin:miter;stroke-miterlimit:4;stroke-dasharray:none;stroke-opacity:1;marker-start:url(#Arrow1Lstart-5);marker-mid:url(#marker12988);marker-end:url(#marker13184)"
     d="m 6.2019835,78.047866 c 248.6946365,0 248.6946365,0 248.6946365,0"
     id="path5147-6"
     inkscape:connector-curvature="0" />
  <path
     style="fill:#000000;fill-rule:evenodd;stroke:#000000;stroke-width:0.88245004;stroke-linecap:butt;stroke-linejoin:miter;stroke-miterlimit:4;stroke-dasharray:none;stroke-opacity:1;marker-start:url(#Arrow1Lstart-5-6);marker-mid:url(#marker11826);marker-end:url(#Arrow1Lend-6-0)"
     d="m 323.86622,78.940118 c 232.50242,0 232.50242,0 232.50242,0"
     id="path5147-6-1"
     inkscape:connector-curvature="0" />
  <path
     style="fill:#000000;fill-rule:evenodd;stroke:#000000;stroke-width:0.88413411;stroke-linecap:butt;stroke-linejoin:miter;stroke-miterlimit:4;stroke-dasharray:none;stroke-opacity:1;marker-start:url(#Arrow1Lstart-5-6-8);marker-mid:url(#marker11998);marker-end:url(#Arrow1Lend-6-0-3)"
     d="m 292.79431,122.91765 c 301.45147,0 301.45147,0 301.45147,0"
     id="path5147-6-1-1"
     inkscape:connector-curvature="0" />
  <path
     style="fill:#000000;fill-rule:evenodd;stroke:#000000;stroke-width:0.88668966;stroke-linecap:butt;stroke-linejoin:miter;stroke-miterlimit:4;stroke-dasharray:none;stroke-opacity:1;marker-start:url(#Arrow1Lstart-5-6-8-7);marker-mid:url(#marker12176);marker-end:url(#Arrow1Lend-6-0-3-0)"
     d="m 259.77252,79.569338 c 61.24654,0 61.24654,0 61.24654,0"
     id="path5147-6-1-1-0"
     inkscape:connector-curvature="0" />
  <path
     style="fill:#000000;fill-rule:evenodd;stroke:#000000;stroke-width:0.89354175;stroke-linecap:butt;stroke-linejoin:miter;stroke-miterlimit:4;stroke-dasharray:none;stroke-opacity:1;marker-start:url(#Arrow1Lstart-5-6-8-7-9);marker-mid:url(#marker12360);marker-end:url(#Arrow1Lend-6-0-3-0-1)"
     d="m 560.01109,78.940118 c 37.39345,0 37.39345,0 37.39345,0"
     id="path5147-6-1-1-0-5"
     inkscape:connector-curvature="0" />
  <rect
     style="fill:none;stroke:#000000;stroke-width:0.76830757;stroke-miterlimit:4;stroke-dasharray:none;stroke-dashoffset:0"
     id="rect13802"
     width="42.205753"
     height="39.894226"
     x="555.64111"
     y="181.63324" />
  <path
     style="fill:none;fill-rule:evenodd;stroke:#000000;stroke-width:1;stroke-linecap:butt;stroke-linejoin:miter;stroke-miterlimit:4;stroke-dasharray:3, 3;stroke-dashoffset:0;stroke-opacity:1"
     d="m 558.8585,87.69106 0,95.95505"
     id="path13804"
     inkscape:connector-curvature="0" />
  <path
     style="fill:none;fill-rule:evenodd;stroke:#000000;stroke-width:1;stroke-linecap:butt;stroke-linejoin:miter;stroke-miterlimit:4;stroke-dasharray:3, 3;stroke-dashoffset:0;stroke-opacity:1"
     d="m 597.67679,129.77214 0,52.94627"
     id="path13806"
     inkscape:connector-curvature="0" />
  <text
     xml:space="preserve"
     style="font-style:normal;font-weight:normal;font-size:20.42806816px;line-height:125%;font-family:sans-serif;letter-spacing:0px;word-spacing:0px;fill:#000000;fill-opacity:1;stroke:none;stroke-width:1px;stroke-linecap:butt;stroke-linejoin:miter;stroke-opacity:1"
     x="1.5619602"
     y="15.161457"
     id="text3372"
     sodipodi:linespacing="125%"
     inkscape:export-xdpi="89.240463"
     inkscape:export-ydpi="89.240463"><tspan
       sodipodi:role="line"
       id="tspan3374"
       x="1.5619602"
       y="15.161457"
       style="font-size:20.42806816px;fill:#000000">TSI</tspan></text>
  <text
     xml:space="preserve"
     style="font-style:normal;font-weight:normal;font-size:20.42806816px;line-height:125%;font-family:sans-serif;letter-spacing:0px;word-spacing:0px;fill:#000000;fill-opacity:1;stroke:none;stroke-width:1px;stroke-linecap:butt;stroke-linejoin:miter;stroke-opacity:1"
     x="0.35503575"
     y="59.673878"
     id="text3372-7"
     sodipodi:linespacing="125%"
     inkscape:export-xdpi="89.240463"
     inkscape:export-ydpi="89.240463"><tspan
       sodipodi:role="line"
       id="tspan3374-7"
       x="0.35503575"
       y="59.673878"
       style="font-size:20.42806816px;fill:#000000">CST</tspan></text>
  <text
     xml:space="preserve"
     style="font-style:normal;font-weight:normal;font-size:20.42806816px;line-height:125%;font-family:sans-serif;letter-spacing:0px;word-spacing:0px;fill:#000000;fill-opacity:1;stroke:none;stroke-width:1px;stroke-linecap:butt;stroke-linejoin:miter;stroke-opacity:1"
     x="-0.50278288"
     y="104.1863"
     id="text3372-7-0"
     sodipodi:linespacing="125%"
     inkscape:export-xdpi="89.240463"
     inkscape:export-ydpi="89.240463"><tspan
       sodipodi:role="line"
       id="tspan3374-7-8"
       x="-0.50278288"
       y="104.1863"
       style="font-size:20.42806816px;fill:#000000">POL</tspan></text>
  <text
     xml:space="preserve"
     style="font-style:normal;font-weight:normal;font-size:20.42806816px;line-height:125%;font-family:sans-serif;letter-spacing:0px;word-spacing:0px;fill:#000000;fill-opacity:1;stroke:none;stroke-width:1px;stroke-linecap:butt;stroke-linejoin:miter;stroke-opacity:1"
     x="0.35503575"
     y="144.69872"
     id="text3372-7-0-1"
     sodipodi:linespacing="125%"
     inkscape:export-xdpi="89.240463"
     inkscape:export-ydpi="89.240463"><tspan
       sodipodi:role="line"
       id="tspan3374-7-8-2"
       x="0.35503575"
       y="144.69872"
       style="font-size:20.42806816px;fill:#000000">C2R</tspan></text>
  <text
     xml:space="preserve"
     style="font-style:normal;font-weight:normal;font-size:20.42806816px;line-height:125%;font-family:sans-serif;letter-spacing:0px;word-spacing:0px;fill:#000000;fill-opacity:1;stroke:none;stroke-width:1px;stroke-linecap:butt;stroke-linejoin:miter;stroke-opacity:1"
     x="-0.50278288"
     y="187.21115"
     id="text3372-7-0-1-8"
     sodipodi:linespacing="125%"
     inkscape:export-xdpi="89.240463"
     inkscape:export-ydpi="89.240463"><tspan
       sodipodi:role="line"
       id="tspan3374-7-8-2-7"
       x="-0.50278288"
       y="187.21115"
       style="font-size:20.42806816px;fill:#000000">DCLK</tspan></text>
  <text
     xml:space="preserve"
     style="font-style:normal;font-weight:normal;font-size:15px;line-height:125%;font-family:sans-serif;text-align:start;letter-spacing:0px;word-spacing:0px;writing-mode:lr-tb;text-anchor:start;fill:#000000;fill-opacity:1;stroke:none;stroke-width:1px;stroke-linecap:butt;stroke-linejoin:miter;stroke-opacity:1"
     x="265.68607"
     y="60.254036"
     id="text3372-9"
     sodipodi:linespacing="125%"
     inkscape:export-xdpi="89.240463"
     inkscape:export-ydpi="89.240463"><tspan
       sodipodi:role="line"
       id="tspan3374-76"
       x="265.68607"
       y="60.254036"
       style="font-size:22.5px;line-height:125%;text-align:start;writing-mode:lr-tb;text-anchor:start;fill:#000000">470μs</tspan></text>
  <text
     xml:space="preserve"
     style="font-style:normal;font-weight:normal;font-size:15px;line-height:125%;font-family:sans-serif;text-align:start;letter-spacing:0px;word-spacing:0px;writing-mode:lr-tb;text-anchor:start;fill:#000000;fill-opacity:1;stroke:none;stroke-width:1px;stroke-linecap:butt;stroke-linejoin:miter;stroke-opacity:1"
     x="95.761101"
     y="97.463631"
     id="text3372-9-5"
     sodipodi:linespacing="125%"
     inkscape:export-xdpi="89.240463"
     inkscape:export-ydpi="89.240463"><tspan
       sodipodi:role="line"
       id="tspan3374-76-5"
       x="95.761101"
       y="97.463631"
       style="font-size:22.5px;line-height:125%;text-align:start;writing-mode:lr-tb;text-anchor:start;fill:#000000">200μs</tspan></text>
  <text
     xml:space="preserve"
     style="font-style:normal;font-weight:normal;font-size:15px;line-height:125%;font-family:sans-serif;text-align:start;letter-spacing:0px;word-spacing:0px;writing-mode:lr-tb;text-anchor:start;fill:#000000;fill-opacity:1;stroke:none;stroke-width:1px;stroke-linecap:butt;stroke-linejoin:miter;stroke-opacity:1"
     x="262.72675"
     y="105.32653"
     id="text3372-9-7"
     sodipodi:linespacing="125%"
     inkscape:export-xdpi="89.240463"
     inkscape:export-ydpi="89.240463"><tspan
       sodipodi:role="line"
       id="tspan3374-76-2"
       x="262.72675"
       y="105.32653"
       style="font-size:22.5px;line-height:125%;text-align:start;writing-mode:lr-tb;text-anchor:start;fill:#000000">50μs</tspan></text>
  <text
     xml:space="preserve"
     style="font-style:normal;font-weight:normal;font-size:15px;line-height:125%;font-family:sans-serif;text-align:start;letter-spacing:0px;word-spacing:0px;writing-mode:lr-tb;text-anchor:start;fill:#000000;fill-opacity:1;stroke:none;stroke-width:1px;stroke-linecap:butt;stroke-linejoin:miter;stroke-opacity:1"
     x="404.91724"
     y="100.66064"
     id="text3372-9-76"
     sodipodi:linespacing="125%"
     inkscape:export-xdpi="89.240463"
     inkscape:export-ydpi="89.240463"><tspan
       sodipodi:role="line"
       id="tspan3374-76-6"
       x="404.91724"
       y="100.66064"
       style="font-size:22.5px;line-height:125%;text-align:start;writing-mode:lr-tb;text-anchor:start;fill:#000000">184μs</tspan></text>
  <text
     xml:space="preserve"
     style="font-style:normal;font-weight:normal;font-size:15px;line-height:125%;font-family:sans-serif;text-align:start;letter-spacing:0px;word-spacing:0px;writing-mode:lr-tb;text-anchor:start;fill:#000000;fill-opacity:1;stroke:none;stroke-width:1px;stroke-linecap:butt;stroke-linejoin:miter;stroke-opacity:1"
     x="408.73187"
     y="146.39116"
     id="text3372-9-4"
     sodipodi:linespacing="125%"
     inkscape:export-xdpi="89.240463"
     inkscape:export-ydpi="89.240463"><tspan
       sodipodi:role="line"
       id="tspan3374-76-4"
       x="408.73187"
       y="146.39116"
       style="font-size:22.5px;line-height:125%;text-align:start;writing-mode:lr-tb;text-anchor:start;fill:#000000">242μs</tspan></text>
  <path
     style="fill:none;fill-rule:evenodd;stroke:#000000;stroke-width:1;stroke-linecap:butt;stroke-linejoin:miter;stroke-miterlimit:4;stroke-dasharray:3, 3;stroke-dashoffset:0;stroke-opacity:1"
     d="m 259.82058,78.530668 0,52.946272"
     id="path13806-6"
     inkscape:connector-curvature="0" />
  <path
     style="fill:#000000;fill-rule:evenodd;stroke:#000000;stroke-width:0.89827794;stroke-linecap:butt;stroke-linejoin:miter;stroke-miterlimit:4;stroke-dasharray:none;stroke-opacity:1;marker-start:url(#Arrow1Lstart-5-6-8-7-6);marker-mid:url(#marker12176-7);marker-end:url(#Arrow1Lend-6-0-3-0-4)"
     d="m 260.01147,123.42036 c 30.5218,0 30.5218,0 30.5218,0"
     id="path5147-6-1-1-0-4"
     inkscape:connector-curvature="0" />
  <text
     xml:space="preserve"
     style="font-style:normal;font-weight:normal;font-size:15px;line-height:125%;font-family:sans-serif;text-align:start;letter-spacing:0px;word-spacing:0px;writing-mode:lr-tb;text-anchor:start;fill:#000000;fill-opacity:1;stroke:none;stroke-width:1px;stroke-linecap:butt;stroke-linejoin:miter;stroke-opacity:1"
     x="247.64728"
     y="150.26765"
     id="text3372-9-7-5"
     sodipodi:linespacing="125%"
     inkscape:export-xdpi="89.240463"
     inkscape:export-ydpi="89.240463"><tspan
       sodipodi:role="line"
       id="tspan3374-76-2-9"
       x="247.64728"
       y="150.26765"
       style="font-size:22.5px;line-height:125%;text-align:start;writing-mode:lr-tb;text-anchor:start;fill:#000000">25μs</tspan></text>
  <text
     xml:space="preserve"
     style="font-style:normal;font-weight:normal;font-size:15px;line-height:125%;font-family:sans-serif;text-align:start;letter-spacing:0px;word-spacing:0px;writing-mode:lr-tb;text-anchor:start;fill:#000000;fill-opacity:1;stroke:none;stroke-width:1px;stroke-linecap:butt;stroke-linejoin:miter;stroke-opacity:1"
     x="551.04974"
     y="104.78049"
     id="text3372-9-76-1"
     sodipodi:linespacing="125%"
     inkscape:export-xdpi="89.240463"
     inkscape:export-ydpi="89.240463"><tspan
       sodipodi:role="line"
       id="tspan3374-76-6-8"
       x="551.04974"
       y="104.78049"
       style="font-size:22.5px;line-height:125%;text-align:start;writing-mode:lr-tb;text-anchor:start;fill:#000000">34μs</tspan></text>
  <text
     xml:space="preserve"
     style="font-style:normal;font-weight:normal;font-size:12.5px;line-height:125%;font-family:sans-serif;letter-spacing:0px;word-spacing:0px;fill:#000000;fill-opacity:1;stroke:none;stroke-width:1px;stroke-linecap:butt;stroke-linejoin:miter;stroke-opacity:1"
     x="-20.919455"
     y="-58.311695"
     id="text15631"
     sodipodi:linespacing="125%"><tspan
       sodipodi:role="line"
       id="tspan15633"
       x="-20.919455"
       y="-58.311695" /></text>
  <text
     xml:space="preserve"
     style="font-style:normal;font-weight:normal;font-size:15px;line-height:125%;font-family:sans-serif;text-align:start;letter-spacing:0px;word-spacing:0px;writing-mode:lr-tb;text-anchor:start;fill:#000000;fill-opacity:1;stroke:none;stroke-width:1px;stroke-linecap:butt;stroke-linejoin:miter;stroke-opacity:1"
     x="442.13104"
     y="207.81033"
     id="text3372-9-4-0"
     sodipodi:linespacing="125%"
     inkscape:export-xdpi="89.240463"
     inkscape:export-ydpi="89.240463"><tspan
       sodipodi:role="line"
       id="tspan3374-76-4-2"
       x="442.13104"
       y="207.81033"
       style="font-size:22.5px;line-height:125%;text-align:start;writing-mode:lr-tb;text-anchor:start;fill:#000000">16 pulses</tspan></text>
</svg>
