<?xml version="1.0" encoding="UTF-8" standalone="no"?>
<!-- Created with Inkscape (http://www.inkscape.org/) -->

<svg
   xmlns:dc="http://purl.org/dc/elements/1.1/"
   xmlns:cc="http://creativecommons.org/ns#"
   xmlns:rdf="http://www.w3.org/1999/02/22-rdf-syntax-ns#"
   xmlns:svg="http://www.w3.org/2000/svg"
   xmlns="http://www.w3.org/2000/svg"
   xmlns:xlink="http://www.w3.org/1999/xlink"
   xmlns:sodipodi="http://sodipodi.sourceforge.net/DTD/sodipodi-0.dtd"
   xmlns:inkscape="http://www.inkscape.org/namespaces/inkscape"
   id="svg16696"
   version="1.1"
   inkscape:version="0.91 r13725"
   width="809.97339"
   height="242.25424"
   viewBox="0 0 809.97339 242.25424"
   sodipodi:docname="stim_pol_rev_single.svg">
  <metadata
     id="metadata16702">
    <rdf:RDF>
      <cc:Work
         rdf:about="">
        <dc:format>image/svg+xml</dc:format>
        <dc:type
           rdf:resource="http://purl.org/dc/dcmitype/StillImage" />
        <dc:title></dc:title>
      </cc:Work>
    </rdf:RDF>
  </metadata>
  <defs
     id="defs16700">
    <clipPath
       clipPathUnits="userSpaceOnUse"
       id="clipPath17248">
      <rect
         style="fill:none;stroke:#000000;stroke-width:0.991;stroke-miterlimit:4;stroke-dasharray:none;stroke-dashoffset:0"
         id="rect17250"
         width="759.32202"
         height="240.25424"
         x="226.90678"
         y="74.152542" />
    </clipPath>
  </defs>
  <sodipodi:namedview
     pagecolor="#ffffff"
     bordercolor="#666666"
     borderopacity="1"
     objecttolerance="10"
     gridtolerance="10"
     guidetolerance="10"
     inkscape:pageopacity="0"
     inkscape:pageshadow="2"
     inkscape:window-width="1200"
     inkscape:window-height="770"
     id="namedview16698"
     showgrid="false"
     inkscape:zoom="0.476792"
     inkscape:cx="489.50495"
     inkscape:cy="-63.037596"
     inkscape:window-x="1920"
     inkscape:window-y="1347"
     inkscape:window-maximized="0"
     inkscape:current-layer="svg16696"
     fit-margin-top="1"
     fit-margin-left="0"
     fit-margin-right="0"
     fit-margin-bottom="1" />
  <image
     width="1280"
     height="1400"
     preserveAspectRatio="none"
     xlink:href="data:image/png;base64,iVBORw0KGgoAAAANSUhEUgAABQAAAAV4AQAAAADX7k32AAAABGdBTUEAALGPC/xhBQAAACBjSFJN AAB6JgAAgIQAAPoAAACA6AAAdTAAAOpgAAA6mAAAF3CculE8AAAAAmJLR0QAAd2KE6QAAAAHdElN RQfgBg4RLwS9mgaCAAAToklEQVR42u3dfWwb530H8KPlhl6TlinWFv7DEZ1uQIZgQ5MGaBxU8znB hmDYumzr/lhRBNLQJP7HmR14EGPY1bEVVi1YIGHYsDRI6msxbBhaYKnhwp6j2UdBG7Rgkom9AIkh 846M4hpDZlOu5pAKX549d/ccdXwTKTHi78f4+0VEU3f06ePnyIvEr547LaWxzpCWpCY0xyXtlx97 5EeEGtMJyDIAAkidAQKOjVFbOgCPZakt7YERkdyjnUhRWzoA9SS1pT0w6gLjPWxlKBuVt/Ijmoyk ivGkNjyh1sSyWnR6eHho4UBWqx6IpDT5yGjnoYgnI8mPEhh9SAGHktHU64+ltL0ras09Y9pdBx95 ZGjhQkpbeHFIAuNa8LU3yWPJveERvCvm7uJUD0At5gPldxypT0vgff7GDmjDY1r008fXJtPyKb6S 1EbcEewCeMyxTP1UPfBEtgfgVH5i4mA0el1ciqSGPeCEoc+Yp9arcgQlcEpcENmVkqhWstHIrc7A scyVC7Nj8VUJjJXVLn7BBe7aL4/YTxzSkk98Vn72Benf/cvant33H9p81S8t5q//7vXotGHMRlIj cl/c9971449dqJwx7ewebwSFyKVWhPXO97PRB/7qzztucOydK2fWjsWyT3xWAr+wf6q6+1e1sfc0 7YsvXvvSG5feq7zymQ8yD44kpr/2YOnmU1deiD//n3+7sNmq3Go+P51/ZXhCrP564c2n3i+JdP74 7PqHJ81/vFZ941JBvCJWxY+F0IVeyj/177c6bvD2h8IqXHzlPz7I/OhAZPr4/iG56vHYn2qjJ3/8 4TfOVcSEEE5BFN60/m72qFPIi4owxGarfmQIGfdGrvr5D98bMuRj/CXvJ0cvCS/nhbBEpXTU7mKD pdKyJdIJp37V/2mG2GYmRDafVffzwcKiLiZDj/E27gh3HDvGsixH/mOs+qXV7QPDcYTVuEiXG65u fPUutmEYeUNUGjzbB5by4pL8uiVH2GqsLl2UQ5mfKHmrbVukxQax0HmD2eK7Y4uT1Yal2weW9/7C XHKueM/IqVzx3l0PySVz869fPnZsJTok76dyuXI5/ZA+dPngC5EvZidi2/wqH9Uu3rn0DpS72s9K bVFcFGv3KwVv/5a3+2WqWq//xLK++ReI97j9noE7He7PwQEYQWoAgABSAwAEkBow+MBy80+o7lv/ UWpYDdhiWYUaBSCA4U9y8iPGGbgkf644ygxYl8WyMXE4NWKwBV5dF9Xri6/S6OLdAMsSuPT6TjK0 mPdHi9dmN8DFqlE9vHTa2EFgMr4mn+hGenvAG0IXR5dMfQeBKX3LwPWNu2tFwzCXvmfsKDA3P/Xy w3+2EIvXr1iNtAOu7iCnOVnjxtJrzx1ZOvvlNE/gqriRmR0/tTQ73riiLTBr9Be4KIFjS7OJeMOa eAg4H16R0vsJXBcpCTwigelNgMkFUa2xkvGutvyRxc7Mus/B8c2A+8LAfuf007Mz+68tjDeOSxg4 MjnZ73HrKjVgfDLCGziZfmxH/3/WMzC18O3TOrVmM2AxHeE9giPcd/G+9MO8gcn5yOl4aMVonwAV o0vg3MpLJmtgXeQRkTdQfrPAGyi/3eINXOX+HFznDqxwBwoAewdyCQfgZNs1Og+g/OlXVP1frfHe QDK8pcUoK6D7yzbioAsMxlMCSw/wATo14EW1tBxz/2MDtOe/fHrUuPWv7yxcXPimt7QaF5U8D6C7 U+3MuRvOaD5z3rloHQ2AuRwP4IIH/OCGY1QzidGLJR8oXyH8gKtXj41OzteAXHZxvga8mSk41uzR YEUxxgyY+F/5HLTO1oClR1kBb44m3s28M2r9RQ3I5UCdV386TWuYAIM4rRYyArZ+e5IRsHUAvOOA JjWoK+AUtaoOOBMX392VtpLzlvy0POT+3r2lvuvmEE2M58VxO60XLnjAb7qHb6ub2Qv9BBr220bB 8oBr7vHSchsUJvGAuv22VTBd4K2iKOuSF6N21QMXbMcqrNSA1Rg34JptW4V1F9i0i8sdZ3P1mHg3 wJP2slW46AEbXyQ79mtS610+Tr2KM5Z6FTceZhgA5XFwygV6x0HvQF3UN9YzAPpZNfw/zYb1bIDt AiCAAALYGWh5X6WqF4S4/f7bLIHr3ldqOQGUB9CLOz859e0hvkDGI+jO+K0Kq1DU847V8DgWQPmR FsKQIzg32TgNgwWwaHjvmRfC30axAhYs4b4fzfc56N2W48yBnF/F2wKqH+cifQBumoF7+41dANwx oEEtAxBAahmAdzDQBHBrwBnLa5pyuaS/xHsX2GAEHNe9punyVfX9ovs+us1pBBOW1zTZTgBcc6cj sokHdJsmJ62At4pCrFGzGoBu0+TcCgFL1KwGoNs0OeXQLr4dekBX0YOHFzs/NlK34Xg3QLdpsu3Q i+TmxgOMrv6dVnCni7GvbGXDPtBtmjZexUPuieIYAeVx0G2acrngx1LTPdUeI6Cf1Y3Hm3UP4AJs GwABBBBAAAEEEEAAAWQJDH5xsLvt1E4aP9T5seWtbHiAawguARBA6gAIIHUA3AGgSW0aNKCa0zSX c/wlqmniktqcJvtyAPSbJi6pzWmy7QDIrmny5zTVgPyaJsdrmuqAHJumufAu3miaumiOatnSFy52 3zTpXtPk1IB1TdMWxrLa/UO3sGH5IjG8psmpvYrrmiYGwOmY1zQ5uTm1yAw3TQyAfto1TWyAvW4H QAABBBBAAAEEEEAA+wssd90c1YBbOkNFtxsexLffeAXAnQJWD1PLOgGfpJYNPJD9LgYQQDqgCeDW gKppyq2oE0H7TRMjoGqaLmfUiaD9pokRMKGaphrQa5p4Ab05TRUF9JsmTkDTn9NUmtwAllgB/bPn OYXQLr7NDOjNaboeepHc5ARUZ8+7nA6AXtPECKjOnpebC843b7pNEyOgn8amiR2wMQACCCCAAFLL AASQWgYggNSyTsBnPqqTnndI/GM7guyBCWpZByCbtB3B6JY2A2AzkH3TBCCAALYFmgyBhghdjI0b cMYRUx4w7y9RTRMfYMIUX/GAaQX0myZWwJOxfQderAH9pokRcFQY40vL50bf8JeopokXMHFj+XwY WOIEHHck8FPLPxk96i9RTZMC7sApxyvnlp8/99Uz3QNj4uS4HEFHfYOlmiY+wIQjviKfg+fDhxnH YAR0j4Pjv7b8T6MKqJomPsCmmO4NZ6AAEEAAAQQQQAABBBDAoIbgC0TT1OsIAtgjkE0G8S1gAAEE 8OMBZHygNhkCDdHUNPEBzsRU0zTlL2E3pykhVNOklrCb0zQuVNNkKCC3OU3jcdU0xfwl7OY0uecf 9JqmxAaQ25wmv2mqu04TL6DfNNVdp4kRUO5iv2lSu5jlnCavaZpRi0yWc5pCMd0bzkABIIAAAggg gAACCCCA/IFomnodQfZAzGkCEEAAAeSRQQSa1KYWQEM0Nk1s0q5ponaFgAlDNU2WArK7TlPLpolN 2jVNbNKuaWITBXSbpqAnqbtOE3k8oN80BcC66zSRRwKPqqbpUQWsu04Tedo1TdSuELApJrWpE5BX AASQOgACSB0AAaQOgABSp9N1mtg2TWwCIIDUARBA6gB4JwJNalMLoCEYN03TQdMUnHeLXdOUV01T aLoGq6Yp4aimKa+A3JomCfSbJgVk1zQlLNU0ORtAVk2TB3SbJgVk1zRJoN80BUBuTVNCV02TqYDs miZDNU2WWmSiaeoRyCsAAkgdAAGkDoAAUgdAAKmDpmnHRpBLAASQOgACSB3ewDgPoBYTflXTJdDs NzAZX+sEdNc6ZMCUvinQ/V1+DzjjL+x/05TSc/MLvzO0d6FxxWokOO+WBwxN1+hv05Q1biydPfKz 3z7bFug3TaEJL/1tmlbFjcza8z9732oL9Jum0JSh/jZNq2IxM/ns5bubdrH/HEzEVdM0swHsb9O0 LlKZsy/YpeZhiW8yp6mvP5PYmbPHT5882xZIPqfp9NOTxyfvnmoLbHH2vD4L2z/t2cxpKrQFNsXs O87N9e6BvAIggNQBEEDqAAggdQAEkDoAAkidwQUa1DIAAaSWAXgHA02GQFfjcAW2aZr4ANs0TayA xE1TZyBx09QFkPXZ8xIx1TQFp5gkaJo2B7a8ThObSGBaNU2qqWA3p2k6aJpiapGJOU09AnkFQACp AyCA1AEQQOoACCB1AASQOgACSB0AAaTOIAJNalMLoCEYnz3PCZomeccNu7PnDQdNk7zjAbmdPc8O miZbAbk1TXbQNCkgu6bJDpqmEJBV02QHc5pCu5jV2fPsoGkKgNyaJjuY0xQAuTVNTtA0qeMgmqae gbwCIIDUARBA6gAIIHUABJA6OHvejo0glwC4U8DqYWpZJ+CT1LKBB7LfxQACSAc0GQIN0dg0MQI6 VtA0Wd4Sv2liBBzWg6ZJ94Fe08QIKAfOb5qCEfSaJl5Av2lSQL9pYgb0r9O0ASyxA3rXafKBftPE C6iu06SAXtPEC+g3TaHDjMPpMOMeB/2myQf6TRMjYFNM94YzUAAIIIAAAggggAACCCB/4DPMmyb+ I8gemKCWdQCySdsRjFLLBh7IvmkCEEAA2wJNhkBDNDVNfICt5zQxArae08QI2HpOEyOgE8xpcnyg apoYAZ2gaXJqwBIrYOumiRFQD5om3Qf6TRMfoG0Ec5oMH+g3TYyAMdU0yTteTK9p4gNsiunecAYK AAEEEEAAAQQQQAAB5F9DoGnqdQQB7BHIJoN7mAEQQAAHHcj4QG0yBBqC85ym1k0TH2CbpokP0Ama JlXk8JvT1LppYgQ0g6bJrAF5zWkKzp4X2sW85jQFZ88LgNzmNLU+ex4jYOuz5zECNsV0bzgDBYAA AggggAACCCCAAPIHomnqdQTZAzGnCUAAAQSQRwYRaFKbWgANwfk6TU7QNPlEdtdpipuqaZJ3PCC3 6zQ5ZtA0KSC36zQ5o0HTNOotYXedJhfoN00bQF7XaXKC6zQ53hJ+12mKBddpivlAbtdpkkcXdfY8 xweyu06TEzRNPhDXaeoZyCsAAkgdAAGkDoAAUgdAAKmD6zTt2AiyiM4DqMXcW6vifVINrVj/RR7A ZHzOA64aVaMOWBziAUzpVz1gQW8AlqNcgPbK9MiBXOHMyw+vTK9srCiu8ABmDfutZ1/70tcL5587 cuW5KxsrbuV4AFeFffVby+fvKzw6/ifOuLOxgssISmDqW8s/uW814QJDu7j8JA/gurAdOYKZQsEF rm+s4PIqFuJq+tnXHrlSKDQ8B9fPcgHO5eSr+I8LhRn5Kp4PLbcG5u03Q3BummJB0xTzlvBrmkTQ NPlL2DVNEqPOnqeA3JomO66aJnnHDbumyc6rpklNeGHXNLWe08Qm7eY0sUm7OU3UrhCw9ZwmalcI 2BST2tQJyCsAAkgdAAGkDoAAUgdAAPuRynaA/WyasgbzEUzrzIHq13v5Ak0HwN7CfhenuQPfjTMH FvPMgaLAHbhJAASQOgACSB0AAaQOgABSB0AAqQMggNQBEEDqAAggdQAEkDoAAkgdAAGkDoAAUgdA AKkDIIDUARBA6gAIIHUABJA6AAJIHQABpA6AAFIHQACpAyCA1AEQQOoACCB1AASQOgACSB0AAaQO gABSB0AAqQMggNQBEEDqAAggdQAEkDoAAkgdAAGkDoAAUgdAAKkDIIDUARBA6gAIIHUABJA6AAJI HQABpA6AAFIHQACpAyCA1AEQQOoACCB1AASQOgACSB0AAaQOgABSB0AAqQMggNQBEEDqAAggdQAE kDoAAkgdAAGkDoAAUgdAAKkDIIDUARBA6gAIIHUABJA6AAJIHQABpA6AAFIHQACpAyCA1AEQQOoA CCB1AASQOgACSB0AAaQOgABSB0AAqQMggNQBEEDqAAggdQAEkDoAAkgdAAGkDoAAUgdAAKkDIIDU ARBA6gAIIHUABJA6AAJIHQABpA6AAFIHQACpAyCA1AEQQOoACCB1AASQOgACSB0AAaQOgABSB0AA qQMggNQBEEDqAAggdQAEkDoAAkgdAAGkDoAAUgdAAKkDIIDUARBA6gAIIHUABJA6AAJIHQABpA6A AFIHQACpAyCA1AEQQOoACCB1AASQOgACSB0AAaQOgABSB0AAqQMggNQBEEDqAAggdQAEkDoAAkgd AAGkDoAAUgdAAKkDIIDUARBA6gAIIHUABJA6AAJIHQABpA6Ady6w2ieAtV1guU9Ac7vAYp+AMx9b YL928baB/XqRmNsF9isWd2CnAAggdQAEkDoAAkgdAAGkjgeco1Z0AiYNMUQN2RR40KjqYp2a0h5Y Ne4vT+y79+nv6vKTcpqa1ApolauLL2VeNt1PDlOTWgF/WBaLb2VedYHiEWpSK6AcwU+9lfle3F3y KjWpGSjkc7D8VTmC3pIMNakF8JJRPbV45crr3pIENakFMGWIXbv3PX46Lni+SLwE72ZxPMx4qVBL OgG5BkAAqQMggNQBEEDqANgzEEEQBGGd/dSAThmjBnRKVjv0h5q291ce1B7W7v0jbf/nNO2uT34y ec+h3Z/X9nzikBb5znd+MHRv5BPJXZHfk/+cH/yD9i/a42Nasl9/6aWU9rnrf/39m//z05/Hb3/+ N04cOXHtgZNvPj8yVfnNvxz+xvCJ37JvvvbU/eL3n3nybxZO/0Fi9u//69+M//76Z66d6ddfuvuf NYP625XNM8EdWAXw4w+kFnQKgABSB8Be8//itwEM2+7fRQAAACV0RVh0ZGF0ZTpjcmVhdGUAMjAx Ni0wNi0xNFQxNzo0NzowNCswOTowMP39bdQAAAAldEVYdGRhdGU6bW9kaWZ5ADIwMTYtMDYtMTRU MTc6NDc6MDQrMDk6MDCMoNVoAAAAAElFTkSuQmCC "
     id="image16704"
     x="0"
     y="0"
     clip-path="url(#clipPath17248)"
     transform="translate(-176.25543,-73.152542)" />
  <text
     xml:space="preserve"
     style="font-style:normal;font-weight:normal;font-size:25px;line-height:125%;font-family:sans-serif;letter-spacing:0px;word-spacing:0px;fill:#000000;fill-opacity:1;stroke:none;stroke-width:1px;stroke-linecap:butt;stroke-linejoin:miter;stroke-opacity:1"
     x="0.073242188"
     y="49.708847"
     id="text3372-75"
     sodipodi:linespacing="125%"
     inkscape:export-xdpi="89.240463"
     inkscape:export-ydpi="89.240463"><tspan
       sodipodi:role="line"
       id="tspan3374-5"
       x="0.073242188"
       y="49.708847"
       style="font-size:25px;fill:#000000">TSI</tspan></text>
  <text
     xml:space="preserve"
     style="font-style:normal;font-weight:normal;font-size:25px;line-height:125%;font-family:sans-serif;letter-spacing:0px;word-spacing:0px;fill:#000000;fill-opacity:1;stroke:none;stroke-width:1px;stroke-linecap:butt;stroke-linejoin:miter;stroke-opacity:1"
     x="0.073242188"
     y="91.019272"
     id="text3372-7-5"
     sodipodi:linespacing="125%"
     inkscape:export-xdpi="89.240463"
     inkscape:export-ydpi="89.240463"><tspan
       sodipodi:role="line"
       id="tspan3374-7-2"
       x="0.073242188"
       y="91.019272"
       style="font-size:25px;fill:#000000">CST</tspan></text>
  <text
     xml:space="preserve"
     style="font-style:normal;font-weight:normal;font-size:25px;line-height:125%;font-family:sans-serif;letter-spacing:0px;word-spacing:0px;fill:#000000;fill-opacity:1;stroke:none;stroke-width:1px;stroke-linecap:butt;stroke-linejoin:miter;stroke-opacity:1"
     x="0.073242188"
     y="132.26323"
     id="text3372-7-0-4"
     sodipodi:linespacing="125%"
     inkscape:export-xdpi="89.240463"
     inkscape:export-ydpi="89.240463"><tspan
       sodipodi:role="line"
       id="tspan3374-7-8-3"
       x="0.073242188"
       y="132.26323"
       style="font-size:25px;fill:#000000">POL</tspan></text>
  <text
     xml:space="preserve"
     style="font-style:normal;font-weight:normal;font-size:25px;line-height:125%;font-family:sans-serif;letter-spacing:0px;word-spacing:0px;fill:#000000;fill-opacity:1;stroke:none;stroke-width:1px;stroke-linecap:butt;stroke-linejoin:miter;stroke-opacity:1"
     x="0.073242188"
     y="170.36974"
     id="text3372-7-0-1-9"
     sodipodi:linespacing="125%"
     inkscape:export-xdpi="89.240463"
     inkscape:export-ydpi="89.240463"><tspan
       sodipodi:role="line"
       id="tspan3374-7-8-2-0"
       x="0.073242188"
       y="170.36974"
       style="font-size:25px;fill:#000000">C2R</tspan></text>
  <text
     xml:space="preserve"
     style="font-style:normal;font-weight:normal;font-size:25px;line-height:125%;font-family:sans-serif;letter-spacing:0px;word-spacing:0px;fill:#000000;fill-opacity:1;stroke:none;stroke-width:1px;stroke-linecap:butt;stroke-linejoin:miter;stroke-opacity:1"
     x="-1.9267578"
     y="212.47624"
     id="text3372-7-0-1-8-0"
     sodipodi:linespacing="125%"
     inkscape:export-xdpi="89.240463"
     inkscape:export-ydpi="89.240463"><tspan
       sodipodi:role="line"
       id="tspan3374-7-8-2-7-8"
       x="-1.9267578"
       y="212.47624"
       style="font-size:25px;fill:#000000">DCLK</tspan></text>
  <rect
     style="fill:none;stroke:#000000;stroke-width:3;stroke-miterlimit:4;stroke-dasharray:9, 9;stroke-dashoffset:0"
     id="rect17336"
     width="738.91522"
     height="46.330441"
     x="64.562408"
     y="100.92801" />
  <text
     xml:space="preserve"
     style="font-style:normal;font-weight:normal;font-size:25px;line-height:125%;font-family:sans-serif;letter-spacing:0px;word-spacing:0px;fill:#000000;fill-opacity:1;stroke:none;stroke-width:1px;stroke-linecap:butt;stroke-linejoin:miter;stroke-opacity:1"
     x="367.72949"
     y="168.78679"
     id="text3372-7-0-4-4"
     sodipodi:linespacing="125%"
     inkscape:export-xdpi="89.240463"
     inkscape:export-ydpi="89.240463"><tspan
       sodipodi:role="line"
       id="tspan3374-7-8-3-9"
       x="367.72949"
       y="168.78679"
       style="font-size:25px;fill:#000000">reversed</tspan></text>
</svg>
